tax_id	Org_name	GeneID	CurrentID	Status	Symbol	Aliases	description	other_designations	map_location	chromosome	genomic_nucleotide_accession.version	start_position_on_the_genomic_accession	end_position_on_the_genomic_accession	orientation	exon_count	OMIM	
9606	Homo sapiens	100506012	0	live	PPP5D1		PPP5 tetratricopeptide repeat domain containing 1	PPP5 TPR repeat domain-containing protein 1		19	NC_000019.10	46480788	46601200	minus	5		
9606	Homo sapiens	100137049	0	live	PLA2G4B	HsT16992, cPLA2-beta	phospholipase A2, group IVB (cytosolic)		15q11.2-q21.3	15	NC_000015.10	41838813	41848148	plus	20	606088	
9606	Homo sapiens	283748	0	live	PLA2G4D	cPLA2delta	phospholipase A2, group IVD (cytosolic)	cPLA2-delta|phospholipase A2 delta, cytosolic|phospholipase A2 group IVD	15q15.1	15	NC_000015.10	42067565	42094559	minus	21	612864	
9606	Homo sapiens	255189	0	live	PLA2G4F	PLA2G4FZ	phospholipase A2, group IVF	cPLA2-zeta	15q15.1	15	NC_000015.10	42141134	42156641	minus	21		
9606	Homo sapiens	123745	0	live	PLA2G4E		phospholipase A2, group IVE	cPLA2-epsilon	15q15.1	15	NC_000015.10	41981582	42050703	minus	23		
9606	Homo sapiens	115727	0	live	RASGRP4		RAS guanyl releasing protein 4	guanyl nucleotide releasing protein 4	19q13.1	19	NC_000019.10	38409058	38426305	minus	17	607320	
9606	Homo sapiens	93589	0	live	CACNA2D4	RCD4	calcium channel, voltage-dependent, alpha 2/delta subunit 4	voltage-gated calcium channel alpha(2)delta-4 subunit|voltage-gated calcium channel subunit alpha-2/delta-4	12p13.33	12	NC_000012.12	1791957	1920865	minus	38	608171	
9606	Homo sapiens	84867	0	live	PTPN5	PTPSTEP, STEP	protein tyrosine phosphatase, non-receptor type 5 (striatum-enriched)	neural-specific protein-tyrosine phosphatase|protein-tyrosine phosphatase striatum-enriched|striatum-enriched protein-tyrosine phosphatase	11p15.1	11	NC_000011.10	18727928	18792721	minus	16	176879	
9606	Homo sapiens	80824	0	live	DUSP16	MKP-7, MKP7	dual specificity phosphatase 16	MAP kinase phosphatase 7|MAPK phosphatase-7|mitogen-activated protein kinase phosphatase 7	12p13	12	NC_000012.12	12473282	12562839	minus	9	607175	
9606	Homo sapiens	59285	0	live	CACNG6		calcium channel, voltage-dependent, gamma subunit 6	neuronal voltage-gated calcium channel gamma-6 subunit	19q13.4	19	NC_000019.10	53991149	54012666	plus	7	606898	
9606	Homo sapiens	59284	0	live	CACNG7		calcium channel, voltage-dependent, gamma subunit 7	TARP gamma-7|neuronal voltage-gated calcium channel gamma-7 subunit|transmembrane AMPAR regulatory protein gamma-7	19q13.4	19	NC_000019.10	53909425	53943715	plus	6	606899	
9606	Homo sapiens	59283	0	live	CACNG8		calcium channel, voltage-dependent, gamma subunit 8	TARP gamma-8|neuronal voltage-gated calcium channel gamma-8 subunit|transmembrane AMPAR regulatory protein gamma-8	19q13.4	19	NC_000019.10	53963036	53990215	plus	4	606900	
9606	Homo sapiens	57551	0	live	TAOK1	KFC-B, MAP3K16, MARKK, PSK-2, PSK2, TAO1, hKFC-B, hTAOK1	TAO kinase 1	MARK Kinase|STE20-like kinase PSK2|kinase from chicken homolog B|microtubule affinity regulating kinase kinase|prostate-derived STE20-like kinase 2|prostate-derived sterile 20-like kinase 2|serine/threonine protein kinase TAO1 homolog|thousand and one amino acid protein 1|thousand and one amino acid protein kinase 1	17q11.2	17	NC_000017.11	29390925	29551904	plus	21	610266	
9606	Homo sapiens	55970	0	live	GNG12		guanine nucleotide binding protein (G protein), gamma 12	G-protein gamma-12 subunit	1p31.3	1	NC_000001.11	67701466	67833779	minus	6	615405	
9606	Homo sapiens	55799	0	live	CACNA2D3	HSA272268	calcium channel, voltage-dependent, alpha 2/delta subunit 3	calcium channel alpha2-delta3 subunit|calcium channel, voltage-dependent, alpha 2/delta 3 subunit|voltage-gated calcium channel subunit alpha-2/delta-3	3p21.1	3	NC_000003.12	54122593	55074557	plus	43	606399	
9606	Homo sapiens	51776	0	live	ZAK	AZK, MLK7, MLT, MLTK, MRK, mlklak, pk	sterile alpha motif and leucine zipper containing kinase AZK	HCCS-4|MLK-like mitogen-activated protein triple kinase|human cervical cancer suppressor gene 4 protein|mixed lineage kinase 7|mixed lineage kinase with a leucine zipper and a sterile alpha motif|mixed lineage kinase-related kinase MRK-beta	2q24.2	2	NC_000002.12	173075837	173268009	plus	22	609479	
9606	Homo sapiens	51701	0	live	NLK		nemo-like kinase		17q11.2	17	NC_000017.11	28042647	28205140	plus	13	609476	
9606	Homo sapiens	51347	0	live	TAOK3	DPK, JIK, MAP3K18	TAO kinase 3	CTCL-associated antigen HD-CL-09|JNK/SAPK-inhibitory kinase|STE20-like kinase|cutaneous T-cell lymphoma-associated antigen HD-CL-09|dendritic cell-derived protein kinase|hKFC-A|jun kinase-inhibitory kinase|kinase from chicken homolog A|thousand and one amino acid protein 3	12q	12	NC_000012.12	118149801	118372945	minus	26		
9606	Homo sapiens	51295	0	live	ECSIT	SITPEC	ECSIT signalling integrator	ECSIT homolog|likely ortholog of mouse signaling intermediate in Toll pathway evolutionarily conserved	19p13.2	19	NC_000019.10	11505916	11529172	minus	9	608388	
9606	Homo sapiens	27330	0	live	RPS6KA6	PP90RSK4, RSK4	ribosomal protein S6 kinase, 90kDa, polypeptide 6	90 kDa ribosomal protein S6 kinase 6|RSK-4|S6K-alpha 6|S6K-alpha-6|p90-RSK 6|p90RSK6|ribosomal S6 kinase 4	Xq21	X	NC_000023.11	84058346	84187964	minus	26	300303	
9606	Homo sapiens	27092	0	live	CACNG4		calcium channel, voltage-dependent, gamma subunit 4	TARP gamma-4|neuronal voltage-gated calcium channel gamma-4 subunit|transmembrane AMPAR regulatory protein gamma-4	17q24	17	NC_000017.11	66964864	67033402	plus	4	606404	
9606	Homo sapiens	27091	0	live	CACNG5		calcium channel, voltage-dependent, gamma subunit 5	TARP gamma-5|neuronal voltage-gated calcium channel gamma-5 subunit|transmembrane AMPAR regulatory protein gamma-5	17q24	17	NC_000017.11	66835117	66887296	plus	6	606405	
9606	Homo sapiens	27006	0	live	FGF22		fibroblast growth factor 22	FGF-22	19p13.3	19	NC_000019.10	639895	643703	plus	3	605831	
9606	Homo sapiens	26291	0	live	FGF21		fibroblast growth factor 21		19q13.33	19	NC_000019.10	48755559	48758330	plus	4	609436	
9606	Homo sapiens	26281	0	live	FGF20	FGF-20, RHDA2	fibroblast growth factor 20		8p22	8	NC_000008.11	16992825	17002165	minus	3	605558	
9606	Homo sapiens	25780	0	live	RASGRP3	GRP3	RAS guanyl releasing protein 3 (calcium and DAG-regulated)	calcium and DAG-regulated guanine nucleotide exchange factor III|guanine nucleotide exchange factor for Rap1	2p25.1-p24.1	2	NC_000002.12	33436349	33564731	plus	21	609531	
9606	Homo sapiens	23542	0	live	MAPK8IP2	IB-2, IB2, JIP2, PRKM8IPL	mitogen-activated protein kinase 8 interacting protein 2	JNK MAP kinase scaffold protein 2|JNK MAP kinase scaffold protein JIP2|JNK-interacting protein 2|homologous to mouse JIP-1|islet-brain 2	22q13.33	22	NC_000022.11	50600685	50611551	plus	12	607755	
9606	Homo sapiens	23162	0	live	MAPK8IP3	JIP-3, JIP3, JSAP1, SYD2, syd	mitogen-activated protein kinase 8 interacting protein 3	C-jun-amino-terminal kinase interacting protein 3|JNK MAP kinase scaffold protein 3|JNK-interacting protein 3|JNK/SAPK-associated protein-1|JNK/stress-activated protein kinase-associated protein 1|homolog of Drosophila Sunday driver 2|mitogen-activated protein kinase 8-interacting protein 3	16p13.3	16	NC_000016.10	1706183	1770317	plus	34	605431	
9606	Homo sapiens	23118	0	live	TAB2	CHTD2, MAP3K7IP2, TAB-2	TGF-beta activated kinase 1/MAP3K7 binding protein 2	TAK1-binding protein 2|mitogen-activated protein kinase kinase kinase 7-interacting protein 2	6q25.1	6	NC_000006.12	149217924	149411613	plus	15	605101	
9606	Homo sapiens	22808	0	live	MRAS	M-RAs, R-RAS3, RRAS3	muscle RAS oncogene homolog	muscle and microspikes RAS|ras-related protein R-Ras3	3q22.3	3	NC_000003.12	138347648	138405535	plus	9	608435	
9606	Homo sapiens	22800	0	live	RRAS2	TC21	related RAS viral (r-ras) oncogene homolog 2	ras-like protein TC21|teratocarcinoma oncogene	11p15.2	11	NC_000011.10	14277920	14364506	minus	8	600098	
9606	Homo sapiens	11221	0	live	DUSP10	MKP-5, MKP5	dual specificity phosphatase 10	dual specificity phosphatase MKP-5|map kinase phosphatase 5|mitogen-activated protein kinase phosphatase 5|serine/threonine specific protein phosphatase	1q41	1	NC_000001.11	221701420	221742176	minus	7	608867	
9606	Homo sapiens	11184	0	live	MAP4K1	HPK1	mitogen-activated protein kinase kinase kinase kinase 1	MAPK/ERK kinase kinase kinase 1|MEK kinase kinase 1|MEKKK 1|hematopoietic progenitor kinase 1	19q13.1-q13.4	19	NC_000019.10	38587640	38618035	minus	33	601983	
9606	Homo sapiens	10912	0	live	GADD45G	CR6, DDIT2, GADD45gamma, GRP17	growth arrest and DNA-damage-inducible, gamma	DDIT-2|DNA damage-inducible transcript 2 protein|GADD45-gamma|cytokine-responsive protein CR6|gadd-related protein, 17 kD	9q22.1-q22.2	9	NC_000009.12	89605012	89606555	plus	4	604949	
9606	Homo sapiens	10746	0	live	MAP3K2	MEKK2, MEKK2B	mitogen-activated protein kinase kinase kinase 2	MAP/ERK kinase kinase 2|MAPK/ERK kinase kinase 2|MEK kinase 2|MEKK 2	2q14.3	2	NC_000002.12	127298669	127343229	minus	16	609487	
9606	Homo sapiens	10454	0	live	TAB1	3'-Tab1, MAP3K7IP1	TGF-beta activated kinase 1/MAP3K7 binding protein 1	TAK1-binding protein 1|mitogen-activated protein kinase kinase kinase 7-interacting protein 1|transforming growth factor beta-activated kinase-binding protein 1	22q13.1	22	NC_000022.11	39399754	39437127	plus	12	602615	
9606	Homo sapiens	10369	0	live	CACNG2	MRD10	calcium channel, voltage-dependent, gamma subunit 2	TARP gamma-2|neuronal voltage-gated calcium channel gamma-2 subunit|stargazin|transmembrane AMPAR regulatory protein gamma-2	22q13.1	22	NC_000022.11	36560869	36702645	minus	4	602911	
9606	Homo sapiens	10368	0	live	CACNG3		calcium channel, voltage-dependent, gamma subunit 3	TARP gamma-3|neuronal voltage-gated calcium channel gamma-3 subunit|transmembrane AMPAR regulatory protein gamma-3|voltage-gated calcium channel gamma subunit	16p12.1	16	NC_000016.10	24255553	24362416	plus	4	606403	
9606	Homo sapiens	10235	0	live	RASGRP2	CALDAG-GEFI, CDC25L	RAS guanyl releasing protein 2 (calcium and DAG-regulated)	F25B3.3 kinase-like protein|RAS guanyl nucleotide-releasing protein 2|calcium and DAG-regulated guanine nucleotide exchange factor I|calcium and diacylglycerol-regulated guanine nucleotide exchange factor I|cdc25-like protein|guanine exchange factor MCG7|hCDC25L	11q13	11	NC_000011.10	64726911	64745456	minus	21	605577	
9606	Homo sapiens	10125	0	live	RASGRP1	CALDAG-GEFI, CALDAG-GEFII, RASGRP, V, hRasGRP1	RAS guanyl releasing protein 1 (calcium and DAG-regulated)	RAS guanyl nucleotide-releasing protein 1|calcium and DAG-regulated guanine nucleotide exchange factor II|guanine nucleotide exchange factor, calcium- and DAG-regulated, Rap1A|ras activator RasGRP	15q14	15	NC_000015.10	38488101	38564806	minus	17	603962	
9606	Homo sapiens	10000	0	live	AKT3	MPPH, MPPH2, PKB-GAMMA, PKBG, PRKBG, RAC-PK-gamma, RAC-gamma, STK-2	v-akt murine thymoma viral oncogene homolog 3	PKB gamma|RAC-gamma serine/threonine protein kinase|v-akt murine thymoma viral oncogene homolog 3 (protein kinase B, gamma)	1q44	1	NC_000001.11	243488233	243851079	minus	23	611223	
9606	Homo sapiens	9965	0	live	FGF19		fibroblast growth factor 19	FGF-19	11q13.1	11	NC_000011.10	69698238	69704338	minus	3	603891	
9606	Homo sapiens	9693	0	live	RAPGEF2	CNrasGEF, NRAPGEP, PDZ-GEF1, PDZGEF1, RA-GEF, RA-GEF-1, Rap-GEP, nRap GEP	Rap guanine nucleotide exchange factor (GEF) 2	PDZ domain containing guanine nucleotide exchange factor (GEF) 1|PDZ domain-containing guanine nucleotide exchange factor 1|RA(Ras/Rap1A-associating)-GEF|cyclic nucleotide ras GEF|neural RAP guanine nucleotide exchange protein|ras/Rap1-associating GEF-1	4q32.1	4	NC_000004.12	159104071	159360162	plus	35	609530	
9606	Homo sapiens	9479	0	live	MAPK8IP1	IB1, JIP-1, JIP1, PRKM8IP	mitogen-activated protein kinase 8 interacting protein 1	IB-1|JNK MAP kinase scaffold protein 1|JNK-interacting protein 1|PRKM8 interacting protein|islet-brain 1	11p11.2	11	NC_000011.10	45885496	45906465	plus	13	604641	
9606	Homo sapiens	9448	0	live	MAP4K4	FLH21957, HEL-S-31, HGK, MEKKK4, NIK	mitogen-activated protein kinase kinase kinase kinase 4	HPK/GCK-like kinase HGK|MAPK/ERK kinase kinase kinase 4|MEK kinase kinase 4|Ste20 group protein kinase HGK|epididymis secretory protein Li 31|hepatocyte progenitor kinase-like/germinal center kinase-like kinase|nck-interacting kinase	2q11.2-q12	2	NC_000002.12	101697703	101894690	plus	34	604666	
9606	Homo sapiens	9344	0	live	TAOK2	MAP3K17, PSK, PSK1, PSK1-BETA, TAO1, TAO2	TAO kinase 2	PSK-1|hKFC-C|kinase from chicken homolog C|prostate derived STE20-like kinase PSK|prostate-derived STE20-like kinase 1|prostate-derived sterile 20-like kinase 1|thousand and one amino acid protein kinase 2	16p11.2	16	NC_000016.10	29973641	29992261	plus	22	613199	
9606	Homo sapiens	9261	0	live	MAPKAPK2	MAPKAP-K2, MK-2, MK2	mitogen-activated protein kinase-activated protein kinase 2	MAPK-activated protein kinase 2|MAPKAP kinase 2	1q32	1	NC_000001.11	206684912	206734285	plus	11	602006	
9606	Homo sapiens	9254	0	live	CACNA2D2	CACNA2D	calcium channel, voltage-dependent, alpha 2/delta subunit 2	alpha 2 delta calcium channel subunit|gene 26|voltage-gated calcium channel subunit alpha-2/delta-2	3p21.3	3	NC_000003.12	50362613	50504244	minus	40	607082	
9606	Homo sapiens	9252	0	live	RPS6KA5	MSK1, MSPK1, RLPK	ribosomal protein S6 kinase, 90kDa, polypeptide 5	90 kDa ribosomal protein S6 kinase 5|RSK-like protein kinase|RSKL|S6K-alpha-5|nuclear mitogen- and stress-activated protein kinase 1	14q31-q32.1	14	NC_000014.9	90868122	91060649	minus	18	603607	
9606	Homo sapiens	9175	0	live	MAP3K13	LZK, MEKK13, MLK	mitogen-activated protein kinase kinase kinase 13	leucine zipper-bearing kinase|mixed lineage kinase	3q27	3	NC_000003.12	185282941	185489094	plus	18	604915	
9606	Homo sapiens	9064	0	live	MAP3K6	ASK2, MAPKKK6, MEKK6	mitogen-activated protein kinase kinase kinase 6	apoptosis signal-regulating kinase 2	1p36.11	1	NC_000001.11	27355179	27368014	minus	29	604468	
9606	Homo sapiens	9020	0	live	MAP3K14	FTDCR1B, HS, HSNIK, NIK	mitogen-activated protein kinase kinase kinase 14	NF-kappa-beta-inducing kinase|serine/threonine-protein kinase NIK	17q21	17	NC_000017.11	45263119	45317064	minus	17	604655	
9606	Homo sapiens	8986	0	live	RPS6KA4	MSK2, RSK-B	ribosomal protein S6 kinase, 90kDa, polypeptide 4	90 kDa ribosomal protein S6 kinase 4|RSKB|S6K-alpha-4|mitogen- and stress-activated protein kinase 2|nuclear mitogen- and stress-activated protein kinase 2|ribosomal protein S6 kinase alpha 4|ribosomal protein kinase B	11q11-q13	11	NC_000011.10	64359153	64372215	plus	17	603606	
9606	Homo sapiens	8913	0	live	CACNA1G	Ca(V)T.1, Cav3.1, NBR13	calcium channel, voltage-dependent, T type, alpha 1G subunit	cav3.1c|voltage-dependent T-type calcium channel alpha 1G subunit|voltage-dependent calcium channel alpha 1G subunit|voltage-gated calcium channel subunit alpha Cav3.1	17q22	17	NC_000017.11	50561068	50629625	plus	38	604065	
9606	Homo sapiens	8912	0	live	CACNA1H	CACNA1HB, Cav3.2, ECA6, EIG6	calcium channel, voltage-dependent, T type, alpha 1H subunit	calcium channel, voltage-dependent, T type, alpha 1Hb subunit|low-voltage-activated calcium channel alpha1 3.2 subunit|low-voltage-activated calcium channel alpha13.2 subunit|voltage dependent t-type calcium channel alpha-1H subunit|voltage-gated calcium channel alpha subunit Cav3.2|voltage-gated calcium channel alpha subunit CavT.2|voltage-gated calcium channel subunit alpha Cav3.2	16p13.3	16	NC_000016.10	1153241	1221772	plus	37	607904	
9606	Homo sapiens	8911	0	live	CACNA1I	Cav3.3, ca(v)3.3	calcium channel, voltage-dependent, T type, alpha 1I subunit	calcium channel, voltage-dependent, alpha 1I subunit|voltage-gated calcium channel subunit alpha Cav3.3	22q13.1	22	NC_000022.11	39557969	39689739	plus	38	608230	
9606	Homo sapiens	8823	0	live	FGF16	FGF-16, MF4	fibroblast growth factor 16	metacarpal 4-5 fusion	Xq13	X	NC_000023.11	77447675	77456522	plus	3	300827,309630	
9606	Homo sapiens	8822	0	live	FGF17	FGF-13, FGF-17, HH20	fibroblast growth factor 17		8p21	8	NC_000008.11	22039709	22048809	plus	8	603725	
9606	Homo sapiens	8817	0	live	FGF18	FGF-18, ZFGF5	fibroblast growth factor 18		5q34	5	NC_000005.10	171419663	171457626	plus	5	603726	
9606	Homo sapiens	8681	0	live	JMJD7-PLA2G4B	HsT16992, cPLA2-beta	JMJD7-PLA2G4B readthrough	jumonji domain containing 7-phospholipase A2, group IVB (cytosolic) read-through	15q11.2-q21.3	15	NC_000015.10	41828085	41848148	plus	25		
9606	Homo sapiens	8649	0	live	LAMTOR3	MAP2K1IP1, MAPBP, MAPKSP1, MP1, PRO0633, Ragulator3	late endosomal/lysosomal adaptor, MAPK and MTOR activator 3	MAPK scaffold protein 1|MEK binding partner 1|late endosomal/lysosomal adaptor and MAPK and MTOR activator 3|mitogen-activated protein kinase kinase 1 interacting protein 1|mitogen-activated protein kinase scaffold protein 1	4q23	4	NC_000004.12	99878338	99894546	minus	7	603296	
9606	Homo sapiens	8605	0	live	PLA2G4C	CPLA2-gamma	phospholipase A2, group IVC (cytosolic, calcium-independent)	phospholipase A2 group IVC	19q13.3	19	NC_000019.10	48047843	48110853	minus	20	603602	
9606	Homo sapiens	8569	0	live	MKNK1	MNK1	MAP kinase interacting serine/threonine kinase 1	MAP kinase signal-integrating kinase 1|MAPK signal-integrating kinase 1	1p33	1	NC_000001.11	46557407	46604294	minus	20	606724	
9606	Homo sapiens	8550	0	live	MAPKAPK5	MAPKAP-K5, MK-5, MK5, PRAK	mitogen-activated protein kinase-activated protein kinase 5	MAPK-activated protein kinase 5|MAPKAP kinase 5|MAPKAPK-5|p38-regulated/activated protein kinase	12q24.13	12	NC_000012.12	111842228	111901619	plus	19	606723	
9606	Homo sapiens	8517	0	live	IKBKG	AMCBX1, FIP-3, FIP3, Fip3p, IKK-gamma, IMD33, IP, IP1, IP2, IPD2, NEMO, ZC2HC9	inhibitor of kappa light polypeptide gene enhancer in B-cells, kinase gamma	I-kappa-B kinase subunit gamma|IKKAP1|IKKG|IkB kinase gamma subunit|NF-kappa-B essential modifier|NFkappaB essential modulator|ikB kinase subunit gamma|ikB kinase-associated protein 1|incontinentia pigmenti|inhibitor of nuclear factor kappa-B kinase subunit gamma	Xq28	X	NC_000023.11	154541204	154568573	plus	15	300248	
9606	Homo sapiens	8491	0	live	MAP4K3	GLK, MAPKKKK3, MEKKK 3, MEKKK3, RAB8IPL1	mitogen-activated protein kinase kinase kinase kinase 3	MAPK/ERK kinase kinase kinase 3|MEK kinase kinase 3|germinal center kinase-like kinase|germinal center kinase-related protein kinase	2p22.1	2	NC_000002.12	39249266	39437312	minus	34	604921	
9606	Homo sapiens	8074	0	live	FGF23	ADHR, FGFN, HPDR2, HYPF, PHPTC	fibroblast growth factor 23	phosphatonin|tumor-derived hypophosphatemia inducing factor	12p13.3	12	NC_000012.12	4368227	4379728	minus	3	605380	
9606	Homo sapiens	7867	0	live	MAPKAPK3	3PK, MAPKAP-K3, MAPKAP3, MAPKAPK-3, MK-3	mitogen-activated protein kinase-activated protein kinase 3	MAPK-activated protein kinase 3|MAPKAP kinase 3|chromosome 3p kinase	3p21.3	3	NC_000003.12	50611862	50649297	plus	14	602130	
9606	Homo sapiens	7850	0	live	IL1R2	CD121b, CDw121b, IL-1R-2, IL-1RT-2, IL-1RT2c, IL1RB, IL1R2	interleukin 1 receptor, type II	CD121 antigen-like family member B|IL-1 type II receptor|IL-1R-beta|antigen CDw121b|interleukin 1 receptor type II variant 3|interleukin-1 receptor beta|interleukin-1 receptor type II|type II interleukin-1 receptor, beta	2q12	2	NC_000002.12	101991816	102028544	plus	15	147811	
9606	Homo sapiens	7786	0	live	MAP3K12	DLK, MEKK12, MUK, ZPK, ZPKP1	mitogen-activated protein kinase kinase kinase 12	MAPK-upstream kinase|dual leucine zipper bearing kinase|dual leucine zipper kinase DLK|leucine zipper protein kinase|mixed lineage kinase|protein kinase MUK	12q13	12	NC_000012.12	53479669	53500136	minus	19	600447	
9606	Homo sapiens	7189	0	live	TRAF6	MGC:3310, RNF85	TNF receptor-associated factor 6, E3 ubiquitin protein ligase	E3 ubiquitin-protein ligase TRAF6|RING finger protein 85|interleukin-1 signal transducer	11p12	11	NC_000011.10	36483767	36510313	minus	8	602355	
9606	Homo sapiens	7186	0	live	TRAF2	MGC:45012, TRAP, TRAP3	TNF receptor-associated factor 2	E3 ubiquitin-protein ligase TRAF2|tumor necrosis factor type 2 receptor associated protein 3|tumor necrosis factor type 2 receptor-associated protein 3	9q34	9	NC_000009.12	136881933	136926621	plus	17	601895	
9606	Homo sapiens	7157	0	live	TP53	BCC7, LFS1, P53, TRP53	tumor protein p53	antigen NY-CO-13|mutant tumor protein 53|p53 tumor suppressor|phosphoprotein p53|transformation-related protein 53|tumor protein 53	17p13.1	17	NC_000017.11	7668402	7687550	minus	12	191170	
9606	Homo sapiens	7132	0	live	TNFRSF1A	CD120a, FPF, MS5, TBP1, TNF-R, TNF-R-I, TNF-R55, TNFAR, TNFR1, TNFR1-d2, TNFR55, TNFR60, p55, p55-R, p60	tumor necrosis factor receptor superfamily, member 1A	TNF-R1|TNF-RI|TNFR-I|tumor necrosis factor binding protein 1|tumor necrosis factor receptor 1A isoform beta|tumor necrosis factor receptor type 1|tumor necrosis factor-alpha receptor	12p13.2	12	NC_000012.12	6328757	6342117	minus	10	191190	
9606	Homo sapiens	7124	0	live	TNF	DIF-alpha, TNFA, TNFSF2, TNF	tumor necrosis factor	APC1 protein|TNF, macrophage-derived|TNF, monocyte-derived|TNF-a|cachectin|tumor necrosis factor ligand superfamily member 2|tumor necrosis factor-alpha	6p21.3	6	NC_000006.12	31575567	31578336	plus	4	191160	
9606	Homo sapiens	7048	0	live	TGFBR2	AAT3, FAA3, LDS1B, LDS2, LDS2B, MFS2, RIIC, TAAD2, TGFR-2, TGFbeta-RII	transforming growth factor, beta receptor II (70/80kDa)	TGF-beta receptor type IIB|TGF-beta type II receptor|tbetaR-II|transforming growth factor beta receptor type IIC|transforming growth factor, beta receptor II alpha|transforming growth factor, beta receptor II beta|transforming growth factor, beta receptor II delta|transforming growth factor, beta receptor II epsilon|transforming growth factor, beta receptor II gamma	3p22	3	NC_000003.12	30606493	30694142	plus	9	190182	
9606	Homo sapiens	7046	0	live	TGFBR1	AAT5, ACVRLK4, ALK-5, ALK5, ESS1, LDS1, LDS1A, LDS2A, MSSE, SKR4, TGFR-1, tbetaR-I	transforming growth factor, beta receptor 1	activin A receptor type II-like kinase, 53kDa|activin A receptor type II-like protein kinase of 53kD|activin receptor-like kinase 5|mutant transforming growth factor beta receptor I|serine/threonine-protein kinase receptor R4|transforming growth factor-beta receptor type I	9q22	9	NC_000009.12	99104038	99154192	plus	11	190181	
9606	Homo sapiens	7043	0	live	TGFB3	ARVD, ARVD1, RNHF, TGF-beta3	transforming growth factor, beta 3	TGF-beta-3|prepro-transforming growth factor beta-3	14q24	14	NC_000014.9	75958097	75982991	minus	8	190230	
9606	Homo sapiens	7042	0	live	TGFB2	LDS4, TGF-beta2	transforming growth factor, beta 2	BSC-1 cell growth inhibitor|G-TSF|cetermin|glioblastoma-derived T-cell suppressor factor|polyergin|prepro-transforming growth factor beta-2	1q41	1	NC_000001.11	218345334	218444619	plus	8	190220	
9606	Homo sapiens	7040	0	live	TGFB1	CED, DPD1, LAP, TGFB, TGFbeta	transforming growth factor, beta 1	TGF-beta-1|latency-associated peptide|prepro-transforming growth factor beta-1	19q13.1	19	NC_000019.10	41330531	41353933	minus	7	190180	
9606	Homo sapiens	6885	0	live	MAP3K7	MEKK7, TAK1, TGF1a	mitogen-activated protein kinase kinase kinase 7	TGF-beta activated kinase 1|TGF-beta-activated kinase 1|transforming growth factor-beta-activated kinase 1	6q15	6	NC_000006.12	90513573	90587301	minus	17	602614	
9606	Homo sapiens	6789	0	live	STK4	KRS2, MST1, TIIAC, YSK3	serine/threonine kinase 4	MST-1|STE20-like kinase MST1|dJ211D12.2 (serine/threonine kinase 4 (MST1, KRS2))|kinase responsive to stress 2|mammalian STE20-like protein kinase 1|mammalian sterile 20-like 1|serine/threonine-protein kinase Krs-2	20q11.2-q13.2	20	NC_000020.11	44966479	45079975	plus	17	604965	
9606	Homo sapiens	6788	0	live	STK3	KRS1, MST2	serine/threonine kinase 3	KB-1458E12.1|MST-2|STE20-like kinase MST2|mammalian STE20-like protein kinase 2|serine/threonine kinase 3 (STE20 homolog, yeast)|serine/threonine kinase 3 (Ste20, yeast homolog)|serine/threonine-protein kinase Krs-1	8q22.2	8	NC_000008.11	98371355	98942571	minus	28	605030	
9606	Homo sapiens	6722	0	live	SRF	MCM1	serum response factor	c-fos serum response element-binding transcription factor|serum response factor (c-fos serum response element-binding transcription factor)	6p21.1	6	NC_000006.12	43171295	43181506	plus	8	600589	
9606	Homo sapiens	6655	0	live	SOS2		son of sevenless homolog 2 (Drosophila)	SOS-2|guanine nucleotide exchange factor|guanine nucleotide releasing factor	14q21	14	NC_000014.9	50117128	50231878	minus	25	601247	
9606	Homo sapiens	6654	0	live	SOS1	GF1, GGF1, GINGF, HGF, NS4	son of sevenless homolog 1 (Drosophila)	SOS-1|gingival fibromatosis, hereditary, 1|guanine nucleotide exchange factor	2p21	2	NC_000002.12	38981549	39124744	minus	28	182530	
9606	Homo sapiens	6416	0	live	MAP2K4	JNKK, JNKK1, MAPKK4, MEK4, MKK4, PRKMK4, SAPKK-1, SAPKK1, SEK1, SERK1, SKK1	mitogen-activated protein kinase kinase 4	JNK-activated kinase 1|JNK-activating kinase 1|MAP kinase kinase 4|MAPK/ERK kinase 4|MAPKK 4|MEK 4|SAPK/ERK kinase 1|c-Jun N-terminal kinase kinase 1|stress-activated protein kinase kinase 1	17p12	17	NC_000017.11	12020818	12143831	plus	15	601335	
9606	Homo sapiens	6300	0	live	MAPK12	ERK-6, ERK3, ERK6, MAPK 12, P38GAMMA, PRKM12, SAPK-3, SAPK3	mitogen-activated protein kinase 12	MAP kinase 12|MAP kinase p38 gamma|extracellular signal-regulated kinase 6|mitogen-activated protein kinase 3|mitogen-activated protein kinase p38 gamma|stress-activated protein kinase 3	22q13.33	22	NC_000022.11	50252902	50261759	minus	12	602399	
9606	Homo sapiens	6237	0	live	RRAS		related RAS viral (r-ras) oncogene homolog	oncogene RRAS|p23|ras family small GTP binding protein R-Ras	19q13.33	19	NC_000019.10	49635295	49640143	minus	6	165090	
9606	Homo sapiens	6197	0	live	RPS6KA3	CLS, HU-3, ISPK-1, MAPKAPK1B, MRX19, RSK, RSK2, S6K-alpha3, p90-RSK2, pp90RSK2	ribosomal protein S6 kinase, 90kDa, polypeptide 3	MAP kinase-activated protein kinase 1b|MAPK-activated protein kinase 1b|MAPKAP kinase 1b|MAPKAPK-1b|RSK-2|S6K-alpha-3|insulin-stimulated protein kinase 1|p90-RSK 3|ribosomal S6 kinase 2	Xp22.2-p22.1	X	NC_000023.11	20149911	20267095	minus	26	300075	
9606	Homo sapiens	6196	0	live	RPS6KA2	HU-2, MAPKAPK1C, RSK, RSK3, S6K-alpha, S6K-alpha2, p90-RSK3, pp90RSK3	ribosomal protein S6 kinase, 90kDa, polypeptide 2	90 kDa ribosomal protein S6 kinase 2|MAP kinase-activated protein kinase 1c|MAPK-activated protein kinase 1c|MAPKAP kinase 1c|MAPKAPK-1c|RSK-3|S6K-alpha-2|p90-RSK 2|p90RSK2|ribosomal S6 kinase 3|ribosomal protein S6 kinase 90kDa polypeptide 2|ribosomal protein S6 kinase alpha 2	6q27	6	NC_000006.12	166409366	166862550	minus	26	601685	
9606	Homo sapiens	6195	0	live	RPS6KA1	HU-1, MAPKAPK1A, RSK, RSK1, p90Rsk	ribosomal protein S6 kinase, 90kDa, polypeptide 1	90 kDa ribosomal protein S6 kinase 1|MAP kinase-activated protein kinase 1a|MAPK-activated protein kinase 1a|MAPKAP kinase 1a|MAPKAPK-1a|RSK-1|S6K-alpha 1|S6K-alpha-1|dJ590P13.1 (ribosomal protein S6 kinase, 90kD, polypeptide 1)|p90-RSK 1|p90RSK1|p90S6K|ribosomal S6 kinase 1|ribosomal protein S6 kinase alpha 1	1p	1	NC_000001.11	26529758	26575030	plus	26	601684	
9606	Homo sapiens	5971	0	live	RELB	I-REL, IREL, REL-B	v-rel avian reticuloendotheliosis viral oncogene homolog B	v-rel avian reticuloendotheliosis viral oncogene homolog B (nuclear factor of kappa light polypeptide gene enhancer in B-cells 3)|v-rel reticuloendotheliosis viral oncogene homolog B, nuclear factor of kappa light polypeptide gene enhancer in B-cells 3	19q13.32	19	NC_000019.10	45001449	45038198	plus	12	604758	
9606	Homo sapiens	5970	0	live	RELA	NFKB3, p65	v-rel avian reticuloendotheliosis viral oncogene homolog A	NF-kappa-B p65delta3|NF-kappa-B transcription factor p65|nuclear factor NF-kappa-B p65 subunit|nuclear factor of kappa light polypeptide gene enhancer in B-cells 3|v-rel reticuloendotheliosis viral oncogene homolog A	11q13	11	NC_000011.10	65653596	65662972	minus	11	164014	
9606	Homo sapiens	5924	0	live	RASGRF2	GRF2, RAS-GRF2	Ras protein-specific guanine nucleotide-releasing factor 2	ras guanine nucleotide exchange factor 2	5q13	5	NC_000005.10	80960672	81230162	plus	28	606614	
9606	Homo sapiens	5923	0	live	RASGRF1	CDC25, CDC25L, GNRP, GRF1, GRF55, H-GRF55, PP13187, ras-GRF1	Ras protein-specific guanine nucleotide-releasing factor 1	Ras-specific guanine nucleotide-releasing factor, CDC25 homolog|Ras-specific nucleotide exchange factor CDC25|guanine nucleotide exchange factor|guanine nucleotide-releasing factor 1|guanine nucleotide-releasing factor, 55 kD|guanine nucleotide-releasing protein	15q24.2	15	NC_000015.10	78959947	79090873	minus	31	606600	
9606	Homo sapiens	5922	0	live	RASA2	GAP1M	RAS p21 protein activator 2	GTPase-activating protein 1m|GTPase-activating protein of RAS	3q22-q23	3	NC_000003.12	141487047	141615363	plus	27	601589	
9606	Homo sapiens	5921	0	live	RASA1	CM-AVM, CMAVM, GAP, PKWS, RASA, RASGAP, p120GAP, p120RASGAP	RAS p21 protein activator (GTPase activating protein) 1	triphosphatase-activating protein	5q13.3	5	NC_000005.10	87267801	87391926	plus	27	139150	
9606	Homo sapiens	5908	0	live	RAP1B	K-REV, RAL1B	RAP1B, member of RAS oncogene family	GTP-binding protein smg p21B|RAS-related protein RAP1B|Ras family small GTP binding protein RAP1B|small GTP binding protein	12q14	12	NC_000012.12	68610839	68660605	plus	8	179530	
9606	Homo sapiens	5906	0	live	RAP1A	C21KG, G-22K, KREV-1, KREV1, RAP1, SMGP21	RAP1A, member of RAS oncogene family	GTP-binding protein smg p21A|Ras-related protein Krev-1	1p13.3	1	NC_000001.11	111619783	111716695	plus	11	179520	
9606	Homo sapiens	5894	0	live	RAF1	CMD1NN, CRAF, NS5, Raf-1, c-Raf	Raf-1 proto-oncogene, serine/threonine kinase	C-Raf proto-oncogene, serine/threonine kinase|Oncogene RAF1|proto-oncogene c-RAF|raf proto-oncogene serine/threonine protein kinase|v-raf-1 murine leukemia viral oncogene homolog 1	3p25	3	NC_000003.12	12583601	12664201	minus	20	164760	
9606	Homo sapiens	5881	0	live	RAC3		ras-related C3 botulinum toxin substrate 3 (rho family, small GTP binding protein Rac3)	p21-Rac3|rho family, small GTP binding protein Rac3	17q25.3	17	NC_000017.11	82031656	82034204	plus	6	602050	
9606	Homo sapiens	5880	0	live	RAC2	EN-7, Gx, HSPC022, p21-Rac2	ras-related C3 botulinum toxin substrate 2 (rho family, small GTP binding protein Rac2)	Ras-related C3 botulinum toxin substrate 3 (rho family, small GTP-binding protein Rac2)|small G protein	22q13.1	22	NC_000022.11	37225261	37244299	minus	8	602049	
9606	Homo sapiens	5879	0	live	RAC1	MIG5, Rac-1, TC-25, p21-Rac1	ras-related C3 botulinum toxin substrate 1 (rho family, small GTP binding protein Rac1)	cell migration-inducing gene 5 protein|ras-like protein TC25	7p22	7	NC_000007.14	6374495	6403967	plus	7	602048	
9606	Homo sapiens	5871	0	live	MAP4K2	BL44, GCK, RAB8IP	mitogen-activated protein kinase kinase kinase kinase 2	B lymphocyte serine/threonine protein kinase|MAPK/ERK kinase kinase kinase 2|MEK kinase kinase 2|MEKKK 2|Rab8 interacting protein|germinal centre kinase (GC kinase)	11q13	11	NC_000011.10	64789137	64803248	minus	32	603166	
9606	Homo sapiens	5801	0	live	PTPRR	EC-PTP, PCPTP1, PTP-SL, PTPBR7, PTPRQ	protein tyrosine phosphatase, receptor type, R	Ch-1 PTPase|NC-PTPCOM1|R-PTP-R|ch-1PTPase|protein tyrosine phosphatase Cr1PTPase|protein-tyrosine phosphatase NC-PTPCOM1|protein-tyrosine phosphatase PCPTP1	12q15	12	NC_000012.12	70638073	70920804	minus	19	602853	
9606	Homo sapiens	5778	0	live	PTPN7	BPTP-4, HEPTP, LC-PTP, LPTP, PTPNI	protein tyrosine phosphatase, non-receptor type 7	dual specificity phosphatase 1|hematopoietic protein-tyrosine phosphatase|protein-tyrosine phosphatase LC-PTP|protein-tyrosine phosphatase, nonreceptor-type, stress induced	1q32.1	1	NC_000001.11	202147012	202161592	minus	12	176889	
9606	Homo sapiens	5609	0	live	MAP2K7	JNKK2, MAPKK7, MEK, MEK 7, MKK7, PRKMK7, SAPKK-4, SAPKK4	mitogen-activated protein kinase kinase 7	JNK-activating kinase 2|MAP kinase kinase 7|MAPK/ERK kinase 7|SAPK kinase 4|c-Jun N-terminal kinase kinase 2|stress-activated protein kinase kinase 4	19p13.3-p13.2	19	NC_000019.10	7903780	7914483	plus	12	603014	
9606	Homo sapiens	5608	0	live	MAP2K6	MAPKK6, MEK6, MKK6, PRKMK6, SAPKK-3, SAPKK3	mitogen-activated protein kinase kinase 6	MAPK/ERK kinase 6|MAPKK 6|MEK 6|SAPK kinase 3|protein kinase, mitogen-activated, kinase 6 (MAP kinase kinase 6)|stress-activated protein kinase kinase 3	17q24.3	17	NC_000017.11	69414697	69542329	plus	16	601254	
9606	Homo sapiens	5607	0	live	MAP2K5	HsT17454, MAPKK5, MEK5, PRKMK5	mitogen-activated protein kinase kinase 5	MAP kinase kinase 5|MAP kinase kinase MEK5b|MAPK/ERK kinase 5|MAPKK 5|MEK 5	15q23	15	NC_000015.10	67542606	67807117	plus	27	602520	
9606	Homo sapiens	5606	0	live	MAP2K3	MAPKK3, MEK3, MKK3, PRKMK3, SAPKK-2, SAPKK2	mitogen-activated protein kinase kinase 3	MAP kinase kinase 3|MAPK/ERK kinase 3|MAPKK 3|MEK 3|SAPK kinase 2|stress-activated protein kinase kinase 2	17q11.2	17	NC_000017.11	21284656	21315240	plus	15	602315	
9606	Homo sapiens	5605	0	live	MAP2K2	CFC4, MAPKK2, MEK2, MKK2, PRKMK2	mitogen-activated protein kinase kinase 2	ERK activator kinase 2|MAP kinase kinase 2|MAPK/ERK kinase 2|mitogen-activated protein kinase kinase 2, p45	19p13.3	19	NC_000019.10	4090321	4124184	minus	12	601263	
9606	Homo sapiens	5604	0	live	MAP2K1	CFC3, MAPKK1, MEK1, MKK1, PRKMK1	mitogen-activated protein kinase kinase 1	ERK activator kinase 1|MAPK/ERK kinase 1|MAPKK 1|MEK 1|protein kinase, mitogen-activated, kinase 1 (MAP kinase kinase 1)	15q22.1-q22.33	15	NC_000015.10	66386873	66491544	plus	12	176872	
9606	Homo sapiens	5603	0	live	MAPK13	MAPK 13, MAPK-13, PRKM13, SAPK4, p38delta	mitogen-activated protein kinase 13	MAP kinase 13|MAP kinase p38 delta|mitogen-activated protein kinase p38 delta|stress-activated protein kinase 4	6p21.31	6	NC_000006.12	36130484	36144524	plus	12	602899	
9606	Homo sapiens	5602	0	live	MAPK10	JNK3, JNK3A, PRKM10, SAPK1b, p493F12, p54bSAPK	mitogen-activated protein kinase 10	JNK3 alpha protein kinase|MAP kinase 10|MAP kinase p49 3F12|MAPK 10|c-Jun N-terminal kinase 3|stress activated protein kinase beta|stress-activated protein kinase 1b|stress-activated protein kinase JNK3	4q22.1-q23	4	NC_000004.12	86012299	86594110	minus	22	602897	
9606	Homo sapiens	5601	0	live	MAPK9	JNK-55, JNK2, JNK2A, JNK2ALPHA, JNK2B, JNK2BETA, PRKM9, SAPK, SAPK1a, p54a, p54aSAPK	mitogen-activated protein kinase 9	Jun kinase|MAP kinase 9|MAPK 9|c-Jun N-terminal kinase 2|c-Jun kinase 2|stress-activated protein kinase 1a|stress-activated protein kinase JNK2	5q35	5	NC_000005.10	180233594	180292071	minus	16	602896	
9606	Homo sapiens	5600	0	live	MAPK11	P38B, P38BETA2, PRKM11, SAPK2, SAPK2B, p38-2, p38Beta	mitogen-activated protein kinase 11	MAP kinase 11|MAP kinase p38 beta|mitogen-activated protein kinase p38 beta|mitogen-activated protein kinase p38-2|stress-activated protein kinase-2|stress-activated protein kinase-2b	22q13.33	22	NC_000022.11	50263713	50270393	minus	13	602898	
9606	Homo sapiens	5599	0	live	MAPK8	JNK, JNK-46, JNK1, JNK1A2, JNK21B1/2, PRKM8, SAPK1, SAPK1c	mitogen-activated protein kinase 8	JUN N-terminal kinase|MAP kinase 8|c-Jun N-terminal kinase 1|mitogen-activated protein kinase 8 isoform JNK1 alpha1|mitogen-activated protein kinase 8 isoform JNK1 beta2|stress-activated protein kinase 1|stress-activated protein kinase 1c	10q11.22	10	NC_000010.11	48306639	48439360	plus	15	601158	
9606	Homo sapiens	5598	0	live	MAPK7	BMK1, ERK4, ERK5, PRKM7	mitogen-activated protein kinase 7	BMK-1|BMK1 kinase|ERK-5|MAP kinase 7|MAPK 7|big MAP kinase 1|extracellular signal-regulated kinase 5|extracellular-signal-regulated kinase 5	17p11.2	17	NC_000017.11	19377721	19383544	plus	9	602521	
9606	Homo sapiens	5595	0	live	MAPK3	ERK-1, ERK1, ERT2, HS44KDAP, HUMKER1A, P44ERK1, P44MAPK, PRKM3, p44-ERK1, p44-MAPK	mitogen-activated protein kinase 3	MAP kinase isoform p44|MAPK 1|extracellular signal-regulated kinase 1|extracellular signal-related kinase 1|insulin-stimulated MAP2 kinase|microtubule-associated protein 2 kinase	16p11.2	16	NC_000016.10	30114105	30123309	minus	10	601795	
9606	Homo sapiens	5594	0	live	MAPK1	ERK, ERK-2, ERK2, ERT1, MAPK2, P42MAPK, PRKM1, PRKM2, p38, p40, p41, p41mapk, p42-MAPK	mitogen-activated protein kinase 1	MAP kinase 1|MAP kinase 2|MAP kinase isoform p42|MAPK 2|extracellular signal-regulated kinase 2|mitogen-activated protein kinase 2|protein tyrosine kinase ERK2	22q11.21	22	NC_000022.11	21759657	21867680	minus	9	176948	
9606	Homo sapiens	5582	0	live	PRKCG	PKC-gamma, PKCC, PKCG, SCA14	protein kinase C, gamma		19q13.4	19	NC_000019.10	53882213	53907652	plus	19	176980	
9606	Homo sapiens	5579	0	live	PRKCB	PKC-beta, PKCB1, PRKCB2, PRKCB	protein kinase C, beta	PKC-B|protein kinase C, beta 1 polypeptide	16p11.2	16	NC_000016.10	23835979	24220611	plus	17	176970	
9606	Homo sapiens	5578	0	live	PRKCA	AAG6, PKC-alpha, PKCA, PRKACA	protein kinase C, alpha	PKC-A|aging-associated gene 6	17q22-q23.2	17	NC_000017.11	66302782	66810744	plus	21	176960	
9606	Homo sapiens	5568	0	live	PRKACG	BDPLT19, KAPG, PKACg	protein kinase, cAMP-dependent, catalytic, gamma	PKA C-gamma|serine(threonine) protein kinase	9q13	9	NC_000009.12	69012529	69014123	minus	1	176893	
9606	Homo sapiens	5567	0	live	PRKACB	PKA C-beta, PKACB	protein kinase, cAMP-dependent, catalytic, beta	cAMP-dependent protein kinase catalytic beta subunit isoform 4ab|protein kinase A catalytic subunit beta	1p31.1	1	NC_000001.11	84077975	84238498	plus	18	176892	
9606	Homo sapiens	5566	0	live	PRKACA	PKACA, PPNAD4	protein kinase, cAMP-dependent, catalytic, alpha	PKA C-alpha|cAMP-dependent protein kinase catalytic subunit alpha|protein kinase A catalytic subunit	19p13.1	19	NC_000019.10	14091688	14117747	minus	12	601639	
9606	Homo sapiens	5536	0	live	PPP5C	PP5, PPP5, PPT	protein phosphatase 5, catalytic subunit	PP-T|protein phosphatase T	19q13.3	19	NC_000019.10	46346994	46390975	plus	13	600658	
9606	Homo sapiens	5535	0	live	PPP3R2	PPP3RL	protein phosphatase 3, regulatory subunit B, beta	CBLP|CNBII|calcineurin B, type II (19kDa)|calcineurin B-like protein|calcineurin BII|protein phosphatase 2B regulatory subunit 2|protein phosphatase 3 (formerly 2B), regulatory subunit B (19kD), beta isoform (calcineurin B, type II)|protein phosphatase 3 (formerly 2B), regulatory subunit B, 19kDa, beta isoform (calcineurin B, type II)|protein phosphatase 3 (formerly 2B), regulatory subunit B, beta isoform|protein phosphatase 3 regulatory subunit B beta isoform	9q31.1	9	NC_000009.12	101591615	101595001	minus	1	613821	
9606	Homo sapiens	5534	0	live	PPP3R1	CALNB1, CNB, CNB1	protein phosphatase 3, regulatory subunit B, alpha	calcineurin B, type I (19kDa)|protein phosphatase 2B regulatory subunit 1|protein phosphatase 2B regulatory subunit B alpha|protein phosphatase 3 (formerly 2B), regulatory subunit B (19kD), alpha isoform (calcineurin B, type I)|protein phosphatase 3 (formerly 2B), regulatory subunit B, 19kDa, alpha isoform (calcineurin B, type I)|protein phosphatase 3 (formerly 2B), regulatory subunit B, alpha isoform	2p15	2	NC_000002.12	68178857	68252519	minus	6	601302	
9606	Homo sapiens	5533	0	live	PPP3CC	CALNA3, CNA3, PP2Bgamma	protein phosphatase 3, catalytic subunit, gamma isozyme	CAM-PRP catalytic subunit|calcineurin, testis-specific catalytic subunit|calmodulin-dependent calcineurin A subunit gamma isoform|protein phosphatase 2B, catalytic subunit, gamma isoform|protein phosphatase 3 (formerly 2B), catalytic subunit, gamma isoform	8p21.3	8	NC_000008.11	22440970	22541144	plus	17	114107	
9606	Homo sapiens	5532	0	live	PPP3CB	CALNA2, CALNB, CNA2, PP2Bbeta	protein phosphatase 3, catalytic subunit, beta isozyme	CAM-PRP catalytic subunit|calcineurin A beta|calcineurin A2|calmodulin-dependent calcineurin A subunit beta isoform|protein phosphatase 2B, catalytic subunit, beta isoform|protein phosphatase 3 (formerly 2B), catalytic subunit, beta isoform|protein phosphatase from PCR fragment H32	10q22.2	10	NC_000010.11	73436428	73496024	minus	17	114106	
9606	Homo sapiens	5530	0	live	PPP3CA	CALN, CALNA, CALNA1, CCN1, CNA1, PPP2B	protein phosphatase 3, catalytic subunit, alpha isozyme	CAM-PRP catalytic subunit|calcineurin A alpha|calmodulin-dependent calcineurin A subunit alpha isoform|protein phosphatase 2B, catalytic subunit, alpha isoform|protein phosphatase 3 (formerly 2B), catalytic subunit, alpha isoform	4q24	4	NC_000004.12	101023430	101347471	minus	14	114105	
9606	Homo sapiens	5495	0	live	PPM1B	PP2C-beta, PP2C-beta-X, PP2CB, PP2CBETA, PPC2BETAX	protein phosphatase, Mg2+/Mn2+ dependent, 1B	Ser/Thr protein phosphatase type 2C beta 2 isoform|protein phosphatase 1B (formerly 2C), magnesium-dependent, beta isoform|protein phosphatase 2C-like protein	2p21	2	NC_000002.12	44168803	44244425	plus	8	603770	
9606	Homo sapiens	5494	0	live	PPM1A	PP2C-ALPHA, PP2CA, PP2Calpha	protein phosphatase, Mg2+/Mn2+ dependent, 1A	protein phosphatase 1A (formerly 2C), magnesium-dependent, alpha isoform	14q23.1	14	NC_000014.9	60245752	60299087	plus	17	606108	
9606	Homo sapiens	5321	0	live	PLA2G4A	PLA2G4, cPLA2, cPLA2-alpha	phospholipase A2, group IVA (cytosolic, calcium-dependent)	calcium-dependent phospholipid-binding protein|lysophospholipase|phosphatidylcholine 2-acylhydrolase|phospholipase A2 group IVA	1q25	1	NC_000001.11	186828900	186988981	plus	21	600522	
9606	Homo sapiens	5159	0	live	PDGFRB	CD140B, IBGC4, IMF1, JTK12, KOGS, PDGFR, PDGFR-1, PDGFR1, PENTT	platelet-derived growth factor receptor, beta polypeptide	CD140 antigen-like family member B|PDGF-R-beta|PDGFR-beta|beta-type platelet-derived growth factor receptor|platelet-derived growth factor receptor 1	5q33.1	5	NC_000005.10	150113839	150155884	minus	26	173410	
9606	Homo sapiens	5156	0	live	PDGFRA	CD140A, PDGFR-2, PDGFR2, RHEPDGFRA	platelet-derived growth factor receptor, alpha polypeptide	CD140 antigen-like family member A|CD140a antigen|PDGF-R-alpha|PDGFRA/BCR fusion|alpha-type platelet-derived growth factor receptor|platelet-derived growth factor receptor 2|rearranged-in-hypereosinophilia-platelet derived growth factor receptor alpha fusion protein	4q12	4	NC_000004.12	54229097	54298245	plus	28	173490	
9606	Homo sapiens	5155	0	live	PDGFB	IBGC5, PDGF-2, PDGF2, SIS, SSV, c-sis	platelet-derived growth factor beta polypeptide	PDGF subunit B|PDGF, B chain|becaplermin|platelet-derived growth factor 2|platelet-derived growth factor B chain|platelet-derived growth factor beta polypeptide (simian sarcoma viral (v-sis) oncogene homolog)|platelet-derived growth factor, beta polypeptide (oncogene SIS)|proto-oncogene c-Sis	22q13.1	22	NC_000022.11	39223680	39244952	minus	8	190040	
9606	Homo sapiens	5154	0	live	PDGFA	PDGF-A, PDGF1	platelet-derived growth factor alpha polypeptide	PDGF A-chain|PDGF subunit A|platelet-derived growth factor A chain|platelet-derived growth factor alpha chain	7p22	7	NC_000007.14	497258	520668	minus	9	173430	
9606	Homo sapiens	5062	0	live	PAK2	PAK65, PAKgamma	p21 protein (Cdc42/Rac)-activated kinase 2	PAK-2|S6/H4 kinase|gamma-PAK|p21 (CDKN1A)-activated kinase 2|p21-activated kinase 2|p58	3q29	3	NC_000003.12	196739857	196832647	plus	16	605022	
9606	Homo sapiens	5058	0	live	PAK1	PAKalpha	p21 protein (Cdc42/Rac)-activated kinase 1	STE20 homolog, yeast|alpha-PAK|p21/Cdc42/Rac1-activated kinase 1 (STE20 homolog, yeast)|p21/Cdc42/Rac1-activated kinase 1 (yeast Ste20-related)|p65-PAK	11q13-q14	11	NC_000011.10	77321551	77474063	minus	19	602590	
9606	Homo sapiens	4915	0	live	NTRK2	GP145-TrkB, TRKB, trk-B	neurotrophic tyrosine kinase, receptor, type 2	BDNF-tropomyosine receptor kinase B|tropomyosin-related kinase B|tyrosine kinase receptor B	9q22.1	9	NC_000009.12	84668458	85027070	plus	23	600456	
9606	Homo sapiens	4914	0	live	NTRK1	MTC, TRK, TRK1, TRKA, Trk-A, p140-TrkA	neurotrophic tyrosine kinase, receptor, type 1	Oncogene TRK|TRK1-transforming tyrosine kinase protein|gp140trk|tropomyosin-related kinase A|tyrosine kinase receptor A	1q21-q22	1	NC_000001.11	156815750	156881850	plus	19	191315	
9606	Homo sapiens	4909	0	live	NTF4	GLC10, GLC1O, NT-4, NT-4/5, NT-5, NT4, NT5, NTF5	neurotrophin 4	neurotrophic factor 4|neurotrophic factor 5|neurotrophin 5 (neurotrophin 4/5)|neurotrophin-5|neutrophic factor 4	19q13.3	19	NC_000019.10	49061080	49065076	minus	6	162662	
9606	Homo sapiens	4908	0	live	NTF3	HDNF, NGF-2, NGF2, NT-3, NT3	neurotrophin 3	nerve growth factor 2|neurotrophic factor	12p13	12	NC_000012.12	5432114	5495299	plus	3	162660	
9606	Homo sapiens	4893	0	live	NRAS	ALPS4, CMNS, N-ras, NCMS1, NS6, NRAS	neuroblastoma RAS viral (v-ras) oncogene homolog	N-ras protein part 4|transforming protein N-Ras|v-ras neuroblastoma RAS viral oncogene homolog	1p13.2	1	NC_000001.11	114704464	114716894	minus	7	164790	
9606	Homo sapiens	4803	0	live	NGF	Beta-NGF, HSAN5B, NGF	nerve growth factor (beta polypeptide)	nerve growth factor, beta subunit	1p13.1	1	NC_000001.11	115285916	115338384	minus	5	162030	
9606	Homo sapiens	4791	0	live	NFKB2	CVID10, H2TF1, LYT-10, LYT10, NF-kB2, p100, p52	nuclear factor of kappa light polypeptide gene enhancer in B-cells 2 (p49/p100)	DNA-binding factor KBF2|NFKB, p52/p100 subunit|lymphocyte translocation chromosome 10 protein|nuclear factor Kappa-B, subunit 2|nuclear factor NF-kappa-B p52 subunit|nuclear factor of Kappa light chain gene enhancer in B cells 2|oncogene Lyt-10|transcription factor NFKB2	10q24	10	NC_000010.11	102394110	102402529	plus	23	164012	
9606	Homo sapiens	4790	0	live	NFKB1	EBP-1, KBF1, NF-kB1, NF-kappa-B, NF-kappaB, NFKB-p105, NFKB-p50, NFkappaB, p105, p50	nuclear factor of kappa light polypeptide gene enhancer in B-cells 1	DNA binding factor KBF1|DNA-binding factor KBF1|NF-kappabeta|nuclear factor NF-kappa-B p50 subunit|nuclear factor kappa-B DNA binding subunit	4q24	4	NC_000004.12	102501329	102617302	plus	26	164011	
9606	Homo sapiens	4775	0	live	NFATC3	NFAT4, NFATX	nuclear factor of activated T-cells, cytoplasmic, calcineurin-dependent 3	NF-ATc3|T cell transcription factor NFAT4|nuclear factor of activated T-cells c3 isoform IE-Xa	16q22.2	16	NC_000016.10	68085366	68229259	plus	12	602698	
9606	Homo sapiens	4772	0	live	NFATC1	NF-ATC, NF-ATc1.2, NFAT2, NFATc	nuclear factor of activated T-cells, cytoplasmic, calcineurin-dependent 1	NFAT transcription complex cytosolic component|nuclear factor of activated T-cells 'c'	18q23	18	NC_000018.10	79395772	79529323	plus	11	600489	
9606	Homo sapiens	4763	0	live	NF1	NFNS, VRNF, WSS	neurofibromin 1	neurofibromatosis-related protein NF-1	17q11.2	17	NC_000017.11	31007873	31377677	plus	73	613113	
9606	Homo sapiens	4616	0	live	GADD45B	GADD45BETA, MYD118	growth arrest and DNA-damage-inducible, beta	myeloid differentiation primary response protein MyD118|negative growth regulatory protein MyD118	19p13.3	19	NC_000019.10	2476125	2478259	plus	4	604948	
9606	Homo sapiens	4609	0	live	MYC	MRTLC, bHLHe39, c-Myc, MYC	v-myc avian myelocytomatosis viral oncogene homolog	avian myelocytomatosis viral oncogene homolog|class E basic helix-loop-helix protein 39|myc-related translation/localization regulatory factor|proto-oncogene c-Myc|transcription factor p64|v-myc myelocytomatosis viral oncogene homolog	8q24.21	8	NC_000008.11	127736069	127741434	plus	3	190080	
9606	Homo sapiens	4342	0	live	MOS	MSV	v-mos Moloney murine sarcoma viral oncogene homolog	c-mos|oncogene MOS, Moloney murine sarcoma virus|oocyte maturation factor mos|proto-oncogene c-Mos	8q11	8	NC_000008.11	56112942	56113982	minus	1	190060	
9606	Homo sapiens	4296	0	live	MAP3K11	MEKK11, MLK-3, MLK3, PTK1, SPRK	mitogen-activated protein kinase kinase kinase 11	SH3 domain-containing proline-rich kinase|mixed lineage kinase 3|protein-tyrosine kinase PTK1|src-homology 3 domain-containing proline-rich kinase	11q13.1-q13.3	11	NC_000011.10	65597755	65614338	minus	11	600050	
9606	Homo sapiens	4217	0	live	MAP3K5	ASK1, MAPKKK5, MEKK5	mitogen-activated protein kinase kinase kinase 5	ASK-1|MAP/ERK kinase kinase 5|MAPK/ERK kinase kinase 5|MEK kinase 5|MEKK 5|apoptosis signal regulating kinase 1|apoptosis signal-regulating kinase 1	6q22.33	6	NC_000006.12	136557046	136793051	minus	31	602448	
9606	Homo sapiens	4216	0	live	MAP3K4	MAPKKK4, MEKK 4, MEKK4, MTK1, PRO0412	mitogen-activated protein kinase kinase kinase 4	MAP three kinase 1|MAP/ERK kinase kinase 4|MAPK/ERK kinase kinase 4|MEK kinase 4|SSK2/SSK22 MAP kinase kinase kinase, yeast, homolog of|dJ473J16.1 (mitogen-activated protein kinase kinase kinase 4)|predicted protein of HQ0412	6q26	6	NC_000006.12	160991727	161117385	plus	29	602425	
9606	Homo sapiens	4215	0	live	MAP3K3	MAPKKK3, MEKK3	mitogen-activated protein kinase kinase kinase 3	MAP/ERK kinase kinase 3|MAPK/ERK kinase kinase 3|MEK kinase 3|MEKK 3	17q23.3	17	NC_000017.11	63622209	63696310	plus	17	602539	
9606	Homo sapiens	4214	0	live	MAP3K1	MAPKKK1, MEKK, MEKK 1, MEKK1, SRXY6	mitogen-activated protein kinase kinase kinase 1, E3 ubiquitin protein ligase	MAP/ERK kinase kinase 1|MAPK/ERK kinase kinase 1|MEK kinase 1	5q11.2	5	NC_000005.10	56815073	56896152	plus	23	600982	
9606	Homo sapiens	4208	0	live	MEF2C	C5DELq14.3, DEL5q14.3	myocyte enhancer factor 2C	MADS box transcription enhancer factor 2, polypeptide C	5q14.3	5	NC_000005.10	88718241	88904105	minus	16	600662	
9606	Homo sapiens	4149	0	live	MAX	bHLHd4	MYC associated factor X	class D basic helix-loop-helix protein 4	14q23	14	NC_000014.9	65006101	65102695	minus	9	154950	
9606	Homo sapiens	4137	0	live	MAPT	DDPAC, FTDP-17L, MSTD, MTBT1, MTBT2, PPND, PPP1R103, TAU, MAPT	microtubule-associated protein tau	G protein beta1/gamma2 subunit-interacting factor 1|PHF-tau|neurofibrillary tangle protein|paired helical filament-tau|protein phosphatase 1, regulatory subunit 103	17q21.1	17	NC_000017.11	45894382	46028334	plus	15	157140	
9606	Homo sapiens	3925	0	live	STMN1	C1orf215, LAP18, Lag, OP18, PP17, PP19, PR22, SMN	stathmin 1	leukemia-associated phosphoprotein p18|metablastin|oncoprotein 18|phosphoprotein 19|phosphoprotein p19|prosolin|stathmin 1/oncoprotein 18|transmembrane protein C1orf215	1p36.11	1	NC_000001.11	25884186	25906877	minus	8	151442	
9606	Homo sapiens	3845	0	live	KRAS	C-K-RAS, CFC2, K-RAS2A, K-RAS2B, K-RAS4A, K-RAS4B, KI-RAS1, KRAS2, NS, NS3, RALD, RASK2, KRAS	Kirsten rat sarcoma viral oncogene homolog	K-Ras 2|K-ras p21 protein|PR310 c-K-ras oncogene|c-Ki-ras|c-Kirsten-ras protein|cellular c-Ki-ras2 proto-oncogene|oncogene KRAS2|transforming protein p21|v-Ki-ras2 Kirsten rat sarcoma 2 viral oncogene homolog	12p12.1	12	NC_000012.12	25204789	25250931	minus	6	190070	
9606	Homo sapiens	3727	0	live	JUND	AP-1	jun D proto-oncogene	JunD-FL isoform|activator protein 1	19p13.2	19	NC_000019.10	18279694	18281656	minus	1	165162	
9606	Homo sapiens	3725	0	live	JUN	AP-1, AP1, c-Jun	jun proto-oncogene	Jun activation domain binding protein|activator protein 1|enhancer-binding protein AP1|jun oncogene|p39|proto-oncogene c-Jun|v-jun avian sarcoma virus 17 oncogene homolog|v-jun sarcoma virus 17 oncogene homolog	1p32-p31	1	NC_000001.11	58780791	58784113	minus	1	165160	
9606	Homo sapiens	3554	0	live	IL1R1	CD121A, D2S1473, IL-1R-alpha, IL1R, IL1RA, P80	interleukin 1 receptor, type I	CD121 antigen-like family member A|IL-1R-1|IL-1RT-1|IL-1RT1|interleukin 1 receptor alpha, type I|interleukin-1 receptor alpha|interleukin-1 receptor type I	2q12	2	NC_000002.12	102069638	102179874	plus	23	147810	
9606	Homo sapiens	3553	0	live	IL1B	IL-1, IL1-BETA, IL1F2	interleukin 1, beta	IL-1 beta|catabolin|preinterleukin 1 beta|pro-interleukin-1-beta	2q14	2	NC_000002.12	112829751	112836779	minus	7	147720	
9606	Homo sapiens	3552	0	live	IL1A	IL-1A, IL1, IL1-ALPHA, IL1F1	interleukin 1, alpha	IL-1 alpha|hematopoietin-1|preinterleukin 1 alpha|pro-interleukin-1-alpha	2q14	2	NC_000002.12	112773915	112785394	minus	7	147760	
9606	Homo sapiens	3551	0	live	IKBKB	IKK-beta, IKK2, IKKB, IMD15, NFKBIKB	inhibitor of kappa light polypeptide gene enhancer in B-cells, kinase beta	I-kappa-B kinase 2|I-kappa-B-kinase beta|IKK-B|nuclear factor NF-kappa-B inhibitor kinase beta	8p11.2	8	NC_000008.11	42271302	42332653	plus	24	603258	
9606	Homo sapiens	3315	0	live	HSPB1	CMT2F, HEL-S-102, HMN2B, HS.76067, HSP27, HSP28, Hsp25, SRP27	heat shock 27kDa protein 1	28 kDa heat shock protein|HSP 27|epididymis secretory protein Li 102|estrogen-regulated 24 kDa protein|heat shock 27 kDa protein|heat shock 27kD protein 1|stress-responsive protein 27	7q11.23	7	NC_000007.14	76302558	76304297	plus	3	602195	
9606	Homo sapiens	3312	0	live	HSPA8	HEL-33, HEL-S-72p, HSC54, HSC70, HSC71, HSP71, HSP73, HSPA10, LAP-1, LAP1, NIP71	heat shock 70kDa protein 8	LPS-associated protein 1|N-myristoyltransferase inhibitor protein 71|constitutive heat shock protein 70|epididymis luminal protein 33|epididymis secretory sperm binding protein Li 72p|heat shock 70kd protein 10|heat shock cognate protein 54|lipopolysaccharide-associated protein 1	11q24.1	11	NC_000011.10	123057492	123062366	minus	10	600816	
9606	Homo sapiens	3310	0	live	HSPA6		heat shock 70kDa protein 6 (HSP70B')	heat shock 70 kDa protein B'|heat shock 70kD protein 6 (HSP70B')	1q23	1	NC_000001.11	161524540	161526897	plus	1	140555	
9606	Homo sapiens	3306	0	live	HSPA2	HSP70-2, HSP70-3	heat shock 70kDa protein 2	heat shock 70kD protein 2	14q24.1	14	NC_000014.9	64540468	64543237	plus	1	140560	
9606	Homo sapiens	3305	0	live	HSPA1L	HSP70-1L, HSP70-HOM, HSP70T, hum70t	heat shock 70kDa protein 1-like	heat shock 10kDa protein 1-like|heat shock 70 kDa protein 1-Hom|heat shock 70 kDa protein 1L|heat shock 70kD protein-like 1	6p21.3	6	NC_000006.12	31809619	31821999	minus	5	140559	
9606	Homo sapiens	3304	0	live	HSPA1B	HSP70-1B, HSP70-2, HSP70.2	heat shock 70kDa protein 1B	HSP70-1/HSP70-2|HSP70.1/HSP70.2|heat shock 70 kDa protein 1/2|heat shock 70 kDa protein 1A/1B|heat shock 70 kDa protein 2|heat shock 70kD protein 1B	6p21.3	6	NC_000006.12	31827735	31830254	plus	1	603012	
9606	Homo sapiens	3303	0	live	HSPA1A	HEL-S-103, HSP70-1, HSP70-1A, HSP70.1, HSP70I, HSP72, HSPA1	heat shock 70kDa protein 1A	HSP70-1/HSP70-2|HSP70.1/HSP70.2|dnaK-type molecular chaperone HSP70-1|epididymis secretory protein Li 103|heat shock 70 kDa protein 1|heat shock 70 kDa protein 1/2|heat shock 70 kDa protein 1A/1B|heat shock 70kD protein 1A|heat shock-induced protein	6p21.3	6	NC_000006.12	31815514	31817942	plus	1	140550	
9606	Homo sapiens	3265	0	live	HRAS	C-BAS/HAS, C-H-RAS, C-HA-RAS1, CTLO, H-RASIDX, HAMSV1, RASH1, p21ras, HRAS	Harvey rat sarcoma viral oncogene homolog	GTP- and GDP-binding peptide B|Ha-Ras1 proto-oncoprotein|Harvey rat sarcoma viral oncoprotein|Ras family small GTP binding protein H-Ras|c-has/bas p21 protein|c-ras-Ki-2 activated oncogene|p19 H-RasIDX protein|transformation gene: oncogene HAMSV|transforming protein p21|v-Ha-ras Harvey rat sarcoma viral oncogene homolog	11p15.5	11	NC_000011.10	532242	535561	minus	7	190020	
9606	Homo sapiens	3164	0	live	NR4A1	GFRP1, HMR, N10, NAK-1, NGFIB, NP10, NUR77, TR3	nuclear receptor subfamily 4, group A, member 1	ST-59|TR3 orphan receptor|early response protein NAK1|growth factor-inducible nuclear protein N10|hormone receptor|nerve growth factor IB nuclear receptor variant 1|nuclear hormone receptor NUR/77|orphan nuclear receptor HMR|orphan nuclear receptor TR3|steroid receptor TR3|testicular receptor 3	12q13	12	NC_000012.12	52022832	52059507	plus	13	139139	
9606	Homo sapiens	2885	0	live	GRB2	ASH, EGFRBP-GRB2, Grb3-3, MST084, MSTP084, NCKAP2	growth factor receptor-bound protein 2	HT027|SH2/SH3 adapter GRB2|abundant SRC homology|epidermal growth factor receptor-binding protein GRB2|growth factor receptor-bound protein 3|protein Ash	17q24-q25	17	NC_000017.11	75318076	75405709	minus	6	108355	
9606	Homo sapiens	2872	0	live	MKNK2	GPRK7, MNK2	MAP kinase interacting serine/threonine kinase 2	G protein-coupled receptor kinase 7|MAP kinase signal-integrating kinase 2|MAPK signal-integrating kinase 2	19p13.3	19	NC_000019.10	2037471	2051244	minus	14	605069	
9606	Homo sapiens	2768	0	live	GNA12	NNX3, RMP, gep	guanine nucleotide binding protein (G protein) alpha 12	G-protein subunit alpha-12|WUGSC:H_GS165O14.2|g alpha-12	7p22.2	7	NC_000007.14	2728105	2870656	minus	8	604394	
9606	Homo sapiens	2353	0	live	FOS	AP-1, C-FOS, p55	FBJ murine osteosarcoma viral oncogene homolog	FBJ murine osteosarcoma viral (v-fos) oncogene homolog (oncogene FOS)|G0/G1 switch regulatory protein 7|activator protein 1|cellular oncogene c-fos	14q24.3	14	NC_000014.9	75278778	75282234	plus	4	164810	
9606	Homo sapiens	2318	0	live	FLNC	ABP-280, ABP280A, ABPA, ABPL, FLN2, MFM5, MPD4	filamin C, gamma	ABP-280-like protein|ABP-L, gamma filamin|actin binding protein 280|filamin-2	7q32-q35	7	NC_000007.14	128830429	128859274	plus	48	102565	
9606	Homo sapiens	2317	0	live	FLNB	ABP-278, ABP-280, AOI, FH1, FLN-B, FLN1L, LRS1, SCT, TABP, TAP	filamin B, beta	ABP-280 homolog|Larsen syndrome 1 (autosomal dominant)|actin binding protein 278|actin-binding-like protein|beta-filamin|filamin homolog 1|filamin-3|thyroid autoantigen	3p14.3	3	NC_000003.12	58008400	58172255	plus	48	603381	
9606	Homo sapiens	2316	0	live	FLNA	ABP-280, ABPX, CSBS, CVD1, FLN, FLN-A, FLN1, FMD, MNS, NHBP, OPD, OPD1, OPD2, XLVD, XMVD	filamin A, alpha	actin binding protein 280|alpha-filamin|endothelial actin-binding protein|filamin-1|non-muscle filamin	Xq28	X	NC_000023.11	154348529	154374638	minus	48	300017	
9606	Homo sapiens	2264	0	live	FGFR4	CD334, JTK2, TKF	fibroblast growth factor receptor 4	hydroxyaryl-protein kinase|protein-tyrosine kinase|tyrosine kinase related to fibroblast growth factor receptor|tyrosylprotein kinase	5q35.2	5	NC_000005.10	177086872	177098142	plus	19	134935	
9606	Homo sapiens	2263	0	live	FGFR2	BBDS, BEK, BFR-1, CD332, CEK3, CFD1, ECT1, JWS, K-SAM, KGFR, TK14, TK25	fibroblast growth factor receptor 2	BEK fibroblast growth factor receptor|FGF receptor|FGFR2-AHCYL1 fusion kinase protein|bacteria-expressed kinase|fibroblast growth factor receptor 2 isoform IgIIIc isoform|hydroxyaryl-protein kinase|keratinocyte growth factor receptor|protein tyrosine kinase, receptor like 14|soluble FGFR4 variant 4	10q26	10	NC_000010.11	121478330	121598656	minus	23	176943	
9606	Homo sapiens	2261	0	live	FGFR3	ACH, CD333, CEK2, HSFGFR3EX, JTK4	fibroblast growth factor receptor 3	FGFR-3|fibroblast growth factor receptor 3 variant 4|hydroxyaryl-protein kinase|tyrosine kinase JTK4	4p16.3	4	NC_000004.12	1793299	1808872	plus	19	134934	
9606	Homo sapiens	2260	0	live	FGFR1	BFGFR, CD331, CEK, FGFBR, FGFR-1, FLG, FLT-2, FLT2, HBGFR, HH2, HRTFDS, KAL2, N-SAM, OGD, bFGF-R-1	fibroblast growth factor receptor 1	FGFR1/PLAG1 fusion|FMS-like tyrosine kinase 2|basic fibroblast growth factor receptor 1|fms-related tyrosine kinase 2|heparin-binding growth factor receptor|hydroxyaryl-protein kinase|proto-oncogene c-Fgr	8p11.23-p11.22	8	NC_000008.11	38411138	38468834	minus	24	136350	
9606	Homo sapiens	2259	0	live	FGF14	FGF-14, FHF-4, FHF4, SCA27	fibroblast growth factor 14	bA397O8.2|fibroblast growth factor homologous factor 4	13q34	13	NC_000013.11	101719784	102401774	minus	7	601515	
9606	Homo sapiens	2258	0	live	FGF13	FGF-13, FGF2, FHF-2, FHF2	fibroblast growth factor 13	fibroblast growth factor homologous factor 2	Xq26.3	X	NC_000023.11	138631573	139222889	minus	13	300070	
9606	Homo sapiens	2257	0	live	FGF12	FGF12B, FHF1	fibroblast growth factor 12	FGF-12|FHF-1|fibroblast growth factor 12B|fibroblast growth factor FGF-12b|fibroblast growth factor homologous factor 1|myocyte-activating factor	3q28	3	NC_000003.12	192139244	192727599	minus	10	601513	
9606	Homo sapiens	2256	0	live	FGF11	FGF-11, FHF-3, FHF3	fibroblast growth factor 11	fibroblast growth factor homologous factor 3	17p13.1	17	NC_000017.11	7438273	7444932	plus	7	601514	
9606	Homo sapiens	2255	0	live	FGF10		fibroblast growth factor 10	FGF-10|keratinocyte growth factor 2|produced by fibroblasts of urinary bladder lamina propria	5p13-p12	5	NC_000005.10	44303541	44389780	minus	4	602115	
9606	Homo sapiens	2254	0	live	FGF9	FGF-9, GAF, HBFG-9, HBGF-9, SYNS3	fibroblast growth factor 9	fibroblast growth factor 9 (glia-activating factor)|heparin-binding growth factor 9	13q11-q12	13	NC_000013.11	21671076	21704501	plus	4	600921	
9606	Homo sapiens	2253	0	live	FGF8	AIGF, FGF-8, HBGF-8, HH6, KAL6	fibroblast growth factor 8 (androgen-induced)	androgen-induced growth factor|heparin-binding growth factor 8	10q24	10	NC_000010.11	101770130	101780369	minus	8	600483	
9606	Homo sapiens	2252	0	live	FGF7	HBGF-7, KGF	fibroblast growth factor 7	FGF-7|heparin-binding growth factor 7|keratinocyte growth factor	15q21.2	15	NC_000015.10	49423178	49487326	plus	4	148180	
9606	Homo sapiens	2251	0	live	FGF6	HBGF-6, HST2	fibroblast growth factor 6	FGF-6|HST-2|HSTF-2|heparin secretory-transforming protein 2|heparin-binding growth factor 6	12p13	12	NC_000012.12	4434142	4445614	minus	3	134921	
9606	Homo sapiens	2250	0	live	FGF5	HBGF-5, Smag-82, TCMGLY	fibroblast growth factor 5	heparin-binding growth factor 5	4q21	4	NC_000004.12	80266588	80291017	plus	4	165190	
9606	Homo sapiens	2249	0	live	FGF4	HBGF-4, HST, HST-1, HSTF1, K-FGF, KFGF	fibroblast growth factor 4	FGF-4|HSTF-1|fibroblast growth factor 4 splice isoform|heparin secretory transforming protein 1|heparin secretory-transforming protein 1|heparin-binding growth factor 4|human stomach cancer, transforming factor from FGF-related oncogene|kaposi sarcoma oncogene|oncogene HST|transforming protein KS3	11q13.3	11	NC_000011.10	69759043	69775403	minus	5	164980	
9606	Homo sapiens	2248	0	live	FGF3	HBGF-3, INT2	fibroblast growth factor 3	FGF-3|INT-2 proto-oncogene protein|V-INT2 murine mammary tumor virus integration site oncogene homolog|fibroblast growth factor 3 (murine mammary tumor virus integration site (v-int-2) oncogene homolog)|heparin-binding growth factor 3|murine mammary tumor virus integration site 2, mouse|oncogene INT2|proto-oncogene Int-2	11q13	11	NC_000011.10	69809968	69819424	minus	3	164950	
9606	Homo sapiens	2247	0	live	FGF2	BFGF, FGF-2, FGFB, HBGF-2	fibroblast growth factor 2 (basic)	basic fibroblast growth factor bFGF|heparin-binding growth factor 2|prostatropin	4q26	4	NC_000004.12	122826708	122898235	plus	3	134920	
9606	Homo sapiens	2246	0	live	FGF1	AFGF, ECGF, ECGF-beta, ECGFA, ECGFB, FGF-1, FGF-alpha, FGFA, GLIO703, HBGF-1, HBGF1	fibroblast growth factor 1 (acidic)	beta-endothelial cell growth factor|endothelial cell growth factor, alpha|endothelial cell growth factor, beta|heparin-binding growth factor 1	5q31	5	NC_000005.10	142592178	142698070	minus	10	131220	
9606	Homo sapiens	2122	0	live	MECOM	AML1-EVI-1, EVI1, MDS1, MDS1-EVI1, PRDM3	MDS1 and EVI1 complex locus	AML1-EVI-1 fusion protein|MDS1 and EVI1 complex locus protein MDS1|ecotropic virus integration site 1 protein homolog|myelodysplasia syndrome-associated protein 1|oncogene EVI1|zinc finger protein Evi1	3q26.2	3	NC_000003.12	169083499	169663786	minus	22	165215	
9606	Homo sapiens	2005	0	live	ELK4	SAP1	ELK4, ETS-domain protein (SRF accessory protein 1)	SAP-1|serum response factor accessory protein 1	1q32	1	NC_000001.11	205593466	205634085	minus	12	600246	
9606	Homo sapiens	2002	0	live	ELK1		ELK1, member of ETS oncogene family	ETS-like gene 1|tyrosine kinase (ELK1) oncogene	Xp11.2	X	NC_000023.11	47635520	47650604	minus	7	311040	
9606	Homo sapiens	1956	0	live	EGFR	ERBB, ERBB1, HER1, NISBD2, PIG61, mENA	epidermal growth factor receptor	avian erythroblastic leukemia viral (v-erb-b) oncogene homolog|cell growth inhibiting protein 40|cell proliferation-inducing protein 61|erb-b2 receptor tyrosine kinase 1|proto-oncogene c-ErbB-1|receptor tyrosine-protein kinase erbB-1	7p12	7	NC_000007.14	55019032	55207338	plus	30	131550	
9606	Homo sapiens	1950	0	live	EGF	HOMG4, URG	epidermal growth factor	beta-urogastrone	4q25	4	NC_000004.12	109912883	110012962	plus	26	131530	
9606	Homo sapiens	1852	0	live	DUSP9	MKP-4, MKP4	dual specificity phosphatase 9	map kinase phosphatase 4|mitogen-activated protein kinase phosphatase 4|serine/threonine specific protein phosphatase	Xq28	X	NC_000023.11	153642443	153651326	plus	7	300134	
9606	Homo sapiens	1850	0	live	DUSP8	C11orf81, HB5, HVH-5, HVH8	dual specificity phosphatase 8	H1 phosphatase, vaccinia virus homolog|dual specificity protein phosphatase hVH-5|serine/threonine specific protein phosphatase	11p15.5	11	NC_000011.10	1554051	1572831	minus	9	602038	
9606	Homo sapiens	1849	0	live	DUSP7	MKPX, PYST2	dual specificity phosphatase 7	dual specificity protein phosphatase PYST2|dual-specificity phosphatase-7	3p21	3	NC_000003.12	52048919	52056445	minus	3	602749	
9606	Homo sapiens	1848	0	live	DUSP6	HH19, MKP3, PYST1	dual specificity phosphatase 6	MAP kinase phosphatase 3|dual specificity protein phosphatase PYST1|mitogen-activated protein kinase phosphatase 3|serine/threonine specific protein phosphatase	12q22-q23	12	NC_000012.12	89347825	89352859	minus	3	602748	
9606	Homo sapiens	1847	0	live	DUSP5	DUSP, HVH3	dual specificity phosphatase 5	VH1-like phosphatase 3|dual specificity protein phosphatase hVH3|serine/threonine specific protein phosphatase	10q25	10	NC_000010.11	110497867	110511544	plus	4	603069	
9606	Homo sapiens	1846	0	live	DUSP4	HVH2, MKP-2, MKP2, TYP	dual specificity phosphatase 4	MAP kinase phosphatase 2|VH1 homologous phosphatase 2|dual specificity protein phosphatase hVH2|mitogen-activated protein kinase phosphatase 2|serine/threonine specific protein phosphatase	8p12-p11	8	NC_000008.11	29333062	29350750	minus	6	602747	
9606	Homo sapiens	1845	0	live	DUSP3	VHR	dual specificity phosphatase 3	dual specificity protein phosphatase VHR|serine/threonine specific protein phosphatase|vaccinia H1-related phosphatase|vaccinia virus phosphatase VH1-related	17q21	17	NC_000017.11	43766121	43779000	minus	3	600183	
9606	Homo sapiens	1844	0	live	DUSP2	PAC-1, PAC1	dual specificity phosphatase 2	dual specificity protein phosphatase PAC-1|dual-specificity phosphatase 2|serine/threonine specific protein phosphatase	2q11	2	NC_000002.12	96143169	96145440	minus	4	603068	
9606	Homo sapiens	1843	0	live	DUSP1	CL100, HVH1, MKP-1, MKP1, PTPN10	dual specificity phosphatase 1	CL 100|MAP kinase phosphatase 1|dual specificity protein phosphatase hVH1|mitogen-activated protein kinase phosphatase 1|protein-tyrosine phosphatase CL100|serine/threonine specific protein phosphatase	5q34	5	NC_000005.10	172768090	172771200	minus	4	600714	
9606	Homo sapiens	1649	0	live	DDIT3	CEBPZ, CHOP, CHOP-10, CHOP10, GADD153	DNA-damage-inducible transcript 3	C/EBP zeta|CCAAT/enhancer-binding protein homologous protein|DDIT-3|c/EBP-homologous protein 10|growth arrest and DNA damage-inducible protein GADD153	12q13.1-q13.2	12	NC_000012.12	57516588	57521698	minus	5	126337	
9606	Homo sapiens	1647	0	live	GADD45A	DDIT1, GADD45	growth arrest and DNA-damage-inducible, alpha	DDIT-1|DNA damage-inducible transcript 1 protein|DNA damage-inducible transcript-1|DNA-damage-inducible transcript 1|growth arrest and DNA-damage-inducible 45 alpha	1p31.2	1	NC_000001.11	67685177	67688338	plus	4	126335	
9606	Homo sapiens	1616	0	live	DAXX	BING2, DAP6, EAP1	death-domain associated protein	CENP-C binding protein|ETS1-associated protein 1|Fas-binding protein|death-associated protein 6|fas death domain-associated protein	6p21.3	6	NC_000006.12	33318558	33323016	minus	8	603186	
9606	Homo sapiens	1432	0	live	MAPK14	CSBP, CSBP1, CSBP2, CSPB1, EXIP, Mxi2, PRKM14, PRKM15, RK, SAPK2A, p38, p38ALPHA	mitogen-activated protein kinase 14	CSAID-binding protein|Csaids binding protein|MAP kinase 14|MAP kinase Mxi2|MAP kinase p38 alpha|MAX-interacting protein 2|cytokine suppressive anti-inflammatory drug binding protein|cytokine suppressive anti-inflammatory drug-binding protein|mitogen-activated protein kinase p38 alpha|p38 MAP kinase|p38 mitogen activated protein kinase|p38alpha Exip|stress-activated protein kinase 2A	6p21.3-p21.2	6	NC_000006.12	36027635	36111236	plus	19	600289	
9606	Homo sapiens	1399	0	live	CRKL		v-crk avian sarcoma virus CT10 oncogene homolog-like		22q11.21	22	NC_000022.11	20917398	20953749	plus	4	602007	
9606	Homo sapiens	1398	0	live	CRK	CRKII, p38	v-crk avian sarcoma virus CT10 oncogene homolog	proto-oncogene c-Crk	17p13.3	17	NC_000017.11	1421353	1456267	minus	3	164762	
9606	Homo sapiens	1386	0	live	ATF2	CRE-BP1, CREB-2, CREB2, HB16, TREB7	activating transcription factor 2	activating transcription factor 2 splice variant ATF2-var2|cAMP response element-binding protein CRE-BP1|cAMP responsive element binding protein 2, formerly|cAMP-dependent transcription factor ATF-2|cAMP-responsive element-binding protein 2|cyclic AMP-responsive element-binding protein 2|histone acetyltransferase ATF2	2q32	2	NC_000002.12	175072250	175168206	minus	17	123811	
9606	Homo sapiens	1326	0	live	MAP3K8	AURA2, COT, EST, ESTF, MEKK8, TPL2, Tpl-2, c-COT	mitogen-activated protein kinase kinase kinase 8	Ewing sarcoma transformant|augmented in rheumatoid arthritis 2|cot (cancer Osaka thyroid) oncogene|proto-oncogene c-Cot|proto-oncogene serine/threoine protein kinase|tumor progression locus 2	10p11.23	10	NC_000010.11	30434003	30461833	plus	13	191195	
9606	Homo sapiens	1147	0	live	CHUK	IKBKA, IKK-alpha, IKK1, IKKA, NFKBIKA, TCF16	conserved helix-loop-helix ubiquitous kinase	I-kappa-B kinase 1|I-kappa-B kinase-alpha|IKK-a kinase|IkB kinase alpha subunit|Nuclear factor NFkappaB inhibitor kinase alpha|TCF-16|transcription factor 16	10q24-q25	10	NC_000010.11	100186113	100229610	minus	23	600664	
9606	Homo sapiens	998	0	live	CDC42	CDC42Hs, G25K	cell division cycle 42	G25K GTP-binding protein|GTP binding protein, 25kDa|GTP-binding protein, 25kD|dJ224A6.1.1 (cell division cycle 42 (GTP-binding protein, 25kD))|dJ224A6.1.2 (cell division cycle 42 (GTP-binding protein, 25kD))|growth-regulating protein|small GTP binding protein CDC42	1p36.1	1	NC_000001.11	22052627	22092943	plus	8	116952	
9606	Homo sapiens	994	0	live	CDC25B		cell division cycle 25B	dual specificity phosphatase Cdc25B	20p13	20	NC_000020.11	3786772	3806121	plus	18	116949	
9606	Homo sapiens	929	0	live	CD14		CD14 molecule	myeloid cell-specific leucine-rich glycoprotein	5q31.1	5	NC_000005.10	140631728	140633701	minus	3	158120	
9606	Homo sapiens	836	0	live	CASP3	CPP32, CPP32B, SCA-1	caspase 3, apoptosis-related cysteine peptidase	CASP-3|CPP-32|PARP cleavage protease|SREBP cleavage activity 1|apopain|caspase 3, apoptosis-related cysteine protease|cysteine protease CPP32|procaspase3|protein Yama	4q34	4	NC_000004.12	184627696	184649475	minus	8	600636	
9606	Homo sapiens	786	0	live	CACNG1	CACNLG	calcium channel, voltage-dependent, gamma subunit 1	L-type calcium channel gamma polypeptide|dihydropyridine-sensitive L-type, skeletal muscle calcium channel subunit gamma|neuronal dihydropyridine-sensitive calcium channel gamma subunit	17q24	17	NC_000017.11	67044536	67056797	plus	4	114209	
9606	Homo sapiens	785	0	live	CACNB4	CAB4, CACNLB4, EA5, EIG9, EJM, EJM4, EJM6	calcium channel, voltage-dependent, beta 4 subunit	calcium channel voltage-dependent subunit beta 4|dihydropyridine-sensitive L-type, calcium channel beta-4 subunit	2q22-q23	2	NC_000002.12	151832771	152099988	minus	21	601949	
9606	Homo sapiens	784	0	live	CACNB3	CAB3, CACNLB3	calcium channel, voltage-dependent, beta 3 subunit		12q13	12	NC_000012.12	48814432	48828943	plus	19	601958	
9606	Homo sapiens	783	0	live	CACNB2	CACNLB2, CAVB2, MYSB	calcium channel, voltage-dependent, beta 2 subunit	CAB2|calcium channel voltage-dependent subunit beta 2|lambert-Eaton myasthenic syndrome antigen B|myasthenic (Lambert-Eaton) syndrome antigen B	10p12	10	NC_000010.11	18140677	18541759	plus	20	600003	
9606	Homo sapiens	782	0	live	CACNB1	CAB1, CACNLB1, CCHLB1	calcium channel, voltage-dependent, beta 1 subunit	calcium channel voltage-dependent subunit beta 1|calcium channel, L type, beta 1 polypeptide|dihydropyridine-sensitive L-type, calcium channel beta-1 subunit	17q21-q22	17	NC_000017.11	39173456	39197703	minus	18	114207	
9606	Homo sapiens	781	0	live	CACNA2D1	CACNA2, CACNL2A, CCHL2A, LINC01112, lncRNA-N3	calcium channel, voltage-dependent, alpha 2/delta subunit 1	calcium channel, L type, alpha 2 polypeptide|dihydropyridine-sensitive L-type, calcium channel alpha-2/delta subunit|voltage-gated calcium channel subunit alpha-2/delta-1	7q21-q22	7	NC_000007.14	81946444	82443806	minus	47	114204	
9606	Homo sapiens	779	0	live	CACNA1S	CACNL1A3, CCHL1A3, Cav1.1, HOKPP, HOKPP1, MHS5, TTPP1, hypoPP	calcium channel, voltage-dependent, L type, alpha 1S subunit	calcium channel, L type, alpha 1 polypeptide, isoform 3 (skeletal muscle, hypokalemic periodic paralysis)|dihydropyridine receptor|dihydropyridine-sensitive L-type calcium channel alpha-1 subunit|voltage-gated calcium channel subunit alpha Cav1.1	1q32	1	NC_000001.11	201039507	201112566	minus	44	114208	
9606	Homo sapiens	778	0	live	CACNA1F	AIED, COD3, COD4, CORDX, CORDX3, CSNB2, CSNB2A, CSNBX2, Cav1.4, Cav1.4alpha1, JM8, JMC8, OA2	calcium channel, voltage-dependent, L type, alpha 1F subunit	voltage-gated calcium channel subunit alpha Cav1.4	Xp11.23	X	NC_000023.11	49205063	49233671	minus	48	300110	
9606	Homo sapiens	777	0	live	CACNA1E	BII, CACH6, CACNL1A6, Cav2.3	calcium channel, voltage-dependent, R type, alpha 1E subunit	brain calcium channel II|calcium channel, L type, alpha-1 polypeptide|calcium channel, R type, alpha-1 polypeptide|calcium channel, voltage-dependent, alpha 1E subunit|voltage-dependent calcium channel alpha 1E subunit|voltage-gated calcium channel alpha 1E subunit|voltage-gated calcium channel alpha subunit Cav2.3|voltage-gated calcium channel subunit alpha Cav2.3	1q25.3	1	NC_000001.11	181483311	181806784	plus	48	601013	
9606	Homo sapiens	776	0	live	CACNA1D	CACH3, CACN4, CACNL1A2, CCHL1A2, Cav1.3, PASNA, SANDD	calcium channel, voltage-dependent, L type, alpha 1D subunit	calcium channel, L type, alpha-1 polypeptide|calcium channel, neuroendocrine/brain-type, alpha 1 subunit|voltage-gated calcium channel alpha 1 subunit|voltage-gated calcium channel alpha subunit Cav1.3	3p14.3	3	NC_000003.12	53494976	53813151	plus	55	114206	
9606	Homo sapiens	775	0	live	CACNA1C	CACH2, CACN2, CACNL1A1, CCHL1A1, CaV1.2, LQT8, TS	calcium channel, voltage-dependent, L type, alpha 1C subunit	DHPR, alpha-1 subunit|calcium channel, L type, alpha-1 polypeptide, isoform 1, cardiac muscle|calcium channel, cardic dihydropyridine-sensitive, alpha-1 subunit|voltage-dependent L-type Ca2+ channel alpha 1 subunit|voltage-gated L-type calcium channel Cav1.2 alpha 1 subunit, splice variant 10*	12p13.3	12	NC_000012.12	1970786	2697949	plus	56	114205	
9606	Homo sapiens	774	0	live	CACNA1B	BIII, CACNL1A5, CACNN, Cav2.2, DYT23	calcium channel, voltage-dependent, N type, alpha 1B subunit	Cav2.2 voltage-gated Ca2+ channel|brain calcium channel III|calcium channel alpha12.2 subunit|calcium channel, L type, alpha-1 polypeptide|calcium channel, voltage-dependent, L type, alpha 1B subunit|voltage-gated calcium channel alpha subunit Cav2.2|voltage-gated calcium channel subunit alpha Cav2.2	9q34	9	NC_000009.12	137877789	138124624	plus	51	601012	
9606	Homo sapiens	773	0	live	CACNA1A	APCA, BI, CACNL1A4, CAV2.1, EA2, FHM, HPCA, MHP, MHP1, SCA6	calcium channel, voltage-dependent, P/Q type, alpha 1A subunit	brain calcium channel 1|brain calcium channel I|calcium channel, L type, alpha-1 polypeptide|fetal brain Ca2+ voltage-gated channel alpha1A pore-forming subunit|voltage-gated calcium channel subunit alpha Cav2.1	19p13	19	NC_000019.10	13206442	13506460	minus	49	601011	
9606	Homo sapiens	673	0	live	BRAF	B-RAF11, NS7, RAFB1, BRAF	B-Raf proto-oncogene, serine/threonine kinase	94 kDa B-raf protein|B-Raf proto-oncogene serine/threonine-protein kinase (p94)|murine sarcoma viral (v-raf) oncogene homolog B1|proto-oncogene B-Raf|v-raf murine sarcoma viral oncogene homolog B|v-raf murine sarcoma viral oncogene homolog B1	7q34	7	NC_000007.14	140715951	140924764	minus	22	164757	
9606	Homo sapiens	627	0	live	BDNF	ANON2, BULN2	brain-derived neurotrophic factor	abrineurin|neurotrophin	11p13	11	NC_000011.10	27654893	27722058	minus	12	113505	
9606	Homo sapiens	468	0	live	ATF4	CREB-2, CREB2, TAXREB67, TXREB	activating transcription factor 4	DNA-binding protein TAXREB67|cAMP response element-binding protein 2|cAMP-dependent transcription factor ATF-4|cAMP-responsive element-binding protein 2|cyclic AMP-responsive element-binding protein 2|tax-responsive enhancer element B67|tax-responsive enhancer element-binding protein 67	22q13.1	22	NC_000022.11	39520559	39522686	plus	3	604064	
9606	Homo sapiens	409	0	live	ARRB2	ARB2, ARR2, BARR2	arrestin, beta 2	arrestin 3|arrestin beta-2	17p13	17	NC_000017.11	4710494	4721500	plus	17	107941	
9606	Homo sapiens	408	0	live	ARRB1	ARB1, ARR1	arrestin, beta 1	arrestin 2	11q13	11	NC_000011.10	75260122	75351831	minus	19	107940	
9606	Homo sapiens	356	0	live	FASLG	ALPS1B, APT1LG1, APTL, CD178, CD95-L, CD95L, FASL, TNFSF6	Fas ligand (TNF superfamily, member 6)	CD95 ligand|apoptosis (APO-1) antigen ligand 1|apoptosis antigen ligand|fas antigen ligand|mutant tumor necrosis factor family member 6	1q23	1	NC_000001.11	172659008	172666873	plus	4	134638	
9606	Homo sapiens	355	0	live	FAS	ALPS1A, APO-1, APT1, CD951, FASTM, TNFRSF6, FAS	Fas cell surface death receptor	APO-1 cell surface antigen|CD95 antigen|Delta Fas/APO-1/CD95|FAS 827dupA|FAS receptor variant 9|FASLG receptor|Fas (TNF receptor superfamily, member 6)|Fas AMA|TNF receptor superfamily member 6|apoptosis antigen 1|apoptosis-mediating surface antigen FAS|tumor necrosis factor receptor superfamily, member 6	10q24.1	10	NC_000010.11	88969801	89017059	plus	14	134637	
9606	Homo sapiens	208	0	live	AKT2	HIHGHH, PKBB, PKBBETA, PRKBB, RAC-BETA	v-akt murine thymoma viral oncogene homolog 2	PKB beta|RAC-PK-beta|murine thymoma viral (v-akt) homolog-2|protein kinase Akt-2|protein kinase B beta|rac protein kinase beta	19q13.1-q13.2	19	NC_000019.10	40230317	40285531	minus	23	164731	
9606	Homo sapiens	207	0	live	AKT1	AKT, CWS6, PKB, PKB-ALPHA, PRKBA, RAC, RAC-ALPHA	v-akt murine thymoma viral oncogene homolog 1	AKT1m|PKB alpha|RAC-PK-alpha|protein kinase B alpha|proto-oncogene c-Akt|rac protein kinase alpha	14q32.32	14	NC_000014.9	104769349	104795743	minus	17	164730	