tax_id	Org_name	GeneID	CurrentID	Status	Symbol	Aliases	description	other_designations	map_location	chromosome	genomic_nucleotide_accession.version	start_position_on_the_genomic_accession	end_position_on_the_genomic_accession	orientation	exon_count	OMIM	
9606	Homo sapiens	283459	0	live	GATC	15E1.2	glutamyl-tRNA(Gln) amidotransferase, subunit C	glu-AdT subunit C|glutamyl-tRNA(Gln) amidotransferase, subunit C homolog	12q24.31	12	NC_000012.12	120446438	120463753	plus	5		
9606	Homo sapiens	124454	0	live	EARS2	COXPD12, MSE1, gluRS	glutamyl-tRNA synthetase 2, mitochondrial	glutamate tRNA ligase 2, mitochondrial|glutamate--tRNA ligase|probable glutamyl-tRNA synthetase, mitochondrial	16p12.2	16	NC_000016.10	23522013	23557375	minus	11	612799	
9606	Homo sapiens	123283	0	live	TARSL2		threonyl-tRNA synthetase-like 2	probable threonyl-tRNA synthetase 2, cytoplasmic|thrRS|threonine--tRNA ligase|threonyl-tRNA synthetase|threonyl-tRNA synthetase-like protein 2	15q26.3	15	NC_000015.10	101653752	101724442	minus	21		
9606	Homo sapiens	123263	0	live	MTFMT	COXPD15, FMT1	mitochondrial methionyl-tRNA formyltransferase		15q22.31	15	NC_000015.10	65001512	65029639	minus	10	611766	
9606	Homo sapiens	118672	0	live	PSTK	C10orf89	phosphoseryl-tRNA kinase	O-phosphoseryl-tRNA(Sec) kinase	10q26.13	10	NC_000010.11	122954235	122997519	plus	9	611310	
9606	Homo sapiens	92935	0	live	MARS2	COXPD25, MetRS, mtMetRS	methionyl-tRNA synthetase 2, mitochondrial	methionine tRNA ligase 2, mitochondrial|methionine--tRNA ligase 2|methionine-tRNA synthetase 2, mitochondrial	2q33.1	2	NC_000002.12	197705304	197708390	plus	1	609728	
9606	Homo sapiens	80222	0	live	TARS2	COXPD21, TARSL1, thrRS	threonyl-tRNA synthetase 2, mitochondrial (putative)	threonyl-tRNA synthetase-like 1	1q21.3	1	NC_000001.11	150487364	150507609	plus	18	612805	
9606	Homo sapiens	79731	0	live	NARS2	DFNB94, SLM5, asnRS	asparaginyl-tRNA synthetase 2, mitochondrial (putative)	asparagine tRNA ligase 2, mitochondrial (putative)|deafness, autosomal recessive 94|probable asparaginyl-tRNA synthetase, mitochondrial	11q14.1	11	NC_000011.10	78435961	78574864	minus	16	612803	
9606	Homo sapiens	79587	0	live	CARS2	cysRS	cysteinyl-tRNA synthetase 2, mitochondrial (putative)	cysteine tRNA ligase 2, mitochondrial (putative)	13q34	13	NC_000013.11	110641410	110713601	minus	22	612800	
9606	Homo sapiens	57505	0	live	AARS2	AARSL, COXPD8, LKENP, MT-ALARS, MTALARS	alanyl-tRNA synthetase 2, mitochondrial	alanine tRNA ligase 2, mitochondrial (putative)|alanyl-tRNA synthetase 2, mitochondrial (putative)|alanyl-tRNA synthetase like|probable alanyl-tRNA synthetase, mitochondrial	6p21.1	6	NC_000006.12	44297826	44313358	minus	23	612035	
9606	Homo sapiens	57176	0	live	VARS2	COXPD20, VALRSL, VARSL, VARS2	valyl-tRNA synthetase 2, mitochondrial	valine tRNA ligase 2, mitochondrial (putative)|valyl-tRNA synthetase like	6p21.33	6	NC_000006.12	30914208	30926459	plus	30	612802	
9606	Homo sapiens	57038	0	live	RARS2	ArgRS, DALRD2, PCH6, PRO1992, RARSL, dJ382I10.6	arginyl-tRNA synthetase 2, mitochondrial	arginine--tRNA ligase|arginine-tRNA ligase|probable arginyl-tRNA synthetase, mitochondrial	6q16.1	6	NC_000006.12	87499347	87590017	minus	26	611524	
9606	Homo sapiens	55699	0	live	IARS2	CAGSSS, ILERS	isoleucyl-tRNA synthetase 2, mitochondrial	isoleucine tRNA ligase 2, mitochondrial|isoleucine-tRNA synthetase 2, mitochondrial|isoleucyl-tRNA synthetase, mitochondrial|mitochondrial isoleucine tRNA synthetase	1q41	1	NC_000001.11	220094113	220148041	plus	23	612801	
9606	Homo sapiens	55278	0	live	QRSL1	GatA	glutaminyl-tRNA synthase (glutamine-hydrolyzing)-like 1	glu-AdT subunit A|glutaminyl-tRNA synthase-like protein 1|glutamyl-tRNA(Gln) amidotransferase subunit A homolog|glutamyl-tRNA(Gln) amidotransferase, subunit A	6q21	6	NC_000006.12	106629566	106668417	plus	12		
9606	Homo sapiens	55157	0	live	DARS2	ASPRS, LBSL, MT-ASPRS	aspartyl-tRNA synthetase 2, mitochondrial	aspartate tRNA ligase 2, mitochondrial|aspartyl-tRNA synthetase, mitochondrial	1q25.1	1	NC_000001.11	173824645	173858544	plus	18	610956	
9606	Homo sapiens	54938	0	live	SARS2	SARS, SARSM, SERS, SYS, SerRS, SerRSmt, mtSerRS	seryl-tRNA synthetase 2, mitochondrial	mitochondrial seryl-tRNA synthetase|serine tRNA ligase 2, mitochondrial|serine-tRNA ligase, mitochondrial|seryl-tRNA synthetase, mitochondrial|seryl-tRNA(Ser/Sec) synthetase	19q13.2	19	NC_000019.10	38915264	38930896	minus	17	612804	
9606	Homo sapiens	51520	0	live	LARS	HSPC192, ILFS11, LEURS, LEUS, LFIS, LRS, PIG44, RNTLS, hr025Cl, LARS	leucyl-tRNA synthetase	cytoplasmic leucyl-tRNA synthetase|cytosolic leucyl-tRNA synthetase|leucine tRNA ligase 1, cytoplasmic|leucine translase|proliferation-inducing gene 44	5q32	5	NC_000005.10	146113026	146182787	minus	32	151350	
9606	Homo sapiens	51091	0	live	SEPSECS	LP, PCH2D, SLA, SLA/LP	Sep (O-phosphoserine) tRNA:Sec (selenocysteine) tRNA synthase	SLA-p35|SLA/LP autoantigen|UGA suppressor tRNA-associated protein|liver-pancreas antigen|soluble liver antigen|soluble liver antigen/liver pancreas antigen|tRNA(Ser/Sec)-associated antigenic protein	4p15.2	4	NC_000004.12	25120005	25160582	minus	14	613009	
9606	Homo sapiens	51067	0	live	YARS2	CGI-04, MLASA2, MT-TYRRS, TYRRS	tyrosyl-tRNA synthetase 2, mitochondrial	tyrosine tRNA ligase 2, mitochondrial	12p11.21	12	NC_000012.12	32725091	32755961	minus	9	610957	
9606	Homo sapiens	25973	0	live	PARS2	MT-PRORS, proRS	prolyl-tRNA synthetase 2, mitochondrial (putative)	proline tRNA ligase 2, mitochondrial (putative)	1p32.2	1	NC_000001.11	54755519	54764553	minus	3	612036	
9606	Homo sapiens	23438	0	live	HARS2	HARSL, HARSR, HO3, PRLTS2	histidyl-tRNA synthetase 2, mitochondrial	HARS-related|hisRS|histidine tRNA ligase 2, mitochondrial (putative)|histidine translase|histidine-tRNA ligase homolog|histidyl-tRNA synthetase 2, mitochondrial (putative)|probable histidyl-tRNA synthetase, mitochondrial	5q31.3	5	NC_000005.10	140691426	140699318	plus	13	600783	
9606	Homo sapiens	23395	0	live	LARS2	LEURS, PRLTS4	leucyl-tRNA synthetase 2, mitochondrial	leucine tRNA ligase 2, mitochondrial|leucine tRNA ligase 2, mitocondrial|leucine translase|probable leucyl-tRNA synthetase, mitochondrial	3p21.3	3	NC_000003.12	45388561	45548842	plus	23	604544	
9606	Homo sapiens	10667	0	live	FARS2	COXPD14, FARS1, HSPC320, PheRS, dJ520B18.2	phenylalanyl-tRNA synthetase 2, mitochondrial	dJ236A3.1 (phenylalanine-tRNA synthetase)|dJ520B18.2 (FARS1 (phenylalanine-tRNA synthetase))|phenylalanine tRNA ligase 2, mitochondrial|phenylalanine translase|phenylalanine-tRNA synthetase 1 (mitochondrial)	6p25.1	6	NC_000006.12	5261018	5771583	plus	16	611592	
9606	Homo sapiens	10352	0	live	WARS2	TrpRS	tryptophanyl tRNA synthetase 2, mitochondrial	(Mt)TrpRS|tryptophan tRNA ligase 2, mitochondrial|tryptophan-tRNA ligase|tryptophanyl-tRNA synthetase, mitochondrial	1p12	1	NC_000001.11	119031216	119140788	minus	8	604733	
9606	Homo sapiens	10056	0	live	FARSB	FARSLB, FRSB, HSPC173, PheHB, PheRS	phenylalanyl-tRNA synthetase, beta subunit	phenylalanine tRNA ligase 1, beta, cytoplasmic|phenylalanine--tRNA ligase beta chain|phenylalanine-tRNA ligase beta chain|phenylalanine-tRNA synthetase-like, beta subunit|phenylalanyl-tRNA synthetase beta chain|phenylalanyl-tRNA synthetase beta-subunit|phenylalanyl-tRNA synthetase-like, beta subunit	2q36.1	2	NC_000002.12	222571443	222656355	minus	19	609690	
9606	Homo sapiens	8565	0	live	YARS	CMTDIC, TYRRS, YRS, YTS	tyrosyl-tRNA synthetase	tyrosine tRNA ligase 1, cytoplasmic|tyrosyl--tRNA ligase|tyrosyl-tRNA synthetase, cytoplasmic	1p35.1	1	NC_000001.11	32775239	32818032	minus	14	603623	
9606	Homo sapiens	7453	0	live	WARS	GAMMA-2, IFI53, IFP53	tryptophanyl-tRNA synthetase	hWRS|interferon-induced protein 53|trpRS|tryptophan tRNA ligase 1, cytoplasmic	14q32.31	14	NC_000014.9	100333788	100376343	minus	14	191050	
9606	Homo sapiens	7407	0	live	VARS	G7A1, VARS2, VARS	valyl-tRNA synthetase	protein G7a|valRS|valine tRNA ligase 1, cytoplasmic|valyl-tRNA synthetase 2	6p21.3	6	NC_000006.12	31777518	31795935	minus	30	192150	
9606	Homo sapiens	6897	0	live	TARS	ThrRS	threonyl-tRNA synthetase	threonine tRNA ligase 1, cytoplasmic|threonyl-tRNA synthetase, cytoplasmic	5p13.2	5	NC_000005.10	33440696	33468091	plus	21	187790	
9606	Homo sapiens	6301	0	live	SARS	SERRS, SERS	seryl-tRNA synthetase	serine tRNA ligase 1, cytoplasmic|seryl-tRNA synthetase, cytoplasmic|seryl-tRNA(Ser/Sec) synthetase	1p13.3	1	NC_000001.11	109213893	109238182	plus	13	607529	
9606	Homo sapiens	5917	0	live	RARS	ArgRS, DALRD1, HLD9	arginyl-tRNA synthetase	arginine tRNA ligase 1, cytoplasmic|arginyl-tRNA synthetase, cytoplasmic	5q35.1	5	NC_000005.10	168486458	168519306	plus	15	107820	
9606	Homo sapiens	5859	0	live	QARS	GLNRS, MSCCA, PRO2195	glutaminyl-tRNA synthetase	glutamine-tRNA synthetase	3p21.31	3	NC_000003.12	49095932	49105129	minus	24	603727	
9606	Homo sapiens	5188	0	live	GATB	HSPC199, PET112, PET112L	glutamyl-tRNA(Gln) amidotransferase, subunit B	PET112 homolog|cytochrome c oxidase assembly factor PET112 homolog|cytochrome oxidase assembly factor PET112 homolog|glu-AdT subunit B	4q31.3	4	NC_000004.12	151670052	151761023	minus	14	603645	
9606	Homo sapiens	4677	0	live	NARS	ASNRS1, NARS	asparaginyl-tRNA synthetase	asparagine tRNA ligase 1, cytoplasmic|asparaginyl-tRNA synthetase, cytoplasmic	18q21.31	18	NC_000018.10	57600656	57621945	minus	14	108410	
9606	Homo sapiens	4579	0	live	MT-TY	MTTY, TRNY	mitochondrially encoded tRNA tyrosine			MT	NC_012920.1	5826	5891	minus	0		
9606	Homo sapiens	4578	0	live	MT-TW	MTTW, TRNW	mitochondrially encoded tRNA tryptophan			MT	NC_012920.1	5512	5579	plus	0		
9606	Homo sapiens	4577	0	live	MT-TV	MTTV, TRNV	mitochondrially encoded tRNA valine			MT	NC_012920.1	1602	1670	plus	0		
9606	Homo sapiens	4576	0	live	MT-TT	MTTT, TRNT	mitochondrially encoded tRNA threonine			MT	NC_012920.1	15888	15953	plus	0		
9606	Homo sapiens	4575	0	live	MT-TS2	MTTS2, TRNS2	mitochondrially encoded tRNA serine 2 (AGU/C)			MT	NC_012920.1	12207	12265	plus	0		
9606	Homo sapiens	4574	0	live	MT-TS1	MTTS1, TRNS1	mitochondrially encoded tRNA serine 1 (UCN)			MT	NC_012920.1	7446	7514	minus	0		
9606	Homo sapiens	4573	0	live	MT-TR	MTTR, TRNR	mitochondrially encoded tRNA arginine			MT	NC_012920.1	10405	10469	plus	0		
9606	Homo sapiens	4572	0	live	MT-TQ	MTTQ, TRNQ	mitochondrially encoded tRNA glutamine			MT	NC_012920.1	4329	4400	minus	0		
9606	Homo sapiens	4571	0	live	MT-TP	MTTP, TRNP	mitochondrially encoded tRNA proline			MT	NC_012920.1	15956	16023	minus	0		
9606	Homo sapiens	4570	0	live	MT-TN	MTTN, TRNN	mitochondrially encoded tRNA asparagine			MT	NC_012920.1	5657	5729	minus	0		
9606	Homo sapiens	4569	0	live	MT-TM	MTTM, TRNM	mitochondrially encoded tRNA methionine			MT	NC_012920.1	4402	4469	plus	0		
9606	Homo sapiens	4568	0	live	MT-TL2	MTTL2, TRNL2	mitochondrially encoded tRNA leucine 2 (CUN)			MT	NC_012920.1	12266	12336	plus	0		
9606	Homo sapiens	4567	0	live	MT-TL1	MTTL1, TRNL1	mitochondrially encoded tRNA leucine 1 (UUA/G)			MT	NC_012920.1	3230	3304	plus	0		
9606	Homo sapiens	4566	0	live	MT-TK	MTTK, TRNK	mitochondrially encoded tRNA lysine			MT	NC_012920.1	8295	8364	plus	0		
9606	Homo sapiens	4565	0	live	MT-TI	MTTI, TRNI	mitochondrially encoded tRNA isoleucine			MT	NC_012920.1	4263	4331	plus	0		
9606	Homo sapiens	4564	0	live	MT-TH	MTTH, TRNH	mitochondrially encoded tRNA histidine			MT	NC_012920.1	12138	12206	plus	0		
9606	Homo sapiens	4563	0	live	MT-TG	MTTG, TRNG	mitochondrially encoded tRNA glycine			MT	NC_012920.1	9991	10058	plus	0		
9606	Homo sapiens	4558	0	live	MT-TF	TRNF	mitochondrially encoded tRNA phenylalanine			MT	NC_012920.1	577	647	plus	0		
9606	Homo sapiens	4556	0	live	MT-TE	MTTE, TRNE	mitochondrially encoded tRNA glutamic acid			MT	NC_012920.1	14674	14742	minus	0		
9606	Homo sapiens	4555	0	live	MT-TD	MTTD, TRND	mitochondrially encoded tRNA aspartic acid			MT	NC_012920.1	7518	7585	plus	0		
9606	Homo sapiens	4553	0	live	MT-TA	MTTA, TRNA	mitochondrially encoded tRNA alanine			MT	NC_012920.1	5587	5655	minus	0		
9606	Homo sapiens	4511	0	live	MT-TC	MTTC, TRNC	mitochondrially encoded tRNA cysteine			MT	NC_012920.1	5761	5826	minus	0		
9606	Homo sapiens	4141	0	live	MARS	CMT2U, ILFS2, ILLD, METRS, MRS, MTRNS, SPG70	methionyl-tRNA synthetase	cytosolic methionyl-tRNA synthetase	12q13.3	12	NC_000012.12	57487953	57516655	plus	21	156560	
9606	Homo sapiens	3735	0	live	KARS	CMTRIB, DFNB891, KARS2, KRS, KARS	lysyl-tRNA synthetase	lysRS|lysine tRNA ligase	16q23.1	16	NC_000016.10	75627724	75647687	minus	15	601421	
9606	Homo sapiens	3376	0	live	IARS	IARS1, ILERS, ILRS, IRS, PRO0785	isoleucyl-tRNA synthetase	isoleucine tRNA ligase 1, cytoplasmic|isoleucyl-tRNA synthetase, cytoplasmic	9q21	9	NC_000009.12	92210207	92293756	minus	34	600709	
9606	Homo sapiens	3035	0	live	HARS	HRS, USH3B	histidyl-tRNA synthetase	HisRS|histidine translase	5q31.3	5	NC_000005.10	140673904	140691727	minus	13	142810	
9606	Homo sapiens	2617	0	live	GARS	CMT2D, DSMAV, GlyRS, HMN5, SMAD1	glycyl-tRNA synthetase	AP-4-A synthetase|Charcot-Marie-Tooth neuropathy 2D|Charcot-Marie-Tooth neuropathy, neuronal type, D|diadenosine tetraphosphate synthetase|glycine tRNA ligase	7p15	7	NC_000007.14	30594565	30634033	plus	18	600287	
9606	Homo sapiens	2193	0	live	FARSA	CML33, FARSL, FARSLA, FRSA, PheHA	phenylalanyl-tRNA synthetase, alpha subunit	pheRS|phenylalanine tRNA ligase 1, alpha, cytoplasmic|phenylalanine--tRNA ligase alpha chain|phenylalanine-tRNA synthetase alpha-subunit|phenylalanine-tRNA synthetase-like, alpha subunit|phenylalanyl-tRNA synthetase alpha chain|phenylalanyl-tRNA synthetase-like, alpha subunit	19p13.2	19	NC_000019.10	12922470	12933744	minus	13	602918	
9606	Homo sapiens	2058	0	live	EPRS	EARS, GLUPRORS, PARS, PIG32, QARS, QPRS	glutamyl-prolyl-tRNA synthetase	bifunctional aminoacyl-tRNA synthetase|cell proliferation-inducing gene 32 protein|glutamate tRNA ligase|glutamatyl-prolyl-tRNA synthetase|glutaminyl-tRNA synthetase|proliferation-inducing gene 32 protein|proliferation-inducing protein 32|proline tRNA ligase|proline-tRNA ligase|prolyl-tRNA synthetase	1q41	1	NC_000001.11	219968600	220046658	minus	32	138295	
9606	Homo sapiens	1615	0	live	DARS	HBSL, aspRS	aspartyl-tRNA synthetase	aspartate tRNA ligase 1, cytoplasmic|aspartyl-tRNA synthetase, cytoplasmic|cell proliferation-inducing gene 40 protein	2q21.3	2	NC_000002.12	135905881	135985684	minus	16	603084	
9606	Homo sapiens	833	0	live	CARS	CARS1, CYSRS, MGC:11246	cysteinyl-tRNA synthetase	cysteine tRNA ligase 1, cytoplasmic|cysteine translase	11p15.5	11	NC_000011.10	3000922	3057451	minus	23	123859	
9606	Homo sapiens	16	0	live	AARS	CMT2N, EIEE29	alanyl-tRNA synthetase	alaRS|alanine tRNA ligase 1, cytoplasmic|alanyl-tRNA synthetase, cytoplasmic|renal carcinoma antigen NY-REN-42	16q22	16	NC_000016.10	70252295	70289550	minus	21	601065	