index	Symbol
1	RANGRF
2	FHIT
3	REM2
4	 EPHA2 
5	B2M
6	 TGFBR2 
7	RNF11
8	ZNF879
9	NR0B2
10	CAMK4
11	ZC3H10
12	ZC3H13
13	RNF111
14	KDM2A
15	ZC3H18
16	CBLC
17	CBLB
18	OSGEP
19	ZNF43
20	C2CD5
21	NUP98
22	SP3
23	 MET 
24	MIR103B1
25	 EP300 
26	RAB40A
27	TRAPPC8
28	 ZFHX3 
29	KLLN
30	PTPRA|VPS16
31	PNISR
32	ITGA5
33	RIT1
34	ITGA7
35	CXORF40B
36	PHLDA1
37	PHLDA3
38	 SNX25 
39	MTCP1
40	FBXL13
41	FBXL15
42	LOC100128714
43	FBXL17
44	FAM169A
45	FAM116B
46	H19
47	GRP
48	FAM212B
49	FBLL1
50	THSD1
51	COL4A3
52	COL4A2
53	KCNH7
54	BCL2A1
55	ITGAV
56	LGTN
57	NOV
58	LOC401557
59	ZNF292
60	NUP133
61	SMAD4
62	SMAD2
63	SMAD3
64	NDUFAF4
65	TMPRSS11A
66	MIR4715
67	IGF2R
68	MIR4710
69	CKS1B
70	 TNF 
71	ART3
72	HERC2P2
73	HERC2P7
74	HERC2P9
75	SULT1A1
76	SULT1A2
77	IL3RA
78	PRKAR1A
79	PRKAR1B
80	 SMARCA4 
81	COL18A1
82	MCF2L
83	ATP1A1
84	PRELID1
85	CDC40
86	FOXQ1
87	SPHK1
88	 NFE2L2 
89	CUEDC2
90	CPEB4
91	BEGAIN
92	BIN1
93	BIN3
94	BIN2
95	RGS22
96	MIR4535
97	 AJUBA 
98	IFT88
99	MIEN1
100	YLPM1
101	 FAM46C 
102	CDCA4
103	UTS2
104	MUC7
105	IGFBPL1
106	ATG4B
107	PHOX2A
108	PHOX2B
109	SNORD114-31
110	SNORD114-30
111	SASH1
112	TCL1B
113	TCL1A
114	PNP
115	CYB5B
116	PNN
117	ATP6V0E1
118	PCK2
119	REREP3
120	UVRAG
121	RNU6ATAC
122	HSA-MIR-342
123	ZCCHC9
124	ESRP1
125	C7ORF50
126	 ARHGAP35 
127	TYRP1
128	C3orf70
129	FAM69B
130	KLK6
131	THOC3
132	CHFR
133	THOC5
134	NBEAP1
135	RFX5
136	RFX6
137	ZNF844
138	ZNF845
139	MIR382
140	 VHL 
141	FLJ42709
142	WHSC1
143	OR4N5
144	APC
145	XPNPEP1
146	FOXP3
147	FOXP1
148	PAPLN
149	ADNP
150	COPS2
151	COPS3
152	COPS5
153	PARP10
154	 TSC1 
155	ZNF598
156	MYCN
157	MYCL
158	 OR4A16 
159	FLT3
160	PLCH2
161	LRFN2
162	KIF14
163	DPYSL4
164	IGF1
165	IGFBP3
166	IGFBP7
167	IGFBP4
168	IGFBP5
169	MYCLP1
170	LOC286297
171	GJA1
172	GJA8
173	BVES-AS1
174	MEF2C
175	KDM3B
176	ZNF334
177	TP53BP2
178	TEX12
179	CSMD1
180	 KRAS 
181	TXNIP
182	LRRC3B
183	C2ORF54
184	MLF1
185	MECOM
186	gamma-heregulin
187	MIR181A2
188	MIR181A1
189	THYN1
190	MYT1L
191	CEPT1
192	ARID3A
193	TRIO
194	MTMR10
195	LOC145216
196	CELSR3
197	CELSR1
198	RABL2B
199	TMEM147
200	FOXL2
201	TMEM140
202	MIR4707
203	CXADR
204	 PBRM1 
205	ZNF33B
206	MIR18A
207	ECRP
208	FAM117A
209	KIAA1191
210	 CDK12 
211	KTN1
212	TCEB1
213	 ERBB3 
214	CEP57L1
215	ZMAT3
216	 STK11 
217	MYBL1
218	MYBL2
219	ITGB1BP1
220	 RSBN1L 
221	OR6S1
222	LOC100132287
223	SGK196
224	ZNF8
225	ZAP70
226	CDC5L
227	RAC2
228	ST3GAL6
229	ST3GAL4
230	VCL
231	CPLX2
232	CPLX1
233	VCX
234	PBX3
235	SNORA74B
236	PBX1
237	ELMOD1
238	 RUNX1 
239	SLC16A1
240	SLC16A4
241	RP11-165H20.1
242	ARHGAP35
243	PTCH2
244	PTCH1
245	 NTN4 
246	 NOTCH1 
247	ERGIC1
248	SNORD114-22
249	SNORD114-23
250	SNORD114-20
251	SNORD114-21
252	SNORD114-26
253	SNORD114-27
254	SNORD114-24
255	CLU
256	B3GAT1
257	SNORD114-29
258	MIR15A
259	GPS2
260	CALM1
261	CACNA1D
262	CACNA1E
263	SRPX2
264	HRH2
265	COL17A1
266	A1BG
267	FLCN
268	PLK2
269	KIF2B
270	PLK5
271	CLCN4
272	BRD8
273	BRD4
274	HSA-MIR-370
275	BRD7
276	BRD1
277	BRD3
278	SLC22A18
279	LYRM2
280	PTPN13
281	PTPN12
282	PTPN11
283	AKT2
284	GALR2
285	GALR1
286	TTC12
287	MGA
288	CSF2RA
289	DMD
290	MRPL22
291	GAB4
292	RRAS2
293	HIF1A
294	NDRG1
295	NDRG2
296	NDRG4
297	PPM1D
298	CHD1L
299	SRSF2
300	EGR2
301	EGR3
302	EGR1
303	PPM1J
304	RNF130
305	VIL1
306	KRIT1
307	MSMB
308	PJA2
309	CHEK2
310	CHEK1
311	HOXA1
312	SIKE1
313	EIF4E1B
314	PAX5
315	PAX4
316	PAX7
317	PAX6
318	ZNF584
319	PAX3
320	PAX2
321	PTPN3
322	PTPN2
323	PTPN1
324	PAX9
325	PTPN6
326	PTPN5
327	PTPN4
328	PROK1
329	DDR2
330	LPAR6
331	EPHA5
332	DDR1
333	PSD
334	"*Genes were classified as Oncogenes if they had an  Oncogene Score >20% and classified as a Tumor Suppressor Gene (TSG) if the TSG Score was >20% (the 20/20 rule).  The Oncogene  Score was defined as the number of clustered mutations (i.e., missense mutations at the same amino acid or identical in-frame insertions or deletions) divided by the total number of mutations.  The TSG Score was defined as the number of truncating mutations divided by the total number of mutations.   Truncating mutations included nonsense mutations, insertions or deletions that alter the reading frame, splice-site mutations, or mutations at the normal stop codon predicted to result in a longer protein.   When a gene had an oncogene score >20% and a TSG Score >5%, it was classified as a TSG because well-studied oncogenes rarely harbor stop codons.     The major data source for this classification was the COSMIC database (www.sanger.ac.uk/genetics/CGP/cosmic/).  To be classified as an oncogene, there had to be >10 clustered mutations in this database.  To be classified as a tumor suppressor gene, there had had to be at least 7 inactivating mutations recorded in this database.     In those cases in which  7  to 20 inactivating mutations  were recorded in the COSMIC database, manual curation was performed.  This curation was used to identify other examples of mutations not yet recorded in the COSMIC database and to exclude the most common artifacts encountered in next-generation sequencing, such as mapping errors and high mutation frequencies  observed in normal tissues.   Genes with mutations occurring predominantly in tumors with very high rates of mutation, such as in mismatch-repair deficient tumors or melanomas, were excluded.  As more individual tumors are sequenced in the future, the 20/20 rule can be improved by (i)  considering mutations only in particular tumor types, rather than in all tumor types combined (as done here); (ii) requiring a higher number (e.g., 15) of clustered or inactivating mutations as a threshold for inclusion; and (iii) for genes with thousands of recorded mutations, choose a random subset to calculate the Oncogene Score (if enough tumors are sequenced, all mutations will appear to be clustered)"
335	NNMT
336	 PPM1D 
337	HSA-MIR-2113
338	C10ORF95
339	C2ORF48
340	PTDSS2
341	EphB1
342	EPHA4
343	LCN6
344	CHMP3
345	ADPRH
346	BCR
347	ADI1
348	OR52N1
349	LCN2
350	PPAPDC1B
351	HOXA10
352	DSG4
353	SRC
354	TSSK4
355	 CD70 
356	FBXO42
357	SF3B1
358	LGALS8
359	EXPH5
360	MOS
361	RMND5B
362	SFRP1
363	AKIRIN2
364	SFRP4
365	SFRP5
366	LOC440970
367	COL1A2
368	AGPAT2
369	COL1A1
370	AVPI1
371	ASAP2
372	MYOCD
373	CMYA5
374	FOXO3
375	FOXO1
376	LRRC24
377	PSMD13
378	LRRC21
379	FOXO4
380	MIR4733
381	AP3B1
382	GCNT4
383	GCNT2
384	UNCX
385	 TCF7L2 
386	 SOX17 
387	ZO-1
388	ELK2AP
389	PIGG
390	 ERBB2 
391	PIGV
392	EPCAM
393	VCX3B
394	VCX3A
395	ANKLE2
396	 SMAD2 
397	RHPN2
398	BBIP1
399	 BCOR 
400	 NRAS 
401	LNPEP
402	HSA-MIR-587
403	HSA-MIR-582
404	MIR193B
405	RAB9BP1
406	OR10H2
407	FAM71B
408	FAM71C
409	OGG1
410	ALLC
411	HIF1AN
412	NTRK1
413	NTRK2
414	RSBN1
415	DENND3
416	ARHGAP20
417	ARHGAP26
418	PPP1R16B
419	BLNK
420	DDIT3
421	MICALCL
422	ATP1A1OS
423	SLCO4C1
424	RBFA
425	COL19A1
426	MIR451A
427	MIR3173
428	FABP3
429	LOC100506274
430	ATG2B
431	UBR5
432	BMP5
433	SOCS1
434	BMP2
435	SOCS3
436	PPP2CA
437	PPP2CB
438	SRPX
439	C19ORF26
440	EMSY/C11orf30
441	CCNC
442	GOLGA8E
443	GOLGA8G
444	GOLGA8F
445	MIR218-2
446	GOLGA8C
447	MIR218-1
448	RASSF9
449	RASSF8
450	EPHB1
451	C14ORF93
452	RASSF1
453	TBRG1
454	RASSF2
455	RASSF5
456	RASSF4
457	RASSF7
458	NHP2
459	DBIL5P
460	RSAD2
461	IL1R1
462	CHD1
463	CHD2
464	CHD5
465	CHD4
466	LRRK2
467	MIR143
468	CHD8
469	MIR141
470	MIR145
471	PRKCA
472	SKIV2L
473	PTS
474	TTC5
475	TTC4
476	TTC1
477	TTC3
478	CDC25B
479	RNF44
480	RNF43
481	DCUN1D1
482	CAPG
483	KDSR
484	LRIG3
485	PRDM13
486	LRIG1
487	ANKRD20A2
488	MPO
489	MPL
490	ANKRD20A1
491	HLA-DQA1|HLA-DRB1
492	ANKRD20A4
493	SNCG
494	SNCB
495	SPC25
496	IL17RD
497	MATK
498	IL17RA
499	MCPH1
500	FOXR2
501	MIR103A1
502	POT1
503	OR1S1
504	OR1S2
505	SACS
506	C14ORF167
507	MUC5B
508	C14ORF165
509	GJA10
510	NCOR1
511	QRSL1
512	MMP1|MMP3|MMP12|LOC120321
513	SCAPER
514	TEK
515	BTG2
516	TEC
517	NFKB1
518	NFKB2
519	TES
520	AKAP17A
521	FAM49A
522	SIAH1
523	NSA2
524	ZFP36L1
525	ZFP36L2
526	 BRAF 
527	PHLPP2
528	PHLPP1
529	NUP210L
530	EMILIN1
531	MIR148B
532	PIAS3
533	CTGF
534	 CUX1 
535	ZNF132
536	 RB1 
537	HDHD1
538	EOGT
539	 DNMT3A 
540	MANEA
541	HERC2P3
542	LOC100506474
543	LOC339788
544	P2RX2
545	KCNK9
546	MLH3
547	MLH1
548	SNORD115-11
549	 CAP2 
550	ACOT12
551	FAM40A
552	VPS13B
553	MIR3689D2
554	MIR3689D1
555	BEX2
556	TMEM160
557	LRRC56
558	LRRC55
559	EVI2A
560	EVI2B
561	DIS3
562	GNA15
563	GNA12
564	GNA13
565	GNA11
566	SDHA
567	BAP1
568	SDHB
569	SDHD
570	SH2B3
571	TAP1
572	ERRFI1
573	ASXL2
574	MFGE8
575	IL6ST
576	SNAP91
577	 FLG 
578	DBN1
579	DLG1
580	DLG3
581	DLG2
582	DLG5
583	DLG4
584	CDC73
585	TSG1
586	C11orf30
587	CDH13
588	 NUP210L 
589	SEMG1
590	C15ORF38
591	IGF1R
592	SLC45A1
593	MTUS1
594	MACROD2
595	CEP112
596	ADRA1B
597	AKAP2
598	GTF2F2
599	CD3EAP
600	 CDKN1A 
601	AKAP9
602	 SELP 
603	STARD3
604	TUBE1
605	IL7R
606	ODF3
607	FAM20C
608	PPIL6
609	BDH1
610	GABRG3
611	GABRG2
612	NOVA1
613	MIR3183
614	CHKA
615	CHKB
616	 PDSS2 
617	OVGP1
618	PVT1
619	CETN3
620	LTC4S
621	 PHF6 
622	H3F3B
623	H3F3A
624	DIO3
625	SPATA19
626	ALPK2
627	C14ORF80
628	PHRF1
629	PPP1R7
630	CUX1
631	THBD
632	BRF1
633	GSTO2
634	MIR609
635	GSTO1
636	CAMSAP2
637	DNAJC6
638	CAMSAP1
639	MIR605
640	DUX4L7
641	DUX4L6
642	DUX4L5
643	TTC37
644	DUX4L2
645	OR4K5
646	OR4K1
647	OR4K2
648	RAP1A
649	BCLAF1
650	ZNF837
651	MIR16-1
652	LRIF1
653	ITPRIP
654	 TP53 
655	 MED23 
656	CIRBP-AS1
657	OR51V1
658	ACAT1
659	INTS4
660	LOC100130238
661	LIMD1
662	 RPS15 
663	SUGCT
664	HOPX
665	C14ORF176
666	C14ORF177
667	TSPY1
668	CAPZA1
669	ZFYVE27
670	TIMD4
671	LMO1
672	SLC17A6
673	GEMIN4
674	GEMIN5
675	BPIFC
676	PBRM1
677	CHMP4A
678	BAX
679	LCK
680	BHMT2
681	PRKCDBP
682	ERAL1
683	SHC1
684	CDK19
685	GFI1B
686	PMPCA
687	CDK12
688	CDK10
689	GJB2
690	GJB7
691	ST5
692	GPR124
693	GPR125
694	RBL2
695	SH3GLB1
696	P2RY8
697	FAM216A
698	MMP28
699	STS
700	TRIP12
701	PASK
702	TFG/ALK fusion
703	MMP20
704	DCAF11
705	HOXB13
706	LSM1
707	TFG
708	RND1
709	RND3
710	RGCC
711	PPP3CC
712	TGM1
713	TGM3
714	MIR4757
715	KIAA1549
716	MIR4754
717	cIAP1/BIRC2
718	MIRLET7A3
719	TMEM179
720	FOXI1
721	TMEM175
722	FGFR4
723	FNDC9
724	FNDC5
725	ADRA2A
726	 ALKBH6 
727	TEX22
728	FADD
729	ARMC10
730	BIK
731	NOL10
732	CDKN2B
733	CDKN2C
734	CDKN2A
735	CDKN2D
736	BARD1
737	EPHA3
738	DAAM2
739	EPHA2
740	LOC100505933
741	CCDC158
742	TUFT1
743	NME1
744	 SMAD4 
745	LRRC4C
746	PIK3CA 
747	CSTF2T
748	SYT6
749	UBTD2
750	MYCNOS
751	LOC653486
752	CCL2
753	NFATC1
754	NFATC4
755	LOC100289509
756	FUBP1
757	 SMC3 
758	SCHIP1
759	SPZ1
760	BLCAP
761	FAM189A1
762	SAP30
763	NBL1
764	TCP11L2
765	TUBD1
766	PPP1R14C
767	 PIK3CA 
768	 MED12 
769	KIAA1826
770	MIR3190
771	MIR3191
772	C22ORF34
773	TRIM7
774	PCDH10
775	ALKBH8
776	GPR98
777	ALKBH6
778	RALB
779	RALA
780	MIR29C
781	MIR29A
782	OR10G3
783	OR10G2
784	ATM
785	CDKN2B-AS1
786	ATR
787	LOC100289230
788	SMPD2
789	LOC284933
790	DNAJB4
791	HBXIP
792	LINC00341
793	DIDO1
794	 AZGP1 
795	KISS1
796	FRK
797	ENO1
798	SNW1
799	NIPAL4
800	SYCP2
801	NPAT
802	SYCP1
803	SNORD115-41
804	SNORD115-40
805	FAXC
806	SNORD115-45
807	SNORD115-44
808	SLC22A16
809	SLC22A17
810	GRIK2
811	SNORD115-48
812	MIR2113
813	 CEBPA 
814	MIR299
815	RNF145
816	PTK2
817	PTK6
818	RABGAP1
819	MSH2
820	MSH3
821	PRKAA2
822	MSH6
823	MCL1
824	GAL3ST2
825	ODC1
826	SCARA3
827	IL18RAP
828	ASMTL-AS1
829	NIPAL3
830	USH1C
831	IL17REL
832	MIR873
833	MIR876
834	MIR875
835	FLJ16171
836	EBF1
837	UCP2
838	AGTPBP1
839	MDP1
840	PM20D2
841	DDX23
842	DDX20
843	OR10AG1
844	DDX24
845	HSA-MIR-548E
846	NRIP1
847	SAE1
848	GPR132
849	ATP6V1C2
850	ATP6V1C1
851	HSA-MIR-548S
852	ZNF99
853	HSA-MIR-548P
854	UBE2J1
855	SNAR-E
856	FBXO11
857	ATF7IP
858	FAM95B1
859	MIRLET7F1
860	PPP1R3E
861	MIRLET7F2
862	PPP1R3C
863	PROX1
864	PARD6G
865	FAM153A
866	FAM153B
867	FAM153C
868	PARD6B
869	PARD6A
870	PPP2R3B
871	MARCKS
872	TRPM1
873	ERBB2
874	ERBB3
875	CCDC73
876	ERBB4
877	OR2G6
878	SEMA3B
879	TCL6
880	GHITM
881	INPP5E
882	LOC100507055
883	SPEN
884	LYL1
885	MIR494
886	CNST
887	MIR496
888	EPB41
889	SNRNP200
890	TIMM8B
891	DAXX
892	MET
893	TIAM1
894	PNPLA7
895	PNPLA4
896	MAP1A
897	UNC5A
898	IGSF9B
899	FOS
900	UNC5B
901	UNC5C
902	LBX1
903	UNC5D
904	ATG10
905	ZSCAN5A
906	FRMD6
907	FRMD7
908	PWRN1
909	GNAQ
910	GNAS
911	SAFB2
912	MIR3690
913	HLTF
914	AMOT
915	SGK223
916	SEC14L2
917	SEC14L4
918	KRT5
919	UPF2
920	SNED1
921	IL1B
922	KRT8
923	PHTF1
924	CASK
925	ECT2L
926	CAST
927	LINC00115
928	RPS19
929	EPB41L3
930	ACSS3
931	KIDINS220
932	JMY
933	ADAM23
934	MIR665
935	UBE2M
936	MIR668
937	ADAM29
938	SLC43A1
939	IL18
940	DFNA5
941	LATS2
942	GSTM1
943	GSTM2
944	GSTM3
945	AGXT
946	LRRN2
947	LRRN1
948	LOC100506388
949	PARK2
950	TMSB15A
951	CDHR2
952	RECK
953	 EZH2 
954	SNORA43
955	GPRIN2
956	GPRIN1
957	TTF2
958	SNORA49
959	SNORD116-24
960	PINX1
961	INSR
962	SNORD116-27
963	RUNX1T1
964	SNORD116-21
965	SNORD116-22
966	SNORD116-23
967	LTA4H
968	DKK3
969	DAD1
970	SNORD116-29
971	SPTBN1
972	ZNF814
973	KLF13
974	KLF11
975	KLF10
976	TFAP2A
977	TFAP2C
978	GBE1
979	ANXA1
980	ANXA2
981	ANXA5
982	ANXA4
983	ANXA7
984	ANXA8
985	MIR26B
986	POU5F2
987	CD99P1
988	LOC442497
989	DUSP12
990	TLX1NB
991	SQSTM1
992	PACRG
993	REC8
994	MIR409
995	OTOP1
996	WT1
997	C3orf27
998	C1S
999	 MAP2K4 
1000	COQ3
1001	ZRANB3
1002	MIR889
1003	MRGBP
1004	FLJ41350
1005	ATP9B
1006	SNORD115-47
1007	ZNF141
1008	ZNF140
1009	ABCA11P
1010	MIR1-1
1011	MIR1-2
1012	ZNF146
1013	WWC3
1014	WWC1
1015	DSC2
1016	INPP4B
1017	WHSC1L1
1018	MICAL1
1019	BRAF 
1020	DDX3X
1021	VWA8
1022	SAFB
1023	ZNF366
1024	BAMBI
1025	KCNN2
1026	PMS1
1027	PMS2
1028	TRAF3IP2-AS1
1029	 CDH1 
1030	BRMS1
1031	H2AFJ
1032	NIT2
1033	CCDC66
1034	FOXK2
1035	C10ORF108
1036	KRT4
1037	MIR4770
1038	MIR380
1039	PPP1R26
1040	EP400
1041	CLTB
1042	TFAM
1043	ADRBK1
1044	ADRBK2
1045	CHIA
1046	ULK4
1047	LOC100507043
1048	C17ORF97
1049	SNORD36B
1050	 TBC1D12 
1051	SLC35A1
1052	LOC100288615
1053	PGM5
1054	FAF2
1055	ZCCHC24
1056	ASIC2
1057	SART1
1058	 QKI 
1059	SLC25A47
1060	CDC27
1061	MIR517A
1062	HOXD13
1063	PDZD7
1064	TNF
1065	FAM150B
1066	BEST1
1067	 SIRT4 
1068	SORCS1
1069	SORCS3
1070	MIR3201
1071	CNR1
1072	TNPO1
1073	NANOG
1074	 CDKN1B 
1075	MAPK1
1076	BCO2
1077	MIR3687
1078	MAPK8
1079	MAPK9
1080	CHEK2P2
1081	ATP8A2
1082	 CTNNB1 
1083	 TRIM23 
1084	BCOR
1085	RAD54B
1086	ANKS1B
1087	ABI3BP
1088	IDUA
1089	LINC00102
1090	METTL3
1091	STAT5B
1092	STAT5A
1093	NKX3-1
1094	A1BG-AS1
1095	KCTD3
1096	ZNF595
1097	HLA-DQA1|HLA-DQB1
1098	ADAM17
1099	ADAM19
1100	LATS1
1101	SERPINA1
1102	PPP1R2P3
1103	SERPINA3
1104	SERPINA4
1105	SERPINA5
1106	LOC442245
1107	HAGH
1108	SERPINA9
1109	CPNE7
1110	CPNE6
1111	WNT8B
1112	CABLES1
1113	PYCARD
1114	CABLES2
1115	DNMT3B
1116	SNORD116-18
1117	DNMT3A
1118	 CASP8 
1119	SNORD116-11
1120	SNORD116-10
1121	SNORD116-13
1122	SNORD116-12
1123	SNORD116-15
1124	SNORD116-14
1125	SNORD116-16
1126	FOXD4L5
1127	FOXD4L6
1128	SNRPN
1129	FOXD4L2
1130	FOXD4L3
1131	MOV10L1
1132	SHANK3
1133	SHANK1
1134	SBNO2
1135	UPF3B
1136	ZBTB42
1137	ZBTB44
1138	BRAF
1139	BIRC2
1140	C14ORF129
1141	GPR61
1142	PCSK5
1143	HIPK2
1144	HIPK1
1145	ANP32B
1146	ANP32C
1147	ANP32A
1148	DUSP22
1149	HPSE2
1150	DUSP26
1151	SEMA3C
1152	RPF2
1153	ZFYVE16
1154	TAZ
1155	MRPL52
1156	 COL5A1 
1157	MIR411
1158	MIR410
1159	THY1
1160	MIR412
1161	LARP1
1162	TWIST1
1163	 MAP4K3 
1164	MACROD2-AS1
1165	MUC17
1166	DDX41
1167	EDIL3
1168	PTEN
1169	ARPC1/ARPC1A
1170	WNT2
1171	GPR116
1172	EIF5A2
1173	FDX1
1174	WNT1
1175	CTCF
1176	MMP14
1177	MMP16
1178	MMP17
1179	MIR548F2
1180	MMP13
1181	CDKN1C
1182	LRRN3
1183	CDKN1A
1184	GSTM5
1185	MLL3
1186	MLL2
1187	MYO18B
1188	PRG4
1189	SETBP1
1190	MLL4
1191	APOE
1192	FAM151B
1193	NF2
1194	NF1
1195	OR11H12
1196	REG3A
1197	TMEM127
1198	TMEM121
1199	UGT3A2
1200	MIR4767
1201	NCAPD3
1202	BLM
1203	BLK
1204	HCK
1205	RPL13AP6
1206	FBXO31
1207	FBXO32
1208	ZNF429
1209	SNORA47
1210	LOC100505964
1211	SRGAP3
1212	LOC100505967
1213	MBOAT2
1214	DLK1
1215	GPRC5A
1216	HINT1
1217	TSC1
1218	NEDD8
1219	LOC642929
1220	MIR323A
1221	SMC3
1222	MIR323B
1223	SMC4
1224	SMC6
1225	LOC340037
1226	SFR1
1227	PTTG1
1228	S100A2
1229	WBSCR17
1230	 FOXQ1 
1231	BIRC3
1232	AIP
1233	TINAG
1234	LTF
1235	LTK
1236	ALG12
1237	RIOK2
1238	SNORD116-25
1239	 ERCC2 
1240	SNORD116-26
1241	BANF1
1242	SNORD116-20
1243	COL10A1
1244	MORC4
1245	CHKB-CPT1B
1246	ALK 
1247	LOC100129269
1248	OR5W2
1249	GYG2
1250	CCNA2
1251	TRIM8
1252	DYNC1I1
1253	SNORD116-28
1254	TWIST2
1255	HNF1A
1256	PRKRA
1257	CBWD6
1258	CBWD5
1259	 EIF2S2 
1260	CBWD3
1261	RAB24
1262	PCSK1
1263	PLEKHO1
1264	LOC255654
1265	E2F6
1266	E2F5
1267	E2F3
1268	E2F1
1269	PPP1R13B
1270	TUSC2
1271	TUSC3
1272	SNORA28
1273	LOC100128239
1274	PTK2B
1275	DAB2
1276	LOC100131366
1277	GATA2
1278	WNT10B
1279	C14ORF49
1280	HSA-MIR-1201
1281	IFITM3
1282	IFITM2
1283	IFITM1
1284	HPCAL1
1285	IFITM5
1286	C14ORF132
1287	REV3L
1288	 RAC1 
1289	HOGA1
1290	POU2AF1
1291	CSF1
1292	AZU1
1293	MRPL43
1294	KAL1
1295	IPW
1296	ERAP2
1297	NGF
1298	POU3F2
1299	EMR2
1300	ZNF695
1301	RRAS
1302	SLC44A3
1303	CNTN6
1304	CNTN4
1305	 NF1 
1306	LAMB2
1307	C2ORF50
1308	MPHOSPH8
1309	RUVBL1
1310	ZBTB7C
1311	U2AF1
1312	CTSG
1313	DDX51
1314	CDC42BPG
1315	CDC42BPA
1316	CDC42BPB
1317	BMX
1318	TXNRD1
1319	 KIT 
1320	BUB1
1321	MIR936
1322	CCDC162P
1323	CCDC6
1324	CCDC7
1325	SHH
1326	ADSSL1
1327	DYNC2H1
1328	PRKCB1
1329	EGLN3
1330	EGLN1
1331	PLA2G10
1332	MGP
1333	NSD1
1334	NUDCD2
1335	RPS6KB1
1336	LAG3
1337	SPRY2
1338	HSD17B11
1339	IFI27L1
1340	IFI27L2
1341	AS3MT
1342	DIRAS3
1343	HFE|HIST1H2AC|SLC17A2|TRIM38
1344	NDFIP1
1345	ZNF346
1346	OR8K1
1347	C14ORF119
1348	LOC100288637
1349	AIM1
1350	XG
1351	AIM2
1352	NUDT12
1353	HN1L
1354	NUDT14
1355	ZW10
1356	DICER1-AS1
1357	KEL
1358	RSRC2
1359	MIR626
1360	LOC285626
1361	LOC285627
1362	PARD3B
1363	LOC646278
1364	CPN1
1365	CECR5-AS1
1366	LOC285629
1367	PYHIN1
1368	LGI1
1369	 XIRP2 
1370	SNORD115-8
1371	DRG2
1372	HUMSPRMTK
1373	CASQ2
1374	LARP4B
1375	AURKA
1376	ANP32A-IT1
1377	TECPR2
1378	TITF1/NKX2-1
1379	HRASLS2
1380	DYNC1H1
1381	SIGLEC8
1382	ABI2
1383	NKTR
1384	OTP
1385	POU2F2
1386	POU2F3
1387	BPTF
1388	OR6C76
1389	SIVA1
1390	LRRC16B
1391	IL25
1392	IL24
1393	RNASET2
1394	PARC
1395	MIR651
1396	CAV2
1397	MIR656
1398	AXL
1399	MIR654
1400	SOX30
1401	TPD52
1402	IL12RB2
1403	CLINT1
1404	BRCA1
1405	BRCA2
1406	OR4N2
1407	TRMT61A
1408	SNORA17
1409	OR4N4
1410	AHRR
1411	NDOR1
1412	BUD13
1413	GCSAML
1414	OPCML
1415	ADCY4
1416	RBBP9
1417	TOR1AIP1
1418	ADCY1
1419	 NBPF1 
1420	KIF25
1421	RBBP7
1422	SECTM1
1423	TCF7L2
1424	BOK
1425	BMPR2
1426	RBX1
1427	GBF1
1428	ZBTB24
1429	C14ORF79
1430	PDLIM4
1431	MIR146B
1432	MIR146A
1433	HRAS
1434	XRCC3
1435	SKI
1436	XRCC4
1437	PDLIM1
1438	SMURF1
1439	DCAF12L2
1440	MIR431
1441	LIMCH1
1442	MEIS1
1443	SYT13
1444	 MAP2K1 
1445	RIC8A
1446	DENND2C
1447	TPX2
1448	MPP1
1449	DDO
1450	PAPD4
1451	PAPD5
1452	LAMC2
1453	LAMC1
1454	LOC100133920
1455	IL13RA1
1456	DENND2D
1457	GSTT1
1458	CST6
1459	CD274
1460	CSPG4
1461	LOC100144603
1462	PHF6
1463	PHF3
1464	PPP2R5C
1465	SH3YL1
1466	LCMT2
1467	YY1
1468	TCHP
1469	DDX31
1470	TCHH
1471	KCNA2
1472	KCNA3
1473	MIR3158-1
1474	BHMT
1475	JMJD5
1476	 ZNF620 
1477	LOC440896
1478	KDR
1479	RPS27
1480	RPS23
1481	RIMBP2
1482	NDN
1483	CCDC30
1484	PLA2G2A
1485	ATRX
1486	CHMP1A
1487	UCHL1
1488	RARRES3
1489	RARRES1
1490	COX7C
1491	GPSM1
1492	LOC653501
1493	HS3ST5
1494	CYFIP1
1495	CYFIP2
1496	CSAG2
1497	AIMP1
1498	KGFLP2
1499	KGFLP1
1500	SOD2
1501	SMARCA2
1502	PRDM4
1503	SIN3A
1504	FAM171B
1505	MLLT4
1506	SMARCA4
1507	MLLT6
1508	TERC
1509	MLLT1
1510	MLLT3
1511	CNTNAP3B
1512	LOC100128946
1513	ZYX
1514	TERT
1515	NBAS
1516	PRDM1
1517	ZNHIT6
1518	ZNF365
1519	OSR1
1520	GTPBP4
1521	GTPBP6
1522	PPP6R2
1523	NIF3L1
1524	 GATA3 
1525	HOMEZ
1526	TMBIM1
1527	PCDHA2
1528	CASP5
1529	LOC100505894
1530	DRD4
1531	DRD5
1532	DRD2
1533	CASP8
1534	DRD1
1535	BCL9
1536	BCL6
1537	BCL3
1538	BCL2
1539	PLK1
1540	MIR4634
1541	CDX2
1542	CLMN
1543	CDX4
1544	LRFN3
1545	AKT1
1546	NKX2-8
1547	AKT3
1548	LRFN5
1549	LRFN4
1550	NKX2-3
1551	NKX2-1
1552	NKX2-5
1553	NBPF9
1554	PKD1L2
1555	OAS1
1556	TMEM80
1557	MYC
1558	MYB
1559	ENTPD7
1560	GOLGA8IP
1561	ENTPD3
1562	LETM1
1563	DLEC1
1564	 C3orf70 
1565	SNAPC4
1566	ANKK1
1567	SERPINB5
1568	SMO
1569	PCGF3
1570	PCGF2
1571	 ITPKB 
1572	PCGF6
1573	ATP8B1
1574	 MTOR 
1575	LACE1
1576	STC2
1577	PXDN
1578	 ALPK2 
1579	 TXNDC8 
1580	MIR9-2
1581	DEK
1582	SNORD115-18
1583	 DNER 
1584	SNORD115-14
1585	SNORD115-15
1586	SNORD115-16
1587	SNORD115-17
1588	SNORD115-10
1589	PTGFRN
1590	SNORD115-13
1591	ASXL1
1592	TRIM51
1593	RAC1
1594	PAR5
1595	ZFP69B
1596	HSA-MIR-1268
1597	HTR2A
1598	 RPS2 
1599	HTR2C
1600	SRP19
1601	LINC00442
1602	DDX1
1603	SMC1A
1604	KLHL32
1605	SNORD113-9
1606	ODF4
1607	SNORD113-4
1608	SNORD113-5
1609	SNORD113-6
1610	SNORD113-7
1611	SNORD113-1
1612	SNORD113-2
1613	TRIM48
1614	TRIM45
1615	TRIM41
1616	TBPL1
1617	TMEFF1
1618	TMEFF2
1619	C9ORF7
1620	OR4M2
1621	OR4M1
1622	WNT5A
1623	C9ORF9
1624	NBPF12
1625	 TNFRSF14 
1626	MUTYH
1627	ACR
1628	ATP5I
1629	HNRNPH1
1630	DIO3OS
1631	ATP5B
1632	GNAI2
1633	GNAI3
1634	SNORD96A
1635	ATP5D
1636	GPR146
1637	GPR143
1638	MRPS31
1639	LOC90834
1640	SLC7A7
1641	MIR3156-3
1642	TBXA2R
1643	ZNF219
1644	PDSS2
1645	UNC13C
1646	PREP
1647	SNORD95
1648	MIR1324
1649	DEGS2
1650	CNTLN
1651	 PAPD5 
1652	WWOX
1653	RNH1
1654	OLFML3
1655	RPS15
1656	FOXG1
1657	VHL
1658	CNTNAP3
1659	CNTNAP2
1660	ODZ2
1661	OLC1/KIAA0174
1662	TXK
1663	CRABP1
1664	SLC9A3R1
1665	PLCXD1
1666	LSM11
1667	FLG
1668	TSSC4
1669	LOC202181
1670	TSSC1
1671	RRAGD
1672	NEDD8-MDP1
1673	GLIPR1
1674	BOK-AS1
1675	GOLGA8DP
1676	RXRA
1677	GGT5
1678	RASA1
1679	PTPRT
1680	NGFRAP1
1681	PTPRQ
1682	TINF2
1683	EZR
1684	PTPRG
1685	PTPRF
1686	LOC646214
1687	PTPRD
1688	PTPRC
1689	FAM101B
1690	PTPRM
1691	PTPRK
1692	PTPRJ
1693	RASSF10
1694	TSSK1B
1695	IFNAR2
1696	MIR4262
1697	MIR4261
1698	CYP46A1
1699	 SETD2 
1700	CXORF28
1701	YAP1
1702	WDR7
1703	WDR5
1704	DOC2B
1705	DIAPH1
1706	PWRN2
1707	RNASEH1
1708	DMP1
1709	ABLIM3
1710	ABLIM2
1711	GATA6
1712	GATA4
1713	 RHOA 
1714	GATA3
1715	LOC727982
1716	GATA1
1717	FAM172A
1718	POLR3G
1719	CCND1
1720	CCND2
1721	MIR4669
1722	CEP290
1723	HMGN5
1724	RPS27L
1725	ACVR1B
1726	SNORD114-25
1727	CHL1
1728	SNORD114-28
1729	SOX11
1730	SOX17
1731	ABCA5
1732	ISG15
1733	NTM
1734	PHF2P1
1735	SETD2 
1736	HMMR
1737	PDLIM7
1738	DPCD
1739	TEKT4P2
1740	SNORD115-20
1741	SNORD115-23
1742	SNORD115-22
1743	SNORD115-25
1744	SNORD115-24
1745	SNORD115-27
1746	SNORD115-26
1747	SNORD115-29
1748	SNORD115-28
1749	CBY3
1750	TNK2
1751	TNK1
1752	ZDHHC2
1753	ERLIN1
1754	GABRP
1755	NBEAL1
1756	KRT17
1757	WDR36
1758	CRIP1
1759	CRIP2
1760	 CDK4 
1761	GIGYF2
1762	NBPF8
1763	GABRR1
1764	GABRR2
1765	FGF8
1766	NAPEPLD
1767	NBPF1
1768	SPTA1
1769	LTB4R
1770	POLE
1771	HGSNAT
1772	TAF15
1773	SNORD108
1774	FH
1775	ALC1/CHD1L
1776	POLL
1777	POLK
1778	FGF5
1779	CDC6
1780	TRIM52
1781	CCNDBP1
1782	GET4
1783	OR4L1
1784	TM9SF1
1785	C2orf10
1786	CXADRP2
1787	LAMA4
1788	 ARID1A 
1789	NAT6
1790	 MUC17 
1791	NREP
1792	C5ORF58
1793	C11ORF53
1794	C11ORF52
1795	C5ORF54
1796	C11ORF57
1797	C5ORF52
1798	 EGFR 
1799	TAF1B
1800	GPR150
1801	SLC25A46
1802	HTR3B
1803	HTR3A
1804	TMEM8C
1805	PTPRS
1806	KCNC4
1807	TNFAIP6
1808	 ADNP 
1809	EI24
1810	PGM5P2
1811	KIAA2026
1812	NGFR
1813	MITF
1814	CPSF3
1815	LOC257358
1816	QKI
1817	MAD1L1
1818	OR11G2
1819	MAB21L3
1820	TOX4
1821	AFM
1822	ZNF645
1823	HSD17B7
1824	ALDH3B2
1825	TTLL7
1826	EPS15
1827	APC 
1828	TTLL9
1829	ABO
1830	RB1|P2RY5
1831	SUFU
1832	APC2
1833	PRMT5
1834	SLC35F2
1835	 CARD11 
1836	FLRT3
1837	IER2
1838	MBD4
1839	MBD6
1840	CYB561D2
1841	1-Dec
1842	CMTM5
1843	COL11A1
1844	TSPAN13
1845	TSPAN15
1846	TSPAN17
1847	REXO2
1848	ARAF
1849	REXO4
1850	SLC25A13
1851	ROS1
1852	CHRFAM7A
1853	LOC100133161
1854	TUBA3C
1855	 INPPL1 
1856	POPDC3
1857	NDUFA10
1858	NDUFA13
1859	CCDC18
1860	METTL7A
1861	MIR320B1
1862	TEP1
1863	 BCLAF1 
1864	SCGB1C1
1865	EYS
1866	LPL
1867	AK124082
1868	MIR4273
1869	HTATIP2
1870	LPA
1871	SYNCRIP
1872	LOC100131067
1873	MIR154
1874	ALG9
1875	MBLAC2
1876	MBLAC1
1877	OR5K4
1878	 STX2 
1879	WIF1
1880	RNGTT
1881	SHPRH
1882	ITGB4
1883	MIR4674
1884	KIAA1324L
1885	MIR4673
1886	CCNE2
1887	CCNE1
1888	MAGEL2
1889	CHMP2A
1890	FIG4
1891	CLDN3
1892	AKR7A2P1
1893	RASGEF1C
1894	CSK
1895	JAM3
1896	MRAS
1897	PLEKHS1
1898	SMYD4
1899	GALNT9
1900	SMYD3
1901	 BRCA1 
1902	GALNT2
1903	IRF3
1904	IRF2
1905	IRF1
1906	IRF7
1907	IRF4
1908	IRF9
1909	IRF8
1910	ABR
1911	LY75
1912	INADL
1913	ST8SIA4
1914	PDX1
1915	CLK4
1916	SNX25
1917	LRRN6C
1918	LRRN6A
1919	CD70
1920	LRRN6D
1921	CLOCK
1922	GPER
1923	ZFHX4
1924	ONECUT1
1925	ZFHX3
1926	ZFHX2
1927	SNORD115-36
1928	SNORD115-37
1929	SNORD115-34
1930	SNORD115-35
1931	SNORD115-32
1932	SNORD115-33
1933	SNORD115-30
1934	CBX8
1935	PANX2
1936	SNORD115-38
1937	SNORD115-39
1938	NLRP5
1939	NLRP6
1940	ZBTB17
1941	ZBTB16
1942	MIR758
1943	MIR206
1944	ZBTB18
1945	MIR203
1946	ADAP1
1947	WDR25
1948	WDR20
1949	LYST
1950	RAB17
1951	LYSMD3
1952	ACVR2A
1953	LINC00869
1954	SP140
1955	NAGLU
1956	ASCL1
1957	DAB2IP
1958	MTOR
1959	CD101
1960	OMG
1961	KIF1A
1962	KIF1B
1963	ZFP36
1964	ATHL1
1965	CNBD1
1966	ERCC2
1967	SLU7
1968	LOC100287722
1969	C5ORF45
1970	C11ORF65
1971	C5ORF41
1972	TRDN
1973	SERTAD1
1974	LOXL2
1975	ARAP3
1976	SNHG10
1977	ZSCAN1
1978	BID
1979	 ZNF750 
1980	GIN1
1981	KCND3
1982	SNURF
1983	 ING1 
1984	MFSD7
1985	SLN
1986	MIRLET7A1
1987	MIRLET7A2
1988	SLK
1989	CIDEB
1990	MCC
1991	NOTCH1
1992	NOTCH2
1993	NOTCH3
1994	ZNF658
1995	DEFB126
1996	CACNG2
1997	CTTNBP2NL
1998	FGFRL1
1999	PPM1L
2000	CRLF2
2001	CASP8AP2
2002	GPR6
2003	RAPGEF6
2004	APOC3
2005	RANBP17
2006	ZNF354A
2007	ZNF382
2008	ZNF354C
2009	ZNF354B
2010	BHLHE41
2011	PARK7
2012	 FRMD7 
2013	ZNF479
2014	MAGI3
2015	 SPEN 
2016	ZNF471
2017	ZNF470
2018	DMTF1
2019	GUSB
2020	NGEF
2021	CKS1/CKS1B
2022	SLC25A28
2023	SLC25A29
2024	MDM4
2025	LOC100132352
2026	CPB2
2027	KIT
2028	FOXA1
2029	TPTE2
2030	KPNA5
2031	FOXA2
2032	PKP3
2033	KDELC2
2034	 NPM1 
2035	TNFRSF14
2036	CRK
2037	LOC619207
2038	AuroraA/AURKA
2039	RTN4IP1
2040	SNORA80B
2041	 TBX3 
2042	B4GALT7
2043	FCN2
2044	FCN1
2045	BECN1
2046	TRRAP
2047	 GNA13 
2048	MGC23270
2049	C9ORF116
2050	MIR4643
2051	 KEL 
2052	VWA5A
2053	FAM174A
2054	ZNF583
2055	RPAP1
2056	SPRN
2057	 MPO 
2058	ATP6AP1L
2059	OXA1L
2060	TINAGL1
2061	ZNF589
2062	LOC100506343
2063	MAGEC2
2064	ZNF588
2065	ARNTL2
2066	ADIPOR2
2067	MIR381
2068	SNX10
2069	 XPO1 
2070	SLC12A6
2071	ICAM3
2072	MARK1
2073	MARK3
2074	LINC00290
2075	RPPH1
2076	CTDSPL
2077	CD63
2078	PDYN
2079	TPD52L1
2080	"** The number of samples with any subtle mutation (single base substitution, insertion or deletion <100 bp), in the COSMIC database."
2081	EBNA1BP2
2082	SGK1
2083	MIR211
2084	MIR210
2085	MIR217
2086	MIR215
2087	TBC1D9B
2088	OR4K14
2089	OR4K17
2090	TMTC4
2091	OR4K13
2092	CDH11
2093	PPP2R1A
2094	MAP4K3
2095	MAP4K4
2096	CDH18
2097	TIMM9
2098	OR4A15
2099	C10ORF28
2100	USP9X
2101	GPD1
2102	ZMYND10
2103	ZMYND11
2104	NOC4L
2105	C10ORF26
2106	MIR208A
2107	DKFZP434A062
2108	MIR208B
2109	NEFH
2110	GAK
2111	NRG1
2112	NRG3
2113	LOC100129345
2114	WNT2B
2115	ACIN1
2116	HSPB2
2117	C11ORF71
2118	RHOBTB2
2119	RHOBTB3
2120	 HLA-A 
2121	MIR4508
2122	SERPINA6
2123	C1ORF88
2124	CYC1
2125	 IPO7 
2126	NCRUPAR
2127	HTR1E
2128	C14ORF180
2129	BCL2L1
2130	BCL2L2
2131	ERBB2IP
2132	 ZRANB3 
2133	NRAS
2134	 MORC4 
2135	AGBL4
2136	SCO2
2137	 KLHL8 
2138	 KEAP1 
2139	SPINT2
2140	LOC643648
2141	ITSN2
2142	LIG1
2143	BDP1
2144	RNMTL1
2145	FNTA
2146	SCAMP1
2147	FAM84A
2148	RTL1
2149	TSPAN2
2150	NXN
2151	FAM193B
2152	ZNF446
2153	MIR200B
2154	BARHL1
2155	MIR1287
2156	MIR548H3
2157	IXL/MED29
2158	RPS5
2159	PPIP5K2
2160	L3MBTL4
2161	RPS3
2162	CINP
2163	SNORD116-19
2164	H6PD
2165	SLC25A37
2166	VDAC2
2167	LOC642236
2168	APBA2
2169	TRABD
2170	THBS4
2171	LOC653075
2172	IGSF10
2173	THBS1
2174	TMEM180
2175	 GOT1 
2176	 RAB40A 
2177	FAM102A
2178	MIR4256
2179	DHRS4L2
2180	STAG2
2181	DSTN
2182	NPHS1
2183	ASMTL
2184	ZNF324B
2185	TAF5
2186	TAF1
2187	AP1G2
2188	G6PD
2189	TSPAN32
2190	DCAF4L2
2191	LINC00299
2192	SDR39U1
2193	 EZR 
2194	RAD51L1
2195	CCNG1
2196	OBFC1
2197	GON4L
2198	ABL1
2199	ABL2
2200	FUS
2201	TMED9
2202	CRELD2
2203	PACS2
2204	PDCD4
2205	HNRNPC
2206	HNRNPD
2207	GLB1L2
2208	PDCD1
2209	HOOK3-RET fusion protein
2210	HDLBP
2211	HMGA2
2212	XKR3
2213	VPS26B
2214	GADD45G
2215	LINC00263
2216	HSP90AA1
2217	CIC
2218	CD53
2219	RAB39A
2220	ZNF324
2221	CD58
2222	IL12B
2223	CIT
2224	COL4A3BP
2225	UGT1A6
2226	AJUBA
2227	C14ORF21
2228	RAB32
2229	C14ORF23
2230	MIR770
2231	THPO
2232	DOK2
2233	WWTR1
2234	LRP1B
2235	DOK1
2236	MTA1
2237	ZBTB45
2238	LRP10
2239	 RAD21 
2240	CLASP1
2241	PDIA6
2242	MIR124-2
2243	MIR124-3
2244	SCCRO/DCUN1D1
2245	GPC3
2246	GPC5
2247	MIR485
2248	YPEL1
2249	DACH2
2250	ARMC2
2251	 SGK1 
2252	POU6F2
2253	ASMT
2254	CD164
2255	KDM8
2256	SPATA9
2257	SPATA3
2258	 MLL3 
2259	SPATA7
2260	C2orf40
2261	CD5L
2262	SSPN
2263	ELANE
2264	 POLE 
2265	C5ORF60
2266	LOC100130872
2267	TIMELESS
2268	NIPA1
2269	HSPA8
2270	ZDHHC17
2271	 MAP3K1 
2272	LIFR
2273	FAM190A
2274	PDCD11
2275	HKDC1
2276	PIK3CA
2277	SNORD109B
2278	IRX1
2279	PAR-SN
2280	MUC1
2281	PPP2R2A
2282	MUC6
2283	KCNF1
2284	MUC4
2285	CEP89
2286	MEG3
2287	PIK3C3
2288	MEG8
2289	KCNJ5
2290	ZNF671
2291	MAX
2292	 CDKN2A 
2293	ANP32D
2294	ZNF679
2295	MAF
2296	CTBP1
2297	CTBP2
2298	MAL
2299	TSG101
2300	EIF2AK2
2301	EVL
2302	FAM158A
2303	OR5D18
2304	GTF3C6
2305	GTF3C5
2306	GTF3C4
2307	APOA4
2308	APOA5
2309	APOA1
2310	XPO1
2311	CSDE1
2312	ZNF454
2313	BACH2
2314	TTK
2315	GMDS
2316	TTN
2317	MIR181B2
2318	KCNIP2
2319	KCNIP1
2320	FAM123B
2321	PRSS50
2322	MIR181B1
2323	LIN28B
2324	LIN28A
2325	HMCN1
2326	RPS6KA1
2327	RPS6KA2
2328	RPS6KA3
2329	RPS6KA6
2330	ATAD5
2331	TOP1
2332	ATAD2
2333	FRAT1
2334	FRAT2
2335	SIGIRR
2336	RTFDC1
2337	FOXC1
2338	SESN1
2339	OR6A2
2340	SHROOM2
2341	NPHP1
2342	MIOX
2343	 FAT1 
2344	ARF1
2345	ARF6
2346	ELMSAN1
2347	RGPD3
2348	COX19
2349	PQLC3
2350	PQLC1
2351	BDKRB1
2352	BDKRB2
2353	CD99
2354	 ZNF471 
2355	AGGF1
2356	IFIH1
2357	EEF1A1
2358	EEF1A2
2359	ARL11
2360	ARL10
2361	RAB2B
2362	KIAA0125
2363	 PPP2R1A 
2364	LOX
2365	KIF4B
2366	CLIP1
2367	SLIT3
2368	SLIT2
2369	CLIP4
2370	HOMER1
2371	 SMARCB1 
2372	CD44
2373	CD47
2374	 GUSB 
2375	LINC00094
2376	FGFR1OP
2377	THAP1
2378	RAB23
2379	THAP4
2380	RAB25
2381	CALR
2382	ACTR1A
2383	EWSR1
2384	WDR77
2385	 DIAPH1 
2386	TRIM13
2387	LOC442421
2388	AHCTF1
2389	MCF2
2390	NQO1
2391	MIR493
2392	MIR495
2393	CHI3L2
2394	LOC572558
2395	CYP4F2
2396	ASB2
2397	ATP5SL
2398	 MLL2 
2399	 BAP1 
2400	ZFP62
2401	LOC728012
2402	RINT1
2403	LOC283710
2404	ARRDC3
2405	KHNYN
2406	PDE8B
2407	DBH
2408	 CCDC120 
2409	CDON
2410	ELK1
2411	LSAMP
2412	MIR543
2413	PAK1
2414	MIR541
2415	MIR2392
2416	MIR942
2417	SERINC5
2418	KCNG2
2419	SNORD115-31
2420	MED7
2421	OR4C15
2422	PFN1P2
2423	ZNF605
2424	GABRA1
2425	MFSD2A
2426	 IRF4 
2427	DMBT1
2428	EMP1
2429	PRKG1
2430	LCN10
2431	CAMTA1
2432	TNS3
2433	TRAF3IP2
2434	AKR1C3
2435	ENC1
2436	TCF4
2437	BVES
2438	ARID2
2439	 RASA1 
2440	EPS8L3
2441	LOC643923
2442	LOC400940
2443	 POU2F2 
2444	AZGP1
2445	SLC22A15
2446	CALML4
2447	COX18
2448	PFN1
2449	PFN3
2450	GAS1
2451	TRIM3
2452	GAS5
2453	COX15
2454	BTK
2455	MDN1
2456	PDGFRB
2457	PDGFRA
2458	AMPD2
2459	AMPD1
2460	UGT2A3
2461	PDGFRL
2462	PITX3
2463	OR2L13
2464	MCTP1
2465	MMP11
2466	C6ORF203
2467	OR2Y1
2468	CSF1R
2469	LOC100507387
2470	TPM1
2471	TNFSF8
2472	CDKN1B
2473	FBXW4
2474	TNFRSF6B
2475	FBXW7
2476	TGFBR3
2477	TGFBR2
2478	ETFB
2479	SMNDC1
2480	TET2
2481	HSA-MIR-3133
2482	TJP2
2483	TJP3
2484	TJP1
2485	ANKRD20A9P
2486	SNORD64
2487	 POU2AF1 
2488	PPP1CA
2489	PPAT
2490	LINC00461
2491	SH3PXD2B
2492	F2RL2
2493	F2RL1
2494	SH3PXD2A
2495	ST6GAL2
2496	DHDH
2497	 TRAF3 
2498	SMARCA1
2499	MIR3545
2500	MIR181C
2501	MIR196B
2502	MIR4638
2503	AXIN2
2504	AXIN1
2505	MIR376C
2506	MIR376B
2507	GOLGA6L6
2508	FYN
2509	GOLGA6L1
2510	MIR98
2511	MDS/ETV1
2512	KANK2
2513	PAF1
2514	FLJ35946
2515	RUFY1
2516	RUFY3
2517	KANK1
2518	PPP1R1B
2519	SKIL
2520	NBPF10
2521	PAPOLA
2522	DPH1
2523	CALCR
2524	SCGB3A1
2525	HAVCR2
2526	ZFY
2527	CKB
2528	IFI27
2529	TXNDC8
2530	POLR3B
2531	TXNDC2
2532	PAM
2533	TOPORS
2534	LIX1
2535	LINC00421
2536	DNMT1
2537	THRB
2538	DCC
2539	THRA
2540	PERP
2541	DCX
2542	CUL5
2543	DCT
2544	CUL7
2545	WDR66
2546	CUL1
2547	CUL2
2548	CUL3
2549	TRIM28
2550	TRIM24
2551	TRIM27
2552	CDH24
2553	SLC25A6
2554	SLC25A5
2555	TRIM23
2556	PER3
2557	PER1
2558	C10ORF76
2559	HMGCR
2560	C10ORF32
2561	ITK
2562	LOC339822
2563	HSA-MIR-571
2564	F2R
2565	ULK4P1
2566	eIF-A2/EIF5A2
2567	ULK4P3
2568	AKR1B1
2569	PNRC1
2570	PWWP2A
2571	MROH2B
2572	HSPG2
2573	NTSR2
2574	LARGE
2575	CD209
2576	SEC16A
2577	TDRD10
2578	FAM196B
2579	 SLC1A3 
2580	USP45
2581	ADAMTS2
2582	SHOC2
2583	MIR539
2584	PPP6C
2585	CANX
2586	DNMBP-AS1
2587	CDK11B
2588	AMIGO1
2589	MRPL4
2590	 CREBBP 
2591	ZNF615
2592	 AXIN2 
2593	ACAD8
2594	CYP2E1
2595	MOK
2596	EDDM3A
2597	EDDM3B
2598	BAG4
2599	BAG5
2600	CTDP1
2601	RPS7
2602	LOC503519
2603	PLCE1
2604	RPS2
2605	ADAMTS18
2606	NTRK3
2607	CD79B
2608	CD79A
2609	SLC52A1
2610	SLC34A1
2611	DEF6
2612	GMFG
2613	CBLN3
2614	ZNF385D
2615	PPBP
2616	 RHEB 
2617	SLC6A17
2618	SNORD50A
2619	SNORD50B
2620	USP7
2621	ARHGAP29
2622	 ANK3 
2623	RPSA
2624	CKMT2
2625	SCARNA13
2626	RFPL4B
2627	BAGE
2628	SCARNA18
2629	MIR4281
2630	MIR4280
2631	ZNF876P
2632	ALDH1A2
2633	PRICKLE1
2634	C5ORF47
2635	CCNJL
2636	PCYOX1
2637	LOC100288814
2638	LOC285593
2639	SLC16A10
2640	RGS2
2641	ATG5
2642	SPINK7
2643	SPINK5
2644	SMARCB1
2645	CALHM3
2646	CALHM2
2647	TDRD7
2648	LOC727924
2649	SERTAD2
2650	ZUFSP
2651	LOXL4
2652	ARAP2
2653	MZF1
2654	CEBPD
2655	RDH14
2656	RALGAPB
2657	FAM26F
2658	FAM26D
2659	FAM26E
2660	HAVCR1
2661	FAM178A
2662	EPB41L4A-AS1
2663	PRR5
2664	DMGDH
2665	CREBL2
2666	MAFA
2667	MAFB
2668	CDK2AP1
2669	CDK2AP2
2670	MAFG
2671	 GNPTAB 
2672	PALM2-AKAP2
2673	MED12
2674	AK091795
2675	PTP4A1
2676	ZSCAN22
2677	TDRD9
2678	TDRD1
2679	CD27
2680	MRPS2
2681	CD24
2682	LOC282997
2683	ABHD4
2684	KRAS
2685	ADAM6
2686	BMP1
2687	ARPC1A
2688	EGFL7
2689	EGFL6
2690	FAT1
2691	GRB7
2692	FAT4
2693	HTR5A
2694	TRIM33
2695	TRIM32
2696	RPL5
2697	TRIM37
2698	TRIM35
2699	HOXC6
2700	 STK19 
2701	C10ORF62
2702	LOC283624
2703	OR4F3
2704	 HLA-B 
2705	WISP2
2706	WISP3
2707	WISP1
2708	SCT
2709	HTRA3
2710	RCN2
2711	NEDD9
2712	C11ORF35
2713	MN1
2714	C5ORF30
2715	WARS
2716	ANKRD26
2717	RHOH
2718	POLR2B
2719	ACO1
2720	RHOB
2721	RHOA
2722	SUV420H2
2723	TNIK
2724	CCNH
2725	FAM47A
2726	PRODH
2727	ITM2B
2728	ASCC3
2729	BATF3
2730	CCNK
2731	FAM120A
2732	 PRDM1 
2733	PYROXD2
2734	OR4F29
2735	 KDM6A 
2736	MAPK11
2737	MAPK12
2738	HPGD
2739	SNORD114-9
2740	SNORD114-8
2741	FZD7
2742	SNORD114-3
2743	SNORD114-2
2744	SNORD114-1
2745	ZNF620
2746	SNORD114-6
2747	SNORD114-5
2748	CTNNA1
2749	NEURL1
2750	APAF1
2751	 LCTL 
2752	FLJ44511
2753	BAI2
2754	PLCD1
2755	HIST1H1E
2756	ADK
2757	ANKRD20A11P
2758	KLK10
2759	RASGRF2
2760	TACC1
2761	TACC2
2762	TACC3
2763	JDP2
2764	KIF20B
2765	TMEM232
2766	GNMT
2767	KALRN
2768	JUNB
2769	JUND
2770	OR5AU1
2771	GNAT2
2772	C6ORF225
2773	BCL2L15
2774	ESCO1
2775	LOC729678
2776	FAM27A
2777	OR4N3P
2778	FAM27B
2779	MSX2
2780	SNORD8
2781	ZNF559
2782	TRAF2
2783	TRAF3
2784	TRAF7
2785	SHOX
2786	TMPRSS5
2787	CYGB
2788	TSC2
2789	KAT6B
2790	MIR4776-1
2791	RPL26L1
2792	PCDH1
2793	CHD9
2794	SCD
2795	2-Sep
2796	MUSK
2797	MOV10
2798	RYK
2799	PPAP2A
2800	BUB1B
2801	C9ORF163
2802	PSPC1
2803	CAP2
2804	BPIFB4
2805	PMAIP1
2806	LHX1
2807	LHX2
2808	LHX3
2809	BLOC1S2
2810	LHX6
2811	MIR655
2812	COMMD1
2813	PPP2R4
2814	 TPX2 
2815	METTL17
2816	ZMYM6
2817	ZMYM4
2818	ZMYM5
2819	CSF3R
2820	OCA2
2821	CYP3A4
2822	RSU1
2823	UBE4B
2824	 SPOP 
2825	KAZALD1
2826	LINC00229
2827	RNASE10
2828	RNASE13
2829	RNASE12
2830	 CTCF 
2831	LINC00226
2832	LINC00221
2833	LINC00222
2834	SLC30A9
2835	CD1D
2836	CD1E
2837	ANO9
2838	CD1A
2839	NRSN2
2840	ANO7
2841	GOLGA7B
2842	C14ORF2
2843	WDR41
2844	FAM46C
2845	UACA
2846	JAK2
2847	JAK3
2848	ZIC1
2849	GRM6
2850	GRM3
2851	GUCY2C
2852	SENP8
2853	SENP7
2854	CHUK
2855	RPS8
2856	LOC283683
2857	ING4
2858	ING5
2859	ING1
2860	ING2
2861	ING3
2862	 MLL 
2863	 TCEB1 
2864	OR4E2
2865	GFPT2
2866	HSA-MIR-548F-3
2867	HSA-MIR-548F-5
2868	RBM7
2869	MIR192
2870	TPI1P3
2871	MIR195
2872	MIR197
2873	PPP2R3B-AS1
2874	SDCCAG3
2875	CCT8L2
2876	PRKDC
2877	RHOC
2878	MKRN3
2879	DYRK2
2880	FTHL17
2881	ANKRD31
2882	ANKRD32
2883	RBM3
2884	GLS
2885	RGMB
2886	AKR7A2
2887	LHFPL2
2888	NCOA2
2889	NCOA3
2890	NCOA4
2891	FAM74A4
2892	TMEM18
2893	FAM74A1
2894	FAM74A3
2895	 CCDC6 
2896	ELL2
2897	KIF21A
2898	RIMS2
2899	KIF21B
2900	 U2AF1 
2901	RIF1
2902	ST7L
2903	USMG5
2904	FAM201A
2905	PRAM1
2906	LRIG2
2907	CYP2C9
2908	ZNF639
2909	AK8
2910	TBCC
2911	TBCA
2912	ANKRD20A3
2913	MME
2914	SMARCAD1
2915	EBI3
2916	PRKD2
2917	PRKD3
2918	CTTN
2919	DHFR
2920	GEN1
2921	ZNF497
2922	ERF
2923	ERG
2924	HAND1
2925	EIF2S2
2926	C6ORF186
2927	IGSF4C
2928	IGSF4B
2929	IGSF4D
2930	LPIN1
2931	CELP
2932	KLF6
2933	KLF5
2934	KLF4
2935	 MXRA5 
2936	NDNL2
2937	MTRNR2L2
2938	N4BP3
2939	EXTL3
2940	HEATR2
2941	MCTS1
2942	NLGN4X
2943	TPH1
2944	SFSWAP
2945	KLHDC7B
2946	C10ORF32-AS3MT
2947	 SF3B1 
2948	MEX3C
2949	MGC2752
2950	KLRK1
2951	 TET2 
2952	lincRNA-p21
2953	MAP3K11
2954	MAP3K13
2955	ADNP2
2956	WHAMMP2
2957	LOC653061
2958	SLC1A3
2959	FRYL
2960	RSPH4A
2961	 IL7R 
2962	MIR329-2
2963	MIR329-1
2964	IKBKB
2965	MDM2
2966	RARA
2967	 ARID5B 
2968	RARB
2969	FAM163B
2970	DHRS4
2971	DHRS2
2972	POTEM
2973	DHRS1
2974	RARS
2975	MTMR4
2976	JAKMIP2
2977	DHRSX
2978	TSC22D1
2979	LOC389906
2980	CXCR4
2981	POTEG
2982	TPR
2983	LOC200772
2984	SNORD126
2985	PTTG1IP
2986	C11ORF1
2987	 CHD4 
2988	SLC2A8
2989	HIGD2A
2990	DIXDC1
2991	PLAGL2
2992	PLAGL1
2993	MIR3977
2994	 MICALCL 
2995	EXOSC9
2996	CCAR1
2997	RESDA1
2998	MTDH
2999	ADAMTSL2
3000	LINC00239
3001	CEACAM1
3002	CEACAM7
3003	LOC100288346
3004	FARP2
3005	MYO5C
3006	PGCP1
3007	BTG4
3008	F12
3009	LOC100506054
3010	TBC1D31
3011	TBC1D32
3012	SARDH
3013	EEF1E1
3014	CREBBP
3015	SERPINA12
3016	SERPINA13
3017	SERPINA10
3018	SERPINA11
3019	PSMB11
3020	PAOX
3021	SNORD114-7
3022	RCOR1
3023	FAM81B
3024	STXBP6
3025	FLT4
3026	ANKRD30BP2
3027	INF2
3028	FLT1
3029	OSTM1
3030	SET
3031	SKP2
3032	HSA-MIR-544
3033	OR4D5
3034	FANCG
3035	FANCC
3036	SEA
3037	HNRNPAB
3038	HAS1
3039	PSEN1|NUMB|RBM25|PAPLN
3040	GMCL1P1
3041	COL25A1
3042	MIR185
3043	C1ORF162
3044	FRS3
3045	S100PBP
3046	LOC283143
3047	VPS53
3048	CDK2
3049	CDK3
3050	CDK4
3051	CDK6
3052	CDK7
3053	HAPLN1
3054	HOXA9
3055	AMOTL2
3056	LCN1
3057	NEURL
3058	FAM188A
3059	CEP55
3060	LCN9
3061	SPECC1
3062	CYP17A1
3063	ALOX15
3064	PRKX
3065	RERE
3066	ELAC1
3067	INPPL1
3068	DDHD1
3069	SUN1
3070	ADCK3
3071	SUPT3H
3072	MTX3
3073	NFKBIL2
3074	DNAJC11
3075	LOC728723
3076	TGFB3|TTLL5|MGC16028
3077	AMD1
3078	PRKCI
3079	PRKCH
3080	LIAS
3081	SUPT16H
3082	ATP10A
3083	ATP10B
3084	PRKCB
3085	PRKCE
3086	PRKCD
3087	PRKCG
3088	HIST1H3B
3089	PRKCZ
3090	RER1
3091	MIR1229
3092	LMAN2
3093	PRKCQ
3094	MIR1226
3095	SCML4
3096	CLDN23
3097	NRL
3098	AK124271
3099	ACKR3
3100	SCRIB
3101	TYMS
3102	TYMP
3103	 SFRS2 
3104	ADD3
3105	PPP4R4
3106	PPP4R2
3107	GPER1
3108	C10orf90
3109	 CD1D 
3110	PKD2L1
3111	MAP3K8
3112	MAP3K9
3113	CCDC99
3114	SLCO6A1
3115	MAP3K1
3116	DEAF1
3117	MAP3K7
3118	MAP3K5
3119	MARVELD1
3120	NUP214
3121	TPGS2
3122	TRPV6
3123	LOC100132078
3124	SETDB1
3125	LOC100505761
3126	SPOP 
3127	ZNF202
3128	HSA-MIR-3171
3129	IDH2
3130	IDH1
3131	LOC100505839
3132	POSTN
3133	CTSZ
3134	RPL10
3135	SETD3
3136	SETD2
3137	FGFR2
3138	FGFR3
3139	FGFR1
3140	CXCL1
3141	XAF1
3142	TRPM7
3143	SOS1
3144	SYK
3145	PRAMEF11
3146	LXN
3147	SURF6
3148	PKD1
3149	 OR52N1 
3150	DUX4
3151	DUX2
3152	SPRNP1
3153	AP2S1
3154	 MGA 
3155	KRTAP4-1
3156	AFF4
3157	AFF3
3158	AFF1
3159	CARD9
3160	CARD6
3161	NOLC1
3162	HMP19
3163	UBA6
3164	PSMB5
3165	DNER
3166	ABCA10
3167	HERC1
3168	TP53
3169	PALB2
3170	CDHR3
3171	CDHR5
3172	CCSER1
3173	MIR7-1
3174	 IDH1 
3175	 ACO1 
3176	FLJ34503
3177	SIK1
3178	SIK3
3179	SIK2
3180	KRT84
3181	BMP2K
3182	MTG1
3183	MIR3607
3184	SALL4
3185	GPR63
3186	SALL3
3187	SALL2
3188	WAS
3189	GPR68
3190	FAM171A1
3191	CYP1A1
3192	TBL1XR1
3193	SNRK
3194	FARSB
3195	CUTC
3196	EIF1
3197	BIRC5
3198	JARID2
3199	EIF5
3200	EFCAB9
3201	TXNL4A
3202	RB1CC1
3203	ANKRD12
3204	 FBXW7 
3205	MIR26A1
3206	MIR26A2
3207	NT5C1B
3208	DPP4
3209	NT5C2
3210	DPP6
3211	SNORD115-6
3212	SNORD115-7
3213	SNORD115-4
3214	SNORD115-5
3215	SNORD115-2
3216	SNORD115-3
3217	SNORD115-1
3218	GLTSCR1
3219	GLTSCR2
3220	SNORD115-9
3221	KRTAP4-11
3222	LOC100133050
3223	SNORD24
3224	NOC3L
3225	ANO10
3226	HBP1
3227	TMEM167A
3228	CRIM1
3229	MIR203A
3230	SP100
3231	TIMP3
3232	TIMP1
3233	NRCAM
3234	PARN
3235	MCF2L2
3236	MFHAS1
3237	DHX16
3238	PI4K2A
3239	PAFAH1B1
3240	FAM27C
3241	SYCE1
3242	SYCE3
3243	MIR3158-2
3244	LYN
3245	GOT1
3246	RNASEL
3247	RNASE1
3248	RNASE3
3249	RNASE2
3250	RNASE4
3251	RNASE7
3252	RNASE6
3253	RNASE9
3254	RNASE8
3255	NACC2
3256	BRINP3
3257	BRSK1
3258	ROBO1
3259	ROBO2
3260	FBXL4
3261	CDC7
3262	DDX5
3263	DDX6
3264	PAR4
3265	LOC100132062
3266	PAR1
3267	TLR5
3268	SNORD9
3269	C5ORF4
3270	ZNF217
3271	CCR6
3272	SLC7A8
3273	HLA-B
3274	HLA-A
3275	NFKBIA
3276	HLA-G
3277	PDZRN4
3278	NOX4
3279	ARID4A
3280	ARID4B
3281	FAM75A1
3282	FAM75A2
3283	FAM75A3
3284	FAM75A4
3285	FAM75A5
3286	FAM75A6
3287	FAM75A7
3288	AMER1
3289	HAUS4
3290	UBE3A
3291	MIAT
3292	TFE3
3293	RPGRIP1
3294	CYLD
3295	MYD88
3296	TOP2A
3297	KIAA0368
3298	SLC26A1
3299	SLC26A3
3300	SNORD107
3301	SLC26A7
3302	SLC26A8
3303	FGF6
3304	TPTEP1
3305	FGF4
3306	FGF3
3307	FGF2
3308	OLFML2A
3309	HCRTR2
3310	VAV1
3311	GLOD4
3312	VAV3
3313	VAV2
3314	TNFAIP3
3315	TNFAIP2
3316	ELOVL3
3317	IPO7
3318	IPO4
3319	 TAP1 
3320	DEFB1
3321	ERAP1
3322	CWF19L1
3323	CWF19L2
3324	TP63
3325	RAB8A
3326	NR6A1
3327	NAA25
3328	SGCD
3329	DUSP5
3330	FOSL1
3331	DUSP6
3332	DUSP1
3333	DUSP3
3334	ICAM2
3335	GBGT1
3336	RBL1
3337	ELL
3338	RDX
3339	CRHBP
3340	ANKRD34B
3341	KPRP
3342	MIR4429
3343	WDR96
3344	CTDSP2
3345	TBC1D12
3346	CSE1L
3347	TRIB1
3348	 CDC27 
3349	NUMA1
3350	HSPA1A
3351	BMP10
3352	PF4
3353	BNIP3L
3354	MIR101-2
3355	MIR101-1
3356	MAP2K4
3357	CMPK2
3358	DGKQ
3359	C8orf4
3360	RFTN1
3361	MIR200A
3362	MIR200C
3363	AACSP1
3364	UFL1
3365	RAD21
3366	ZASC1/ZNF639
3367	 CHD8 
3368	USP12
3369	USP13
3370	NR2E1
3371	SSBP2
3372	NPM1
3373	BCL10
3374	NPM3
3375	 IDH2 
3376	GFI1
3377	TXNDC15
3378	MXI1
3379	PDE2A
3380	BHLHA9
3381	AHNAK2
3382	XGPY2
3383	MIR1185-1
3384	MIR1185-2
3385	CRKL
3386	MEN1
3387	SNORD114-13
3388	CXXC11
3389	JPH4
3390	UBAC1
3391	TYK2
3392	GABRB2
3393	SEMA4G
3394	OTUD7A
3395	SNORD114-10
3396	BOD1
3397	CALHM1
3398	MIR585
3399	SLC9C2
3400	BRS3
3401	ARHGEF10
3402	ARHGEF11
3403	ARHGEF12
3404	ARHGEF17
3405	CRTAC1
3406	SCCPDH
3407	COL23A1
3408	 FOXA1 
3409	RNU5E-1
3410	MIR4509-2
3411	CNDP1
3412	MIR4509-1
3413	SBF1
3414	SHCA/SHC1
3415	 CUL4B 
3416	D2HGDH
3417	CCDC147
3418	AHR
3419	GADD45GIP1
3420	MIR300
3421	RFP2
3422	COLEC11
3423	KLC1
3424	MIR376A2
3425	MIR376A1
3426	FBXW11
3427	QSOX2
3428	PDS5B
3429	TSTD2
3430	C9ORF69
3431	OR4K15
3432	RPL7A
3433	tpr/met fusion
3434	LCTL
3435	MST1
3436	RSBN1L
3437	MIR613
3438	ZNF516
3439	HNMT
3440	TSPYL4
3441	TSPYL1
3442	SMARCB1 
3443	RPH3AL
3444	KCNQ5
3445	SMG7
3446	VEGFA
3447	SLC39A1
3448	SLC39A2
3449	BNIP1
3450	XIRP2
3451	MIR29B1
3452	GZMB
3453	GZMH
3454	MAP4K1
3455	MYH15
3456	LOC646862
3457	PPP2R1B
3458	RET
3459	MIR4309
3460	AKAP12
3461	AKAP13
3462	REL
3463	BLVRB
3464	MIR4301
3465	COL2A1
3466	HTRA1
3467	HTRA2
3468	MIR4307
3469	NEURL1B
3470	SPI1
3471	SNX13
3472	MIR378E
3473	PLA2G16
3474	OR4A16
3475	SCAF4
3476	 WASF3 
3477	ARID5B
3478	NTN1
3479	NTN4
3480	TP73
3481	FITM1
3482	ATAD2B
3483	B4GALNT4
3484	RBM6
3485	RBM5
3486	LAPTM4A
3487	PAEP
3488	LOC642426
3489	EGFR
3490	AP1S2
3491	BCL9L
3492	LINC00487
3493	SIM1
3494	 MYCN 
3495	CXCR1
3496	DEFA4
3497	POTEH
3498	JAG2
3499	POTEF
3500	POTED
3501	POTEC
3502	POTEB
3503	POTEA
3504	FOLH1
3505	NDUFC2
3506	BMI1
3507	FER
3508	GPR45
3509	ARSD
3510	ARSE
3511	ARSF
3512	ARSA
3513	ARSB
3514	ANKRD62P1-PARP4P3
3515	EXOC8
3516	HEXB
3517	ARSH
3518	RBMX
3519	ANK3
3520	MGAT4A
3521	MGAT4C
3522	MGAT4B
3523	MAGED4B
3524	FUT9
3525	 ASXL1 
3526	SF1
3527	MIR4482-1
3528	TNRC6B
3529	USP28
3530	LOC644936
3531	ADAMTS6
3532	LOC283174
3533	LOC283177
3534	ARHGEF6
3535	ARHGEF5
3536	ADAMTS9
3537	CDH9
3538	PROKR2
3539	CBFB
3540	CDH1
3541	LOC100859930
3542	CDH4
3543	DPP10
3544	LDB1
3545	RNASE11
3546	 TTLL9 
3547	PAFAH1B2
3548	 RBM10 
3549	LIN9
3550	C15ORF2
3551	SFN
3552	C11ORF88
3553	MALT1
3554	C11ORF87
3555	STARD13
3556	RFESD
3557	 PTPN11 
3558	SEC63
3559	LOC643441
3560	TRIB2
3561	MIR2277
3562	DHX36
3563	LAYN
3564	ESRRB
3565	LUM
3566	HSBP1L1
3567	TPTE
3568	MIR335
3569	MIR337
3570	MIR339
3571	MT1G
3572	 CCND1 
3573	ZNF180
3574	OR2V2
3575	C11ORF34
3576	ZNF26
3577	ZNF22
3578	C9ORF96
3579	JTB
3580	ASR2
3581	SH3TC2
3582	DOPEY1
3583	BBS10
3584	STARD4
3585	ZNF506
3586	LOC143666
3587	ZNF238
3588	UBL4B
3589	TCERG1
3590	LOC348120
3591	LOC100129917
3592	RNF113A
3593	INTS12
3594	GREB1
3595	MYH1
3596	MYH6
3597	MYH7
3598	BAGE4
3599	BAGE2
3600	BAGE3
3601	CADM4
3602	CADM2
3603	CADM3
3604	CADM1
3605	PUS1
3606	KRTAP5-1
3607	CDKN1B 
3608	HSA-MIR-3118-6
3609	ST7
3610	HSA-MIR-3118-4
3611	HSA-MIR-3118-5
3612	AGAP2
3613	MERTK
3614	UHRF2
3615	CNNM1
3616	CNNM2
3617	CSPP1
3618	KEAP1
3619	C1ORF109
3620	KCNRG
3621	DSCC1
3622	TGFB1
3623	TGFB2
3624	PHF12
3625	 TCP11L2 
3626	EZH2
3627	CCNB1IP1
3628	ARSK
3629	SLC5A8
3630	UIMC1
3631	RALGDS
3632	YWHAZ
3633	ALX3
3634	NOP56
3635	RB1
3636	ETS2
3637	LOC285758
3638	ETS1
3639	YWHAB
3640	MAT2B
3641	NR4A2
3642	NR4A3
3643	CHRM5
3644	NR4A1
3645	CHRM3
3646	CHRM1
3647	LOC643201
3648	MGAT1
3649	GLRX
3650	CPT1B
3651	PXMP4
3652	RIPK3
3653	SLC20A2
3654	VAMP3
3655	 PCBP1 
3656	MGC21881
3657	MIR1307
3658	ROCK1
3659	ROCK2
3660	HTR1A
3661	CUL4A
3662	CUL4B
3663	TGFBI
3664	SLC6A3
3665	SLC6A4
3666	GNPTAB
3667	AGER
3668	NGDN
3669	KIAA1919
3670	HSFY1P1
3671	GPR35
3672	CYMP
3673	CBFA2T3
3674	MAPRE1
3675	TNFRSF9
3676	VRK1
3677	HSA-MIR-1303
3678	WNK2
3679	JAK1
3680	WDR11
3681	MIR125B1
3682	MIR125B2
3683	PATZ1
3684	PLD4
3685	MORN4
3686	PHB
3687	ST20
3688	PPFIBP1
3689	SNHG5
3690	RUNX3
3691	SNHG7
3692	RUNX1
3693	POM121L12
3694	LZTR1
3695	RNF212
3696	HHIPL1
3697	STX2
3698	DOCK2
3699	FAM86DP
3700	ADORA3
3701	MED22
3702	KIF26A
3703	KIF26B
3704	4-Sep
3705	FAM184A
3706	KANSL1
3707	JUN
3708	JUP
3709	C11ORF93
3710	C11ORF92
3711	EPHB2
3712	EPHB3
3713	NEGR1-IT1
3714	EPHB4
3715	GSTT1|GSTT2
3716	PARP1
3717	PARP2
3718	BTNL9
3719	BTNL8
3720	TP53INP1
3721	BTNL3
3722	SCUBE2
3723	ANG
3724	ESR2
3725	ESR1
3726	 TBL1XR1 
3727	CRSP8P
3728	TIE1
3729	FGF20
3730	MYOM1
3731	LOC100289656
3732	STK11
3733	TBX3
3734	ZFP2
3735	CTNND1
3736	TBX5
3737	DSE
3738	KIAA0825
3739	BRK/PTK6
3740	FHL2
3741	TYRO3
3742	FHL5
3743	FTH1
3744	MIR608
3745	QSER1
3746	TAL1
3747	TAL2
3748	FBRSL1
3749	PAWR
3750	RAD51C
3751	RAD51B
3752	NT5DC1
3753	 CBFB 
3754	COL21A1
3755	CCDC85C
3756	DIP2C
3757	CORO1A
3758	MIR17
3759	PIN1
3760	DCLRE1B
3761	YES1
3762	MID1
3763	NBPF22P
3764	WASF1
3765	WASF3
3766	FAS
3767	PTHLH
3768	NPAS1
3769	 NSD1 
3770	ZCCHC8
3771	IQGAP2
3772	KCNS3
3773	DCP2
3774	SPOP
3775	TBL1X
3776	LOC386597
3777	OR2M5
3778	TP53BP1
3779	OR2M3
3780	OR2M2
3781	THTPA
3782	MIDN
3783	NEGR1
3784	NCAPH2
3785	ARID3B
3786	FAM9B
3787	FAM9A
3788	INA
3789	YWHAQ
3790	GLRX5
3791	PIH1D2
3792	OAT
3793	S100A11
3794	VSNL1
3795	AHCYL1
3796	GRK6
3797	NRN1
3798	TPPP2
3799	DLEU2
3800	DLEU1
3801	RALGAPA1
3802	 HIST1H3B 
3803	 SMC1A 
3804	SPAG5
3805	FLI1
3806	KCTD11
3807	C5ORF27
3808	C5ORF25
3809	KLHL8
3810	KCNMB1
3811	ZNF442
3812	ANKRD36
3813	LINC00536
3814	 KDM5C 
3815	POC5
3816	HSPB2-C11ORF52
3817	ZNF839
3818	ST13
3819	NPRL2
3820	PLXNB2
3821	AMH
3822	KBTBD3
3823	AMN
3824	 RPL5 
3825	SOHLH1
3826	NBR2
3827	GUCY1A2
3828	LOC728554
3829	PCBP1
3830	 OTUD7A 
3831	LZTS2
3832	CARD11
3833	LZTS1
3834	SIRT3
3835	SIRT2
3836	RASL11A
3837	SIRT4
3838	SERPINB13
3839	 FGFR3 
3840	CMA1
3841	ZNF658B
3842	FAM57A
3843	LOC100130890
3844	RBM26
3845	RBM27
3846	RBM23
3847	RBM20
3848	SPOCK3
3849	MIR136
3850	MIR137
3851	MIR134
3852	SF3B1 
3853	EPHA7
3854	NR2F1
3855	C6ORF163
3856	C6ORF162
3857	C6ORF165
3858	C6ORF164
3859	EPHA1
3860	TENM2
3861	PXMP2
3862	FLJ11235
3863	MIR3648
3864	FGF18
3865	KDM6A
3866	 WT1 
3867	COL9A1
3868	OR11H2
3869	OR11H1
3870	OR11H6
3871	OR11H4
3872	GOPC
3873	YTHDC2
3874	GLB1L3
3875	SEMA3E
3876	ARHGAP11A
3877	ARHGAP11B
3878	RNF144A
3879	GLT6D1
3880	STEAP3
3881	MIR125A
3882	ZNF259
3883	ARL3
3884	BCL11A
3885	BCL11B
3886	RRM2
3887	ZC3H12C
3888	GRHL1
3889	DAPK3
3890	DAPK1
3891	PABPN1
3892	ULK1
3893	SNORD36A
3894	PIM3
3895	SNORD36C
3896	PIM1
3897	MIR4685
3898	MIR4680
3899	KLHL33
3900	AR
3901	 PIK3R1 
3902	MIR22
3903	ZNF84
3904	C1QTNF2
3905	KCNT1
3906	MLC1
3907	GORAB
3908	PGAP3
3909	STK19
3910	LTB4R2
3911	STK10
3912	POLG2
3913	SLC27A5
3914	OR2L2
3915	RARS2
3916	SRSF12
3917	FKBP9
3918	LOC100129716
3919	NDUFB8
3920	GABARAP
3921	MANF
3922	SV2C
3923	ZFYVE21
3924	EHF
3925	MIR4464
3926	MIR3660
3927	GSTM2P1
3928	VCX2
3929	LITAF
3930	FDXACB1
3931	MSGN1
3932	LMO2
3933	LOC100289673
3934	DTK
3935	TNFSF10
3936	DIRAS1
3937	RASL10A
3938	RASL10B
3939	PWAR4
3940	AK7
3941	GPR19
3942	SFXN2
3943	SFXN3
3944	SFXN1
3945	 ATM 
3946	 STAG2 
3947	PANK3
3948	CCNT2
3949	KCNMA1
3950	LINC00523
3951	LINC00521
3952	PTEN 
3953	CAV1
3954	TICRR
3955	HEATR5B
3956	PLXNC1
3957	RPL23AP82
3958	GFM2
3959	ZC3H4
3960	CBL
3961	PDE6B
3962	GPX3
3963	GPX2
3964	GPX5
3965	GPX4
3966	PRDM2
3967	MYBBP1A
3968	API2-MLT
3969	 SLC44A3 
3970	MIR34A
3971	MIR34C
3972	MIR34B
3973	 FGFR2 
3974	LETM2
3975	SLC4A5
3976	TNFRSF10B
3977	TNFRSF10A
3978	NCKAP1L
3979	 RIT1 
3980	ASPG
3981	HIC1
3982	FAM186A
3983	ASPN
3984	KNTC1
3985	HFM1
3986	RAD51AP2
3987	RBM10
3988	RBM15
3989	RBM14
3990	 HIST1H1E 
3991	MIR127
3992	MIR126
3993	MIR122
3994	BEND5
3995	BEND3
3996	MIR1247
3997	MXRA5
3998	NT5C1B-RDH14
3999	CXorf22
4000	ZNF732
4001	HGF
4002	AKIRIN2-AS1
4003	ALK
4004	ALB
4005	MIR3689B
4006	MIR3689C
4007	SSTR3
4008	MIR3689A
4009	MIR3689F
4010	MIR3689E
4011	MIR340
4012	MAPRE2
4013	MIR345
4014	TUBGCP5
4015	TUBGCP6
4016	BCL2L2-PABPN1
4017	IGSF4
4018	IGSF3
4019	CTNNB1
4020	ZNF14
4021	MOB1A
4022	ZNF10
4023	MYOF
4024	LOC401074
4025	SELPLG
4026	FLT3 
4027	 SACS 
4028	LRRC4
4029	CNOT8
4030	PROP1
4031	CNOT3
4032	CNOT6
4033	ITGB1
4034	SPON2
4035	ITGB3
4036	BANP
4037	ITGB6
4038	ZNF124
4039	SNORA13
4040	LCP2
4041	SNORA12
4042	DDX10
4043	LCE4A
4044	DKK2
4045	MYO6
4046	DKK1
4047	RABGGTA
4048	KCNA10
4049	ORAOV1
4050	MIR4697
4051	HPS6
4052	HPS1
4053	RASAL1
4054	TMED11P
4055	LBR
4056	BET3L
4057	NFE2L2
4058	TMEM55B
4059	FGR
4060	NEO1
4061	ZNF268
4062	FGA
4063	ZNF467
4064	MRVI1
4065	EXT2
4066	EXT1
4067	RNU5D-1
4068	MCHR2
4069	 PTEN 
4070	TESK1
4071	TESK2
4072	HPSE
4073	AKD1
4074	IAH1
4075	ARID1B
4076	ARID1A
4077	 MYB 
4078	AIB1/NCOA3
4079	DHRS4L1
4080	YEATS4
4081	MIR487B
4082	TCTA
4083	MIR487A
4084	SNX3
4085	RBBP6
4086	RUNX2
4087	SLC11A2
4088	YPEL3
4089	CCDC120
4090	CEL
4091	 HRAS 
4092	MKL2
4093	MIR4491
4094	STK25
4095	ITPKB
4096	MGEA5
4097	ORAI1
4098	MMS22L
4099	MLLT11
4100	DLAT
4101	HSA-MIR-1271
4102	RNASEH2B
4103	KIAA0284
4104	CGA
4105	DTYMK
4106	C21ORF15
4107	MED29
4108	HDAC3
4109	HDAC2
4110	LOC647589
4111	AHI1
4112	TMEM161B
4113	FABP6
4114	PGAM5
4115	NHLH2
4116	FANCD2
4117	FABP1
4118	GABRA5
4119	GABRA6
4120	MXD3
4121	GABRA2
4122	SOBP
4123	MIR3125
4124	LOC100130522
4125	C1QBP
4126	MTERFD2
4127	 DIS3 
4128	TRAPPC12
4129	 AKT1 
4130	DNMBP
4131	MED23
4132	CST4
4133	CST5
4134	DOCK1
4135	SEPW1
4136	ANKRD26P3
4137	COL5A2
4138	COL5A3
4139	COL5A1
4140	LAMP3
4141	MAS1
4142	EP300
4143	MIR210HG
4144	FAM55D
4145	DLC1
4146	FAM55A
4147	FAM55B
4148	KL
4149	C9ORF53
4150	RPL10A
4151	RAD52
4152	RAD50
4153	NEU4
4154	AMIGO3
4155	ATP5F1
4156	BTRC
4157	FLJ00132
4158	USP4
4159	USP6
4160	SCN9A
4161	SOX9
4162	LOC100422737
4163	SOX2
4164	SOX3
4165	BBC3
4166	SOX7
4167	SOX4
4168	RNF31
4169	ZNF721
4170	MIR375
4171	CEBPA
4172	MIR377
4173	CEBPE
4174	ZNF544
4175	OR4Q3
4176	PITPNA
4177	MIR379
4178	PRR7
4179	KDM4C
4180	ABCB1
4181	ABCB6
4182	LOC100131691
4183	WHAMMP3
4184	MIR433
4185	INTS6
4186	ZC3H7A
4187	MIR432
4188	TPP2
4189	INTS8
4190	PSME2
4191	PSME1
4192	MTSS1
4193	TNFRSF11B
4194	 RXRA 
4195	CTNNA2
4196	FAM181A
4197	BAI3
4198	ACP1
4199	TLX1
4200	TLX3
4201	 SLC26A3 
4202	TCEAL7
4203	ARHGEF40
4204	DNLZ
4205	HSA-MIR-3158-2
4206	EPB41L4B
4207	EPB41L4A
4208	IST1
4209	MYL5
4210	CYP2W1
4211	MYL1
4212	PTENP1
4213	IMMP2L
4214	LOC729020
4215	LINGO2
4216	MPP3
4217	MPP2
4218	TFB2M
4219	EML1
4220	MPP7
4221	MPP6
4222	MPP5
4223	MPP4
4224	INHBA
4225	FAM110C
4226	LOC440600
4227	ADM2
4228	SNTG1
4229	EXTL1
4230	EXTL2
4231	SNTG2
4232	C10ORF2
4233	NUPL1
4234	DICER1
4235	KRTAP20-2
4236	RSPO2
4237	MYLK
4238	DONSON
4239	ZNF274
4240	DKFZP434L187
4241	HDAC10
4242	PAX8
4243	IFNA1
4244	SYNM
4245	PLCB3
4246	TSHB
4247	PPRC1
4248	EXOC3L4
4249	NOP16
4250	TSHR
4251	AP4B1
4252	LOC645619
4253	MAML1
4254	FLJ20518
4255	SURF1
4256	HECA
4257	SURF2
4258	SURF4
4259	ZFAND2A
4260	SNORD114-4
4261	TUBB8
4262	EFS
4263	MAN2A1
4264	FAN1
4265	HERC2
4266	NF1P2
4267	C14ORF64
4268	 ELF3 
4269	APOLD1
4270	UBLCP1
4271	EDA2R
4272	CCDC136
4273	SPACA1
4274	RBFOX1
4275	NYNRIN
4276	APOPT1
4277	FRG2B
4278	FRG2C
4279	LOC100506599
4280	LCO
4281	SYN2
4282	TFDP2
4283	GGNBP2
4284	PODNL1
4285	MIS18A
4286	ODF3B
4287	OLFM1
4288	CCR5
4289	CD2
4290	GSTM4
4291	RAF1
4292	LOC100288524
4293	BCAS1
4294	CEP164
4295	DRAM2
4296	STAT3
4297	DDX3X 
4298	CEP162
4299	CD82
4300	BCL7A
4301	ZBED1
4302	ZBED3
4303	ZBED4
4304	LOC149134
4305	CRYAB
4306	EFNA5
4307	LOC150622
4308	EFNA1
4309	SNORD114-19
4310	SNORD114-18
4311	MIR583
4312	SNORD114-12
4313	SNORD114-11
4314	GABRB3
4315	SNORD114-17
4316	SNORD114-16
4317	SNORD114-15
4318	SNORD114-14
4319	MRPS28
4320	RWDD1
4321	RHEB
4322	PDE4D
4323	PEG3
4324	SCAI
4325	LOC728323
4326	S100Z
4327	 SLC4A5 
4328	MAP2K2
4329	MAP2K1
4330	HSA-MIR-1299
4331	 PPP6C 
4332	MAP7
4333	CRIPAK
4334	LOC100128593
4335	TEAD2
4336	TEAD1
4337	S100B
4338	PTPN22
4339	RAP1GAP
4340	APEX1
4341	TPO
4342	SERPINI2
4343	NET1
4344	KMT2C
4345	KMT2A
4346	ESRRA
4347	KMT2E
4348	KMT2D
4349	MTR
4350	ZRSR2
4351	CLDN25
4352	SUCLG2
4353	ZNF750
4354	 NCOR1 
4355	OPRK1
4356	 SOS1 
4357	ZNF718
4358	THG1L
4359	MIR369
4360	ZNF717
4361	LOC100130954
4362	ABCC9
4363	ABCC4
4364	CDR1
4365	ABCC2
4366	MIRLET7G
4367	MIRLET7D
4368	MIRLET7E
4369	MIRLET7B
4370	MIRLET7C
4371	DNAH12
4372	LOC100505678
4373	 CD79B 
4374	MIRLET7I
4375	MIR1193
4376	GSC
4377	NIPA2
4378	MIR1197
4379	CYS1
4380	RAB38
4381	 DDX5 
4382	SNORD116-8
4383	DOK3
4384	SNORD116-5
4385	SNORD116-4
4386	SNORD116-1
4387	SNORD116-3
4388	SNORD116-2
4389	GNB2L1
4390	PART1
4391	GOLGA3
4392	GOLGA5
4393	LMF2
4394	EP400NL
4395	 INTS12 
4396	FAM19A5
4397	FAM19A3
4398	HK2
4399	HK3
4400	ATP2B3
4401	CACNA2D1
4402	FLJ33534
4403	TFPI2
4404	XRN1
4405	SLC2A6
4406	KDM5A
4407	KDM5B
4408	KDM5C
4409	PLS1
4410	TP53 
4411	C6ORF48
4412	DNM2
4413	MAPKAPK5
4414	PIK3R3
4415	PIK3R1
4416	MIR124-1
4417	BET1L
4418	PTPRN2
4419	AGXT2L2
4420	ACAP1
4421	HACE1
4422	MIR3912
4423	ETV1
4424	ETV3
4425	ETV6
4426	AQP7P3
4427	LRRC17
4428	AQP7P1
4429	TLR1
4430	 MYOCD 
4431	BTBD6
4432	AASDHPPT
4433	SULT1B1
4434	LOC730811
4435	IKZF1
4436	NCAM1
4437	IKZF2
4438	GUF1
4439	OBP2B
4440	MTAP
4441	OBP2A
4442	BCAS2
4443	PML
4444	REEP5
4445	CECR1
4446	CECR3
4447	CECR5
4448	CECR6
4449	CECR7
4450	ADAMTS13
4451	 ACVR1B 
4452	CHRNA7
4453	TSLP
4454	FES
4455	MAPK8IP2
4456	RGS14
4457	RGS12
4458	ID4
4459	ID2
4460	MIR449A
4461	MIR449B
4462	PHF20L1
4463	TIMM22
4464	MYCL1
4465	VCAN
4466	VANGL1
4467	ELF3
4468	LOC100268168
4469	SEC31B
4470	SEC31A
4471	ANKRD6
4472	MIR3142
4473	MIR3141
4474	ANKRD9
4475	GLI1
4476	AQP12B
4477	AQP12A
4478	FSHR
4479	GMPR2
4480	LDHA
4481	PDGFA
4482	PDGFB
4483	OTUB2
4484	ORC2
4485	ORC3
4486	LUZP2
4487	PLEKHG2
4488	SELO
4489	KRAS 
4490	WNT11
4491	 B2M 
4492	PTRF
4493	SIGLEC5
4494	SERPINH1
4495	SELP
4496	 MYD88 