tax_id	Org_name	GeneID	CurrentID	Status	Symbol	Aliases	description	other_designations	map_location	chromosome	genomic_nucleotide_accession.version	start_position_on_the_genomic_accession	end_position_on_the_genomic_accession	orientation	exon_count	OMIM	
9606	Homo sapiens	143686	0	live	SESN3	SEST3	sestrin 3		11q21	11	NC_000011.10	95165513	95232541	minus	12	607768	
9606	Homo sapiens	85417	0	live	CCNB3		cyclin B3		Xp11	X	NC_000023.11	50281421	50351914	plus	13	300456	
9606	Homo sapiens	83667	0	live	SESN2	HI95, SES2, SEST2	sestrin 2	hypoxia induced gene 95	1p35.3	1	NC_000001.11	28259452	28282491	plus	10	607767	
9606	Homo sapiens	64393	0	live	ZMAT3	PAG608, WIG-1, WIG1	zinc finger, matrin-type 3	WIG-1/PAG608 protein|p53 target zinc finger protein|p53-activated gene 608 protein|zinc finger protein WIG-1|zinc finger protein WIG1|zinc finger, matrin type 3	3q26.32	3	NC_000003.12	179017223	179072279	minus	7	606452	
9606	Homo sapiens	64326	0	live	RFWD2	COP1, RNF200	ring finger and WD repeat domain 2, E3 ubiquitin protein ligase	RING finger protein 200|constitutive photomorphogenesis protein 1 homolog|putative ubiquitin ligase COP1	1q25.1-q25.2	1	NC_000001.11	175944826	176207279	minus	21	608067	
9606	Homo sapiens	64065	0	live	PERP	KCP1, KRTCAP1, PIGPC1, THW, dJ496H19.1	PERP, TP53 apoptosis effector	1110017A08Rik|KCP-1|keratinocyte associated protein 1|keratinocyte-associated protein 1|keratinocytes associated protein 1|p53 apoptosis effector related to PMP22|p53-induced protein PIGPC1|transmembrane protein THW	6q24	6	NC_000006.12	138088505	138107523	minus	3	609301	
9606	Homo sapiens	63970	0	live	TP53AIP1	P53AIP1	tumor protein p53 regulated apoptosis inducing protein 1		11q24	11	NC_000011.10	128934732	128943399	minus	5	605426	
9606	Homo sapiens	56475	0	live	RPRM	REPRIMO	reprimo, TP53 dependent G2 arrest mediator candidate	candidate mediator of the p53 dependent G2 arrest|candidate mediator of the p53-dependent G2 arrest|reprimo, TP53 dependant G2 arrest mediator candidate	2q23.3	2	NC_000002.12	153477338	153478808	minus	1	612171	
9606	Homo sapiens	55367	0	live	PIDD1	LRDD, PIDD	p53-induced death domain protein 1	leucine-rich repeat and death domain-containing protein|leucine-rich repeats and death domain containing|p53-induced protein with a death domain	11p15.5	11	NC_000011.10	799179	809501	minus	19	605247	
9606	Homo sapiens	55240	0	live	STEAP3	AHMIO2, STMP3, TSAP6, dudlin-2, dudulin-2, pHyde	STEAP family member 3, metalloreductase	six-transmembrane epithelial antigen of prostate 3|tumor suppressor pHyde|tumor suppressor-activated pathway protein 6	2q14.2	2	NC_000002.12	119222731	119265652	plus	9	609671	
9606	Homo sapiens	54205	0	live	CYCS	CYC, HCS, THC4	cytochrome c, somatic		7p15.3	7	NC_000007.14	25118651	25125361	minus	3	123970	
9606	Homo sapiens	51512	0	live	GTSE1	B99	G-2 and S-phase expressed 1	protein B99 homolog	22q13.2-q13.3	22	NC_000022.11	46296014	46333699	plus	14	607477	
9606	Homo sapiens	51246	0	live	SHISA5	SCOTIN	shisa family member 5	putative NF-kappa-B-activating protein 120|shisa homolog 5	3p21.31	3	NC_000003.12	48467798	48504826	minus	10	607290	
9606	Homo sapiens	50484	0	live	RRM2B	MTDPS8A, MTDPS8B, P53R2	ribonucleotide reductase M2 B (TP53 inducible)	TP53-inducible ribonucleotide reductase M2 B|p53-inducible ribonucleotide reductase small subunit 2 homolog|p53-inducible ribonucleotide reductase small subunit 2 short form beta|p53-inducible ribonucleotide reductase small subunit 2-like protein	8q23.1	8	NC_000008.11	102204501	102239118	minus	9	604712	
9606	Homo sapiens	27244	0	live	SESN1	PA26, SEST1	sestrin 1	p53 activated gene 26|p53 regulated PA26 nuclear protein	6q21	6	NC_000006.12	108986437	109094505	minus	12	606103	
9606	Homo sapiens	27113	0	live	BBC3	JFY-1, JFY1, PUMA	BCL2 binding component 3	p53 up-regulated modulator of apoptosis	19q13.3-q13.4	19	NC_000019.10	47220822	47232996	minus	7	605854	
9606	Homo sapiens	25898	0	live	RCHY1	ARNIP, CHIMP, PIRH2, PRO1996, RNF199, ZCHY, ZNF363	ring finger and CHY zinc finger domain containing 1, E3 ubiquitin protein ligase	CH-rich interacting match with PLAG1|E3 ubiquitin-protein ligase Pirh2|RING finger protein 199|androgen-receptor N-terminal-interacting protein|p53-induced protein with a RING-H2 domain|zinc finger protein 363|zinc finger, CHY-type	4q21.1	4	NC_000004.12	75479037	75514744	minus	10	607680	
9606	Homo sapiens	11200	0	live	CHEK2	CDS1, CHK2, HuCds1, LFS2, PP1425, RAD53, hCds1	checkpoint kinase 2	CHK2 checkpoint homolog|cds1 homolog|checkpoint-like protein CHK2	22q12.1	22	NC_000022.11	28687743	28741905	minus	22	604373	
9606	Homo sapiens	10912	0	live	GADD45G	CR6, DDIT2, GADD45gamma, GRP17	growth arrest and DNA-damage-inducible, gamma	DDIT-2|DNA damage-inducible transcript 2 protein|GADD45-gamma|cytokine-responsive protein CR6|gadd-related protein, 17 kD	9q22.1-q22.2	9	NC_000009.12	89605012	89606555	plus	4	604949	
9606	Homo sapiens	9540	0	live	TP53I3	PIG3	tumor protein p53 inducible protein 3	p53-induced gene 3 protein|quinone oxidoreductase homolog	2p23.3	2	NC_000002.12	24077428	24085215	minus	6	605171	
9606	Homo sapiens	9538	0	live	EI24	EPG4, PIG8, TP53I8	etoposide induced 2.4	ectopic P-granules autophagy protein 4 homolog|p53-induced gene 8 protein|tumor protein p53 inducible protein 8	11q24	11	NC_000011.10	125569216	125584689	plus	13	605170	
9606	Homo sapiens	9134	0	live	CCNE2	CYCE2	cyclin E2		8q22.1	8	NC_000008.11	94880224	94896653	minus	14	603775	
9606	Homo sapiens	9133	0	live	CCNB2	HsT17299	cyclin B2		15q22.2	15	NC_000015.10	59105085	59125045	plus	9	602755	
9606	Homo sapiens	8795	0	live	TNFRSF10B	CD262, DR5, KILLER, KILLER/DR5, TRAIL-R2, TRAILR2, TRICK2, TRICK2A, TRICK2B, TRICKB, ZTNFR9	tumor necrosis factor receptor superfamily, member 10b	Fas-like protein|TNF receptor superfamily member 10b|TNF-related apoptosis-inducing ligand receptor 2|apoptosis inducing protein TRICK2A/2B|apoptosis inducing receptor TRAIL-R2|cytotoxic TRAIL receptor-2|death domain containing receptor for TRAIL/Apo-2L|death receptor 5|p53-regulated DNA damage-inducible cell death receptor(killer)|tumor necrosis factor receptor-like protein ZTNFR9	8p22-p21	8	NC_000008.11	23006383	23069187	minus	10	603612	
9606	Homo sapiens	8493	0	live	PPM1D	PP2C-DELTA, WIP1	protein phosphatase, Mg2+/Mn2+ dependent, 1D	protein phosphatase 1D magnesium-dependent, delta isoform|protein phosphatase 2C delta isoform|protein phosphatase Wip1|wild-type p53-induced phosphatase 1	17q23.2	17	NC_000017.11	60600183	60666280	plus	7	605100	
9606	Homo sapiens	7249	0	live	TSC2	LAM, PPP1R160, TSC4	tuberous sclerosis 2	protein phosphatase 1, regulatory subunit 160|tuberous sclerosis 2 protein	16p13.3	16	NC_000016.10	2047936	2088712	plus	42	191092	
9606	Homo sapiens	7161	0	live	TP73	P73	tumor protein p73	p53-like transcription factor|p53-related protein	1p36.3	1	NC_000001.11	3652565	3736201	plus	17	601990	
9606	Homo sapiens	7157	0	live	TP53	BCC7, LFS1, P53, TRP53	tumor protein p53	antigen NY-CO-13|mutant tumor protein 53|p53 tumor suppressor|phosphoprotein p53|transformation-related protein 53|tumor protein 53	17p13.1	17	NC_000017.11	7668402	7687550	minus	12	191170	
9606	Homo sapiens	7057	0	live	THBS1	THBS, THBS-1, TSP, TSP-1, TSP1	thrombospondin 1	thrombospondin-1p180|thrombospondin-p50	15q15	15	NC_000015.10	39581079	39597467	plus	22	188060	
9606	Homo sapiens	6477	0	live	SIAH1	SIAH1A	siah E3 ubiquitin protein ligase 1	seven in absentia homolog 1|siah-1a	16q12.1	16	NC_000016.10	48360531	48448440	minus	8	602212	
9606	Homo sapiens	6241	0	live	RRM2	R2, RR2, RR2M	ribonucleotide reductase M2	ribonucleotide reductase M2 polypeptide|ribonucleotide reductase small chain|ribonucleotide reductase small subunit	2p25-p24	2	NC_000002.12	10122568	10131419	plus	10	180390	
9606	Homo sapiens	5728	0	live	PTEN	10q23del, BZS, CWS1, DEC, GLM2, MHAM, MMAC11, TEP1, PTEN	phosphatase and tensin homolog	MMAC1 phosphatase and tensin homolog deleted on chromosome 10|mitochondrial PTENalpha|mitochondrial phosphatase and tensin protein alpha|mutated in multiple advanced cancers 1|phosphatase and tensin-like protein|phosphatidylinositol-3,4,5-trisphosphate 3-phosphatase and dual-specificity protein phosphatase PTEN	10q23.3	10	NC_000010.11	87863438	87971930	plus	16	601728	
9606	Homo sapiens	5366	0	live	PMAIP1	APR, NOXA	phorbol-12-myristate-13-acetate-induced protein 1	PMA-induced protein 1|adult T cell leukemia-derived PMA-responsive|immediate-early-response protein APR|protein Noxa	18q21.32	18	NC_000018.10	59899960	59904306	plus	2	604959	
9606	Homo sapiens	5268	0	live	SERPINB5	PI5, maspin	serpin peptidase inhibitor, clade B (ovalbumin), member 5	PI-5|peptidase inhibitor 5|protease inhibitor 5 (maspin)|serine (or cysteine) proteinase inhibitor, clade B (ovalbumin), member 5	18q21.33	18	NC_000018.10	63476911	63505085	plus	8	154790	
9606	Homo sapiens	5054	0	live	SERPINE1	PAI, PAI-1, PAI1, PLANH1	serpin peptidase inhibitor, clade E (nexin, plasminogen activator inhibitor type 1), member 1	endothelial plasminogen activator inhibitor|serine (or cysteine) proteinase inhibitor, clade E (nexin, plasminogen activator inhibitor type 1), member 1|serpin E1	7q22.1	7	NC_000007.14	101127089	101139266	plus	9	173360	
9606	Homo sapiens	4616	0	live	GADD45B	GADD45BETA, MYD118	growth arrest and DNA-damage-inducible, beta	myeloid differentiation primary response protein MyD118|negative growth regulatory protein MyD118	19p13.3	19	NC_000019.10	2476125	2478259	plus	4	604948	
9606	Homo sapiens	4194	0	live	MDM4	HDMX, MDMX, MRP1	MDM4, p53 regulator	MDM4 protein variant G|MDM4 protein variant Y|MDM4-related protein 1|Mdm4 p53 binding protein homolog|double minute 4, human homolog of; p53-binding protein|mdm2-like p53-binding protein|protein Mdmx	1q32	1	NC_000001.11	204516379	204581681	plus	17	602704	
9606	Homo sapiens	4193	0	live	MDM2	ACTFS, HDMX, hdm2	MDM2 proto-oncogene, E3 ubiquitin protein ligase	MDM2 oncogene, E3 ubiquitin protein ligase|Mdm2, p53 E3 ubiquitin protein ligase homolog|Mdm2, transformed 3T3 cell double minute 2, p53 binding protein|double minute 2, human homolog of; p53-binding protein|oncoprotein Mdm2	12q14.3-q15	12	NC_000012.12	68808168	68845544	plus	13	164785	
9606	Homo sapiens	3732	0	live	CD82	4F9, C33, GR15, IA4, KAI1, R2, SAR2, ST6, TSPAN27	CD82 molecule	C33 antigen|inducible membrane protein R2|kangai 1 (suppression of tumorigenicity 6, prostate; CD82 antigen (R2 leukocyte antigen, antigen detected by monoclonal and antibody IA4))|metastasis suppressor Kangai-1|tetraspanin-27|tspan-27	11p11.2	11	NC_000011.10	44564427	44620363	plus	13	600623	
9606	Homo sapiens	3486	0	live	IGFBP3	BP-53, IBP3	insulin-like growth factor binding protein 3	IBP-3|IGF-binding protein 3|IGFBP-3|acid stable subunit of the 140 K IGF complex|binding protein 29|binding protein 53|growth hormone-dependent binding protein	7p12.3	7	NC_000007.14	45912245	45921272	minus	5	146732	
9606	Homo sapiens	3479	0	live	IGF1	IGF-I, IGFI, MGF	insulin-like growth factor 1 (somatomedin C)	insulin-like growth factor IB|mechano growth factor|somatomedin-C	12q23.2	12	NC_000012.12	102395867	102481786	minus	7	147440	
9606	Homo sapiens	2810	0	live	SFN	YWHAS	stratifin	14-3-3 sigma|epithelial cell marker protein 1	1p36.11	1	NC_000001.11	26863142	26864456	plus	1	601290	
9606	Homo sapiens	1647	0	live	GADD45A	DDIT1, GADD45	growth arrest and DNA-damage-inducible, alpha	DDIT-1|DNA damage-inducible transcript 1 protein|DNA damage-inducible transcript-1|DNA-damage-inducible transcript 1|growth arrest and DNA-damage-inducible 45 alpha	1p31.2	1	NC_000001.11	67685177	67688338	plus	4	126335	
9606	Homo sapiens	1643	0	live	DDB2	DDBB, UV-DDB2, XPE	damage-specific DNA binding protein 2, 48kDa	DDB p48 subunit|UV-DDB 2|UV-damaged DNA-binding protein 2|damage-specific DNA-binding protein 2|xeroderma pigmentosum group E protein	11p11.2	11	NC_000011.10	47214942	47239218	plus	10	600811	
9606	Homo sapiens	1111	0	live	CHEK1	CHK1	checkpoint kinase 1	CHK1 checkpoint homolog|Checkpoint, S. pombe, homolog of, 1|Chk1-S|cell cycle checkpoint kinase|checkpoint kinase-1	11q24.2	11	NC_000011.10	125624920	125676259	plus	16	603078	
9606	Homo sapiens	1029	0	live	CDKN2A	ARF, CDK4I, CDKN2, CMM2, INK4, INK4A, MLM, MTS-1, MTS1, P14, P14ARF, P16, P16-INK4A, P16INK4, P16INK4A, P19, P19ARF, TP16	cyclin-dependent kinase inhibitor 2A	CDK4 inhibitor p16-INK4|alternative reading frame|cell cycle negative regulator beta|cyclin-dependent kinase 4 inhibitor A|cyclin-dependent kinase inhibitor 2A (melanoma, p16, inhibits CDK4)|multiple tumor suppressor 1	9p21	9	NC_000009.12	21967752	21995043	minus	12	600160	
9606	Homo sapiens	1026	0	live	CDKN1A	CAP20, CDKN1, CIP1, MDA-6, P21, SDI1, WAF1, p21CIP1	cyclin-dependent kinase inhibitor 1A (p21, Cip1)	CDK-interacting protein 1|CDK-interaction protein 1|DNA synthesis inhibitor|melanoma differentiation associated protein 6|wild-type p53-activated fragment 1	6p21.2	6	NC_000006.12	36676460	36687339	plus	6	116899	
9606	Homo sapiens	1021	0	live	CDK6	MCPH12, PLSTIRE	cyclin-dependent kinase 6	cell division protein kinase 6|serine/threonine-protein kinase PLSTIRE	7q21-q22	7	NC_000007.14	92604921	92836627	minus	11	603368	
9606	Homo sapiens	1019	0	live	CDK4	CMM3, PSK-J3	cyclin-dependent kinase 4	cell division protein kinase 4	12q14	12	NC_000012.12	57747727	57752447	minus	8	123829	
9606	Homo sapiens	1017	0	live	CDK2	CDKN2, p33(CDK2)	cyclin-dependent kinase 2	cdc2-related protein kinase|cell division protein kinase 2|p33 protein kinase	12q13	12	NC_000012.12	55966769	55972789	plus	8	116953	
9606	Homo sapiens	983	0	live	CDK1	CDC2, CDC28A, P34CDC2	cyclin-dependent kinase 1	cell cycle controller CDC2|cell division control protein 2 homolog|cell division cycle 2, G1 to S and G2 to M|cell division protein kinase 1|p34 protein kinase	10q21.1	10	NC_000010.11	60778331	60794852	plus	9	116940	
9606	Homo sapiens	901	0	live	CCNG2		cyclin G2		4q21.1	4	NC_000004.12	77157204	77170060	plus	10	603203	
9606	Homo sapiens	900	0	live	CCNG1	CCNG	cyclin G1	cyclin-G	5q32-q34	5	NC_000005.10	163437270	163445016	plus	8	601578	
9606	Homo sapiens	898	0	live	CCNE1	CCNE, pCCNE1	cyclin E1	cyclin E variant ex5del|cyclin E variant ex7del|cyclin Es|cyclin Et|pluripotent specific cyclin E1	19q12	19	NC_000019.10	29811898	29824312	plus	12	123837	
9606	Homo sapiens	896	0	live	CCND3		cyclin D3	D3-type cyclin	6p21	6	NC_000006.12	41934933	42048894	minus	7	123834	
9606	Homo sapiens	894	0	live	CCND2	KIAK0002, MPPH3	cyclin D2		12p13	12	NC_000012.12	4273733	4305356	plus	6	123833	
9606	Homo sapiens	891	0	live	CCNB1	CCNB	cyclin B1	G2/mitotic-specific cyclin B1	5q12	5	NC_000005.10	69167010	69178245	plus	9	123836	
9606	Homo sapiens	842	0	live	CASP9	APAF-3, APAF3, ICE-LAP6, MCH6, PPP1R56	caspase 9, apoptosis-related cysteine peptidase	ICE-like apoptotic protease 6|apoptotic protease MCH-6|apoptotic protease activating factor 3|protein phosphatase 1, regulatory subunit 56	1p36.21	1	NC_000001.11	15491401	15526529	minus	14	602234	
9606	Homo sapiens	841	0	live	CASP8	ALPS2B, CAP4, Casp-8, FLICE, MACH, MCH5	caspase 8, apoptosis-related cysteine peptidase	FADD-homologous ICE/CED-3-like protease|FADD-like ICE|ICE-like apoptotic protease 5|MACH-alpha-1/2/3 protein|MACH-beta-1/2/3/4 protein|MORT1-associated ced-3 homolog|apoptotic cysteine protease|apoptotic protease Mch-5|caspase 8, apoptosis-related cysteine protease	2q33-q34	2	NC_000002.12	201233443	201287711	plus	16	601763	
9606	Homo sapiens	836	0	live	CASP3	CPP32, CPP32B, SCA-1	caspase 3, apoptosis-related cysteine peptidase	CASP-3|CPP-32|PARP cleavage protease|SREBP cleavage activity 1|apopain|caspase 3, apoptosis-related cysteine protease|cysteine protease CPP32|procaspase3|protein Yama	4q34	4	NC_000004.12	184627696	184649475	minus	8	600636	
9606	Homo sapiens	637	0	live	BID	FP497	BH3 interacting domain death agonist	BID isoform ES(1b)|BID isoform L(2)|BID isoform Si6|Human BID coding sequence|apoptic death agonist|desmocollin type 4|p22 BID	22q11.1	22	NC_000022.11	17734140	17774665	minus	8	601997	
9606	Homo sapiens	595	0	live	CCND1	BCL1, D11S287E, PRAD1, U21B31	cyclin D1	B-cell CLL/lymphoma 1|B-cell lymphoma 1 protein|BCL-1 oncogene|PRAD1 oncogene	11q13	11	NC_000011.10	69641105	69654474	plus	6	168461	
9606	Homo sapiens	581	0	live	BAX	BCL2L4	BCL2-associated X protein	BCL2-associated X protein omega|Baxdelta2G9|Baxdelta2G9omega|Baxdelta2omega|bcl-2-like protein 4|bcl2-L-4	19q13.3-q13.4	19	NC_000019.10	48954860	48961798	plus	7	600040	
9606	Homo sapiens	575	0	live	ADGRB1	BAI1, GDAIF	adhesion G protein-coupled receptor B1		8q24.3	8	NC_000008.11	142449888	142545008	plus	31	602682	
9606	Homo sapiens	545	0	live	ATR	FCTCS, FRP1, MEC1, SCKL, SCKL1	ATR serine/threonine kinase	FRAP-related protein-1|MEC1, mitosis entry checkpoint 1, homolog|ataxia telangiectasia and Rad3-related protein	3q23	3	NC_000003.12	142449235	142578826	minus	49	601215	
9606	Homo sapiens	472	0	live	ATM	AT1, ATA, ATC, ATD, ATDC, ATE, TEL1, TELO1	ATM serine/threonine kinase	A-T mutated|AT mutated|TEL1, telomere maintenance 1, homolog|ataxia telangiectasia mutated	11q22-q23	11	NC_000011.10	108222500	108369102	plus	69	607585	
9606	Homo sapiens	355	0	live	FAS	ALPS1A, APO-1, APT1, CD951, FASTM, TNFRSF6, FAS	Fas cell surface death receptor	APO-1 cell surface antigen|CD95 antigen|Delta Fas/APO-1/CD95|FAS 827dupA|FAS receptor variant 9|FASLG receptor|Fas (TNF receptor superfamily, member 6)|Fas AMA|TNF receptor superfamily member 6|apoptosis antigen 1|apoptosis-mediating surface antigen FAS|tumor necrosis factor receptor superfamily, member 6	10q24.1	10	NC_000010.11	88969801	89017059	plus	14	134637	
9606	Homo sapiens	317	0	live	APAF1	APAF-1, CED4	apoptotic peptidase activating factor 1		12q23	12	NC_000012.12	98645228	98735433	plus	29	602233	