tax_id	Org_name	GeneID	CurrentID	Status	Symbol	Aliases	description	other_designations	map_location	chromosome	genomic_nucleotide_accession.version	start_position_on_the_genomic_accession	end_position_on_the_genomic_accession	orientation	exon_count	OMIM	
9606	Homo sapiens	102800317	0	live	LOC400927-CSNK1E		LOC400927-CSNK1E readthrough	CKI-epsilon	22q13.1	22	NC_000022.11	38290691	38398522	minus	15		
9606	Homo sapiens	166336	0	live	PRICKLE2	EPM5	prickle homolog 2		3p14.1	3	NC_000003.12	64093850	64445476	minus	14	608501	
9606	Homo sapiens	144165	0	live	PRICKLE1	EPM1B, RILP	prickle homolog 1	REST (RE-1 silencing transcription factor)/NRSF (neuron-restrictive silencer factor)-interacting LIM domain protein|REST/NRSF interacting LIM domain protein|REST/NRSF-interacting LIM domain protein 1|prickle-like 1	12q12	12	NC_000012.12	42458338	42589770	minus	11	608500	
9606	Homo sapiens	122011	0	live	CSNK1A1L	CK1	casein kinase 1, alpha 1-like	CKI-alpha-like|casein kinase I alpha S-like	13q13.3	13	NC_000013.11	37103260	37105664	minus	1		
9606	Homo sapiens	90665	0	live	TBL1Y	TBL1	transducin (beta)-like 1, Y-linked	transducin beta-like 1|transducin beta-like protein 1Y|transducin-beta-like protein 1, Y-linked	Yp11.2	Y	NC_000024.10	6910686	7091749	plus	19	400033	
9606	Homo sapiens	89780	0	live	WNT3A		wingless-type MMTV integration site family member 3A	wingless-type MMTV integration site family, member 3A	1q42	1	NC_000001.11	228007022	228066711	plus	6	606359	
9606	Homo sapiens	85409	0	live	NKD2	Naked2	naked cuticle homolog 2 (Drosophila)	Dvl-binding protein NKD2	5p15.3	5	NC_000005.10	1008820	1038812	plus	11	607852	
9606	Homo sapiens	85407	0	live	NKD1	Naked1	naked cuticle homolog 1 (Drosophila)	Dvl-binding protein|naked cuticle-1|naked-1	16q12.1	16	NC_000016.10	50548330	50649249	plus	14	607851	
9606	Homo sapiens	83439	0	live	TCF7L1	TCF-3, TCF3	transcription factor 7-like 1 (T-cell specific, HMG-box)	HMG box transcription factor 3	2p11.2	2	NC_000002.12	85133460	85310388	plus	12	604652	
9606	Homo sapiens	81839	0	live	VANGL1	KITENIN, LPP2, STB2, STBM2	VANGL planar cell polarity protein 1	KAI1 C-terminal interacting tetraspanin|loop-tail protein 2 homolog|strabismus 2|van Gogh-like protein 1|vang-like 1 (van gogh, Drosophila)	1p13.1	1	NC_000001.11	115641953	115698224	plus	9	610132	
9606	Homo sapiens	81029	0	live	WNT5B		wingless-type MMTV integration site family member 5B	WNT-5B protein|wingless-type MMTV integration site family, member 5B	12p13.3	12	NC_000012.12	1529891	1647213	plus	7	606361	
9606	Homo sapiens	80326	0	live	WNT10A	OODD, SSPS, STHAG4	wingless-type MMTV integration site family member 10A	wingless-type MMTV integration site family, member 10A	2q35	2	NC_000002.12	218874323	218893931	plus	6	606268	
9606	Homo sapiens	80319	0	live	CXXC4	IDAX	CXXC finger protein 4	CXXC finger 4|Dvl-binding protein IDAX (inhibition of the Dvl and Axin complex)|inhibition of the Dvl and axin complex protein	4q24	4	NC_000004.12	104468306	104494901	minus	4	611645	
9606	Homo sapiens	79718	0	live	TBL1XR1	C21, DC42, IRA1, TBLR1	transducin (beta)-like 1 X-linked receptor 1	TBL1-related protein 1|nuclear receptor co-repressor/HDAC3 complex subunit|nuclear receptor corepressor/HDAC3 complex subunit TBLR1|transducin beta-like 1X-related protein 1	3q26.32	3	NC_000003.12	177020754	177197260	minus	21	608628	
9606	Homo sapiens	64840	0	live	PORCN	DHOF, FODH, MG61, PORC, PPN	porcupine homolog (Drosophila)	probable protein-cysteine N-palmitoyltransferase porcupine	Xp11.23	X	NC_000023.11	48508959	48520814	plus	16	300651	
9606	Homo sapiens	64321	0	live	SOX17	VUR3	SRY-box 17	SRY (sex determining region Y)-box 17|SRY box 17|SRY-related HMG-box transcription factor SOX17	8q11.23	8	NC_000008.11	54457935	54460896	plus	2	610928	
9606	Homo sapiens	59343	0	live	SENP2	AXAM2, SMT3IP2	SUMO1/sentrin/SMT3 specific peptidase 2	SMT3-specific isopeptidase 2|SUMO1/sentrin/SMT3 specific protease 2|sentrin/SUMO-specific protease SENP2	3q27.2	3	NC_000003.12	185586228	185631101	plus	17	608261	
9606	Homo sapiens	57680	0	live	CHD8	AUTS18, HELSNF1	chromodomain helicase DNA binding protein 8	ATP-dependent helicase CHD8|axis duplication inhibitor|duplin|helicase with SNF2 domain 1	14q11.2	14	NC_000014.9	21385194	21437298	minus	39	610528	
9606	Homo sapiens	57216	0	live	VANGL2	LPP1, LTAP, STB1, STBM, STBM1	VANGL planar cell polarity protein 2	loop-tail protein 1 homolog|loop-tail-associated protein|strabismus 1|van Gogh-like protein 2|vang-like 2 (van gogh, Drosophila)	1q22-q23	1	NC_000001.11	160400574	160428678	plus	11	600533	
9606	Homo sapiens	56998	0	live	CTNNBIP1	ICAT	catenin beta interacting protein 1	beta-catenin-interacting protein ICAT|catenin, beta interacting protein 1|inhibitor of beta-catenin and Tcf-4	1p36.22	1	NC_000001.11	9848276	9910258	minus	6	607758	
9606	Homo sapiens	54361	0	live	WNT4	SERKAL, WNT-4	wingless-type MMTV integration site family member 4	wingless-type MMTV integration site family, member 4	1p36.23-p35.1	1	NC_000001.11	22117305	22143981	minus	8	603490	
9606	Homo sapiens	51701	0	live	NLK		nemo-like kinase		17q11.2	17	NC_000017.11	28042647	28205140	plus	13	609476	
9606	Homo sapiens	51384	0	live	WNT16		wingless-type MMTV integration site family member 16	wingless-type MMTV integration site family member 16b|wingless-type MMTV integration site family, member 16	7q31	7	NC_000007.14	121325367	121341104	plus	5	606267	
9606	Homo sapiens	51176	0	live	LEF1	LEF-1, TCF10, TCF1ALPHA, TCF7L3	lymphoid enhancer-binding factor 1	T cell-specific transcription factor 1-alpha|TCF1-alpha	4q23-q25	4	NC_000004.12	108047545	108168956	minus	13	153245	
9606	Homo sapiens	50964	0	live	SOST	CDD1, VBCH, SOST	sclerostin		17q11.2	17	NC_000017.11	43753731	43758788	minus	2	605740	
9606	Homo sapiens	27130	0	live	INVS	INV, NPH2, NPHP2	inversin	inversion of embryo turning homolog|inversion of embryonic turning|nephrocystin-2	9q31	9	NC_000009.12	100099185	100338617	plus	25	243305	
9606	Homo sapiens	27123	0	live	DKK2	DKK-2	dickkopf WNT signaling pathway inhibitor 2	dickkopf 2 homolog|dickkopf homolog 2|dickkopf related protein-2|dickkopf-2|hDkk-2	4q25	4	NC_000004.12	106921802	107036296	minus	4	605415	
9606	Homo sapiens	27121	0	live	DKK4	DKK-4	dickkopf WNT signaling pathway inhibitor 4	dickkopf-4|hDkk-4	8p11.2-p11.1	8	NC_000008.11	42373194	42391754	minus	7	605417	
9606	Homo sapiens	27101	0	live	CACYBP	GIG5, PNAS-107, S100A6BP, SIP	calcyclin binding protein	S100A6-binding protein|Siah-interacting protein (SIP)|growth-inhibiting gene 5 protein|hCacyBP	1q24-q25	1	NC_000001.11	174999435	175012027	plus	7	606186	
9606	Homo sapiens	25805	0	live	BAMBI	NMA	BMP and activin membrane-bound inhibitor	non-metastatic gene A protein|putative transmembrane protein NMA	10p12.3-p11.2	10	NC_000010.11	28677495	28682939	plus	3	604444	
9606	Homo sapiens	23500	0	live	DAAM2	dJ90A20A.1	dishevelled associated activator of morphogenesis 2	dishevelled-associated activator of morphogenesis 2	6p21.2	6	NC_000006.12	39792366	39904877	plus	32	606627	
9606	Homo sapiens	23401	0	live	FRAT2		frequently rearranged in advanced T-cell lymphomas 2	FRAT-2|GSK-3 binding protein FRAT2	10q24.1	10	NC_000010.11	97332497	97334701	minus	1	605006	
9606	Homo sapiens	23291	0	live	FBXW11	BTRC2, BTRCP2, FBW1B, FBXW1B, Fbw11, Hos	F-box and WD repeat domain containing 11	F-box and WD repeats protein beta-TrCP2|F-box and WD-40 domain protein 11|F-box and WD-40 domain protein 1B|F-box protein Fbw1b|F-box/WD repeat-containing protein 1B|beta-transducin repeat-containing protein 2|homologous to Slimb protein	5q35.1	5	NC_000005.10	171861549	172006873	minus	17	605651	
9606	Homo sapiens	23236	0	live	PLCB1	EIEE12, PI-PLC, PLC-154, PLC-I, PLC154A, PLCB1B, PLCB1	phospholipase C beta 1	1-phosphatidyl-D-myo-inositol-4,5-bisphosphate|PLC-beta-1|inositoltrisphosphohydrolase|monophosphatidylinositol phosphodiesterase|phosphoinositidase C|phospholipase C, beta 1 (phosphoinositide-specific)|phospholipase C-I|triphosphoinositide phosphodiesterase	20p12	20	NC_000020.11	8132254	8884900	plus	36	607120	
9606	Homo sapiens	23002	0	live	DAAM1		dishevelled associated activator of morphogenesis 1		14q23.1	14	NC_000014.9	59188611	59371405	plus	26	606626	
9606	Homo sapiens	22943	0	live	DKK1	DKK-1, SK	dickkopf WNT signaling pathway inhibitor 1	dickkopf 1 homolog|dickkopf related protein-1|dickkopf-1 like|dickkopf-like protein 1|hDkk-1	10q11.2	10	NC_000010.11	52314281	52317657	plus	4	605189	
9606	Homo sapiens	11211	0	live	FZD10	CD350, FZ-10, Fz10, FzE7, hFz10	frizzled class receptor 10	frizzled 10, seven transmembrane spanning receptor|frizzled family receptor 10|frizzled homolog 10	12q24.33	12	NC_000012.12	130162459	130165740	plus	1	606147	
9606	Homo sapiens	11197	0	live	WIF1	WIF-1	WNT inhibitory factor 1		12q14.3	12	NC_000012.12	65050624	65121566	minus	10	605186	
9606	Homo sapiens	10297	0	live	APC2	APCL	adenomatosis polyposis coli 2	adenomatous polyposis coli like	19p13.3	19	NC_000019.10	1446268	1473244	plus	17	612034	
9606	Homo sapiens	10023	0	live	FRAT1		frequently rearranged in advanced T-cell lymphomas 1	FRAT-1	10q24.1	10	NC_000010.11	97319265	97321915	plus	1	602503	
9606	Homo sapiens	9978	0	live	RBX1	BA554C12.1, RNF75, ROC1	ring-box 1, E3 ubiquitin protein ligase	RING box protein 1|RING finger protein 75|RING-box protein 1|ZYP protein|regulator of cullins 1	22q13.2	22	NC_000022.11	40951347	40973015	plus	5	603814	
9606	Homo sapiens	9475	0	live	ROCK2	ROCK-II	Rho-associated, coiled-coil containing protein kinase 2	p164 ROCK-2|rho-associated, coiled-coil-containing protein kinase II	2p24	2	NC_000002.12	11179764	11345363	minus	35	604002	
9606	Homo sapiens	9350	0	live	CER1	DAND4	cerberus 1, DAN family BMP antagonist	DAN domain family member 4|cerberus 1, cysteine knot superfamily, homolog|cerberus-related 1|cerberus-related protein	9p23-p22	9	NC_000009.12	14719733	14722717	minus	2	603777	
9606	Homo sapiens	8945	0	live	BTRC	BETA-TRCP, FBW1A, FBXW1, FBXW1A, FWD1, bTrCP, bTrCP1, betaTrCP	beta-transducin repeat containing E3 ubiquitin protein ligase	E3RSIkappaB|F-box and WD repeats protein beta-TrCP|F-box and WD-repeat protein 1B|beta-TrCP1|epididymis tissue protein Li 2a|pIkappaBalpha-E3 receptor subunit	10q24.32	10	NC_000010.11	101354033	101557321	plus	16	603482	
9606	Homo sapiens	8607	0	live	RUVBL1	ECP54, INO80H, NMP238, PONTIN, Pontin52, RVB1, TIH1, TIP49, TIP49A	RuvB-like AAA ATPase 1	49 kDa TATA box-binding protein-interacting protein|49 kDa TBP-interacting protein|54 kDa erythrocyte cytosolic protein|ECP-54|INO80 complex subunit H|NMP 238|RuvB (E coli homolog)-like 1|TAP54-alpha|TATA binding protein interacting protein 49 kDa|TIP60-associated protein 54-alpha|nuclear matrix protein 238|pontin 52	3q21	3	NC_000003.12	128064877	128153909	minus	14	603449	
9606	Homo sapiens	8454	0	live	CUL1		cullin 1	CUL-1	7q36.1	7	NC_000007.14	148698178	148801110	plus	26	603134	
9606	Homo sapiens	8326	0	live	FZD9	CD349, FZD3	frizzled class receptor 9	frizzled 9, seven transmembrane spanning receptor|frizzled family receptor 9|frizzled homolog 9|fz-9|fzE6|hFz9	7q11.23	7	NC_000007.14	73433779	73436120	plus	1	601766	
9606	Homo sapiens	8325	0	live	FZD8	FZ-8, hFZ8	frizzled class receptor 8	frizzled 8, seven transmembrane spanning receptor|frizzled family receptor 8|frizzled homolog 8	10p11.21	10	NC_000010.11	35638249	35641434	minus	1	606146	
9606	Homo sapiens	8324	0	live	FZD7	FzE3	frizzled class receptor 7	Frizzled, drosophila, homolog of, 7|frizzled 7, seven transmembrane spanning receptor|frizzled family receptor 7|frizzled homolog 7|fz-7|hFz7	2q33	2	NC_000002.12	202034587	202038437	plus	1	603410	
9606	Homo sapiens	8323	0	live	FZD6	FZ-6, FZ6, HFZ6, NDNC10	frizzled class receptor 6	frizzled 6, seven transmembrane spanning receptor|frizzled family receptor 6|frizzled homolog 6|seven transmembrane helix receptor	8q22.3-q23.1	8	NC_000008.11	103298433	103332866	plus	8	603409	
9606	Homo sapiens	8322	0	live	FZD4	CD344, EVR1, FEVRS, Fz-4, Fz4, FzE4, GPCR, hFz4, FZD4	frizzled class receptor 4	WNT receptor frizzled-4|frizzled 4, seven transmembrane spanning receptor|frizzled family receptor 4|frizzled homolog 4	11q14.2	11	NC_000011.10	86945675	86955398	minus	2	604579	
9606	Homo sapiens	8321	0	live	FZD1		frizzled class receptor 1	Wnt receptor|frizzled 1, seven transmembrane spanning receptor|frizzled family receptor 1|frizzled homolog 1|frizzled, Drosophila, homolog of, 1|fz-1|fzE1|hFz1	7q21	7	NC_000007.14	91264468	91268817	plus	1	603408	
9606	Homo sapiens	8313	0	live	AXIN2	AXIL, ODCRCS	axin 2	axin-like protein|axis inhibition protein 2|conductin	17q24.1	17	NC_000017.11	65528563	65561622	minus	14	604025	
9606	Homo sapiens	8312	0	live	AXIN1	AXIN, PPP1R49	axin 1	axis inhibition protein 1|axis inhibitor 1|fused, mouse, homolog of|protein phosphatase 1, regulatory subunit 49	16p13.3	16	NC_000016.10	287440	361497	minus	15	603816	
9606	Homo sapiens	8061	0	live	FOSL1	FRA, FRA1, fra-1	FOS-like antigen 1	FOS-like antigen-1	11q13	11	NC_000011.10	65892136	65900526	minus	4	136515	
9606	Homo sapiens	7976	0	live	FZD3	Fz-3	frizzled class receptor 3	frizzled 3, seven transmembrane spanning receptor|frizzled family receptor 3|frizzled homolog 3	8p21	8	NC_000008.11	28494205	28574268	plus	15	606143	
9606	Homo sapiens	7855	0	live	FZD5	C2orf31, HFZ5	frizzled class receptor 5	Wnt receptor|frizzled 5, seven transmembrane spanning receptor|frizzled family receptor 5|fz-5|fzE5|seven-transmembrane receptor frizzled-5	2q33.3	2	NC_000002.12	207762586	207769419	minus	2	601723	
9606	Homo sapiens	7484	0	live	WNT9B	WNT14B, WNT15	wingless-type MMTV integration site family member 9B	protein Wnt-14b|wingless-type MMTV integration site family, member 15|wingless-type MMTV integration site family, member 9B	17q21.32	17	NC_000017.11	46833201	46886775	plus	6	602864	
9606	Homo sapiens	7483	0	live	WNT9A	WNT14	wingless-type MMTV integration site family member 9A	wingless-type MMTV integration site family, member 14|wingless-type MMTV integration site family, member 9A	1q42	1	NC_000001.11	227918658	227947975	minus	5	602863	
9606	Homo sapiens	7482	0	live	WNT2B	WNT13	wingless-type MMTV integration site family member 2B	XWNT2, Xenopus, homolog of|wingless-type MMTV integration site family, member 13|wingless-type MMTV integration site family, member 2B	1p13	1	NC_000001.11	112466541	112521288	plus	7	601968	
9606	Homo sapiens	7481	0	live	WNT11	HWNT11	wingless-type MMTV integration site family member 11	wingless-type MMTV integration site family, member 11	11q13.5	11	NC_000011.10	76186326	76214008	minus	9	603699	
9606	Homo sapiens	7480	0	live	WNT10B	SHFM6, WNT-12	wingless-type MMTV integration site family member 10B	WNT-10B protein|wingless-type MMTV integration site family, member 10B	12q13	12	NC_000012.12	48965340	48971858	minus	6	601906	
9606	Homo sapiens	7479	0	live	WNT8B		wingless-type MMTV integration site family member 8B	wingless-type MMTV integration site family, member 8B	10q24	10	NC_000010.11	100463055	100483642	plus	6	601396	
9606	Homo sapiens	7478	0	live	WNT8A	WNT8D	wingless-type MMTV integration site family member 8A	WNT8d|protein Wnt-8d|wingless-type MMTV integration site family, member 8A	5q31	5	NC_000005.10	138083892	138096730	plus	10	606360	
9606	Homo sapiens	7477	0	live	WNT7B		wingless-type MMTV integration site family member 7B	wingless-type MMTV integration site family, member 7B	22q13	22	NC_000022.11	45920362	45977128	minus	5	601967	
9606	Homo sapiens	7476	0	live	WNT7A		wingless-type MMTV integration site family member 7A	proto-oncogene Wnt7a protein|wingless-type MMTV integration site family, member 7A	3p25	3	NC_000003.12	13818217	13880121	minus	6	601570	
9606	Homo sapiens	7475	0	live	WNT6		wingless-type MMTV integration site family member 6	wingless-type MMTV integration site family, member 6	2q35	2	NC_000002.12	218859823	218874233	plus	5	604663	
9606	Homo sapiens	7474	0	live	WNT5A	hWNT5A	wingless-type MMTV integration site family member 5A	WNT-5A protein|wingless-type MMTV integration site family, member 5A	3p21-p14	3	NC_000003.12	55465715	55505261	minus	16	164975	
9606	Homo sapiens	7473	0	live	WNT3	INT4, TETAMS	wingless-type MMTV integration site family member 3	WNT-3 proto-oncogene protein|proto-oncogene Int-4 homolog|wingless-type MMTV integration site family, member 3	17q21	17	NC_000017.11	46762506	46818760	minus	5	165330	
9606	Homo sapiens	7472	0	live	WNT2	INT1L1, IRP	wingless-type MMTV integration site family member 2	Int-1-related protein|int-1-like protein 1|secreted growth factor	7q31.2	7	NC_000007.14	117276631	117323289	minus	5	147870	
9606	Homo sapiens	7471	0	live	WNT1	BMND16, INT1, OI15	wingless-type MMTV integration site family member 1	proto-oncogene Int-1 homolog|wingless-type MMTV integration site family, member 1 (oncogene INT1)	12q13	12	NC_000012.12	48978453	48982613	plus	4	164820	
9606	Homo sapiens	7157	0	live	TP53	BCC7, LFS1, P53, TRP53	tumor protein p53	antigen NY-CO-13|mutant tumor protein 53|p53 tumor suppressor|phosphoprotein p53|transformation-related protein 53|tumor protein 53|tumor supressor p53	17p13.1	17	NC_000017.11	7668402	7687550	minus	12	191170	
9606	Homo sapiens	6934	0	live	TCF7L2	TCF-4, TCF4	transcription factor 7-like 2 (T-cell specific, HMG-box)	HMG box transcription factor 4|T-cell factor 4|T-cell factor-4 variant A|T-cell factor-4 variant B|T-cell factor-4 variant C|T-cell factor-4 variant D|T-cell factor-4 variant E|T-cell factor-4 variant F|T-cell factor-4 variant G|T-cell factor-4 variant H|T-cell factor-4 variant I|T-cell factor-4 variant J|T-cell factor-4 variant K|T-cell factor-4 variant L|T-cell factor-4 variant M|T-cell factor-4 variant X2|T-cell-specific transcription factor 4|hTCF-4	10q25.3	10	NC_000010.11	112950219	113167678	plus	21	602228	
9606	Homo sapiens	6932	0	live	TCF7	TCF-1	transcription factor 7 (T-cell specific, HMG-box)	T-cell-specific transcription factor 1	5q31.1	5	NC_000005.10	134114703	134148229	plus	17	189908	
9606	Homo sapiens	6907	0	live	TBL1X	EBI, SMAP55, TBL1	transducin (beta)-like 1X-linked	transducin beta-like protein 1X|transducin-beta-like protein 1, X-linked	Xp22.3	X	NC_000023.11	9463295	9719740	plus	20	300196	
9606	Homo sapiens	6885	0	live	MAP3K7	MEKK7, TAK1, TGF1a	mitogen-activated protein kinase kinase kinase 7	TGF-beta activated kinase 1|TGF-beta-activated kinase 1|transforming growth factor-beta-activated kinase 1	6q15	6	NC_000006.12	90513573	90587301	minus	17	602614	
9606	Homo sapiens	6500	0	live	SKP1	EMC19, OCP-II, OCP2A, TCEB1L, p19A, SKP1	S-phase kinase-associated protein 1	OCP-2|RNA polymerase II elongation factor-like protein OCP2|SIII|cyclin A/CDK2-associated p19|cyclin A/CDK2-associated protein p19|cyclin-A/CDK2-associated protein p19|organ of Corti protein 2|organ of Corti protein II|p19skp1|transcription elongation factor B polypeptide 1-like	5q31	5	NC_000005.10	134156391	134177033	minus	5	601434	
9606	Homo sapiens	6477	0	live	SIAH1	SIAH1A	siah E3 ubiquitin protein ligase 1	seven in absentia homolog 1|siah-1a	16q12.1	16	NC_000016.10	48360531	48448440	minus	8	602212	
9606	Homo sapiens	6425	0	live	SFRP5	SARP3	secreted frizzled-related protein 5	FRP-1b|SARP-3|frizzled-related protein 1b|sFRP-5|secreted apoptosis related protein 3|secreted apoptosis-related protein 3	10q24.1	10	NC_000010.11	97766751	97771999	minus	3	604158	
9606	Homo sapiens	6424	0	live	SFRP4	FRP-4, FRPHE, sFRP-4	secreted frizzled-related protein 4	frizzled protein, human endometrium|secreted frizzled-related protein 4; secreted frizzled-related protein 4	7p14.1	7	NC_000007.14	37905932	37916923	minus	6	606570	
9606	Homo sapiens	6423	0	live	SFRP2	FRP-2, SARP1, SDF-5	secreted frizzled-related protein 2	SARP-1|sFRP-2|secreted apoptosis related protein 1|secreted apoptosis-related protein 1	4q31.3	4	NC_000004.12	153780590	153789076	minus	3	604157	
9606	Homo sapiens	6422	0	live	SFRP1	FRP, FRP-1, FRP1, FrzA, SARP2	secreted frizzled-related protein 1	SARP-2|sFRP-1|secreted apoptosis-related protein 2	8p11.21	8	NC_000008.11	41261957	41309471	minus	3	604156	
9606	Homo sapiens	5881	0	live	RAC3		ras-related C3 botulinum toxin substrate 3 (rho family, small GTP binding protein Rac3)	p21-Rac3|rho family, small GTP binding protein Rac3	17q25.3	17	NC_000017.11	82031656	82034204	plus	6	602050	
9606	Homo sapiens	5880	0	live	RAC2	EN-7, Gx, HSPC022, p21-Rac2	ras-related C3 botulinum toxin substrate 2 (rho family, small GTP binding protein Rac2)	Ras-related C3 botulinum toxin substrate 3 (rho family, small GTP-binding protein Rac2)|small G protein	22q13.1	22	NC_000022.11	37225261	37244299	minus	8	602049	
9606	Homo sapiens	5879	0	live	RAC1	MIG5, Rac-1, TC-25, p21-Rac1	ras-related C3 botulinum toxin substrate 1 (rho family, small GTP binding protein Rac1)	cell migration-inducing gene 5 protein|ras-like protein TC25	7p22	7	NC_000007.14	6374495	6403967	plus	7	602048	
9606	Homo sapiens	5663	0	live	PSEN1	AD3, FAD, PS-1, PS1, S182	presenilin 1		14q24.3	14	NC_000014.9	73136435	73223691	plus	14	104311	
9606	Homo sapiens	5602	0	live	MAPK10	JNK3, JNK3A, PRKM10, SAPK1b, p493F12, p54bSAPK	mitogen-activated protein kinase 10	JNK3 alpha protein kinase|MAP kinase 10|MAP kinase p49 3F12|MAPK 10|c-Jun N-terminal kinase 3|stress activated protein kinase beta|stress-activated protein kinase 1b|stress-activated protein kinase JNK3	4q22.1-q23	4	NC_000004.12	86012299	86594110	minus	22	602897	
9606	Homo sapiens	5601	0	live	MAPK9	JNK-55, JNK2, JNK2A, JNK2ALPHA, JNK2B, JNK2BETA, PRKM9, SAPK, SAPK1a, p54a, p54aSAPK	mitogen-activated protein kinase 9	Jun kinase|MAP kinase 9|MAPK 9|c-Jun N-terminal kinase 2|c-Jun kinase 2|stress-activated protein kinase 1a|stress-activated protein kinase JNK2	5q35	5	NC_000005.10	180233594	180292071	minus	16	602896	
9606	Homo sapiens	5599	0	live	MAPK8	JNK, JNK-46, JNK1, JNK1A2, JNK21B1/2, PRKM8, SAPK1, SAPK1c	mitogen-activated protein kinase 8	JUN N-terminal kinase|MAP kinase 8|c-Jun N-terminal kinase 1|mitogen-activated protein kinase 8 isoform JNK1 alpha1|mitogen-activated protein kinase 8 isoform JNK1 beta2|stress-activated protein kinase 1|stress-activated protein kinase 1c	10q11.22	10	NC_000010.11	48306639	48439360	plus	15	601158	
9606	Homo sapiens	5582	0	live	PRKCG	PKC-gamma, PKCC, PKCG, SCA14	protein kinase C, gamma		19q13.4	19	NC_000019.10	53882213	53907652	plus	19	176980	
9606	Homo sapiens	5579	0	live	PRKCB	PKC-beta, PKCB1, PRKCB2, PRKCB	protein kinase C, beta	PKC-B|protein kinase C, beta 1 polypeptide	16p11.2	16	NC_000016.10	23835979	24220611	plus	17	176970	
9606	Homo sapiens	5578	0	live	PRKCA	AAG6, PKC-alpha, PKCA, PRKACA	protein kinase C, alpha	PKC-A|aging-associated gene 6	17q22-q23.2	17	NC_000017.11	66302782	66810744	plus	21	176960	
9606	Homo sapiens	5568	0	live	PRKACG	BDPLT19, KAPG, PKACg	protein kinase, cAMP-dependent, gamma catalytic subunit	PKA C-gamma|protein kinase, cAMP-dependent, catalytic, gamma|serine(threonine) protein kinase	9q13	9	NC_000009.12	69012529	69014123	minus	1	176893	
9606	Homo sapiens	5567	0	live	PRKACB	PKA C-beta, PKACB	protein kinase, cAMP-dependent, beta catalytic subunit	cAMP-dependent protein kinase catalytic beta subunit isoform 4ab|protein kinase A catalytic subunit beta|protein kinase, cAMP-dependent, catalytic, beta	1p31.1	1	NC_000001.11	84077975	84238498	plus	18	176892	
9606	Homo sapiens	5566	0	live	PRKACA	PKACA, PPNAD4	protein kinase, cAMP-dependent, alpha catalytic subunit	PKA C-alpha|cAMP-dependent protein kinase catalytic subunit alpha|protein kinase A catalytic subunit|protein kinase, cAMP-dependent, catalytic, alpha	19p13.1	19	NC_000019.10	14091688	14117747	minus	12	601639	
9606	Homo sapiens	5535	0	live	PPP3R2	PPP3RL	protein phosphatase 3 regulatory subunit B, beta	CBLP|CNBII|calcineurin B, type II (19kDa)|calcineurin B-like protein|calcineurin BII|protein phosphatase 2B regulatory subunit 2|protein phosphatase 3 (formerly 2B), regulatory subunit B (19kD), beta isoform (calcineurin B, type II)|protein phosphatase 3 (formerly 2B), regulatory subunit B, 19kDa, beta isoform (calcineurin B, type II)|protein phosphatase 3 (formerly 2B), regulatory subunit B, beta isoform|protein phosphatase 3 regulatory subunit B beta isoform|protein phosphatase 3, regulatory subunit B, beta	9q31.1	9	NC_000009.12	101591615	101595001	minus	1	613821	
9606	Homo sapiens	5534	0	live	PPP3R1	CALNB1, CNB, CNB1	protein phosphatase 3 regulatory subunit B, alpha	calcineurin B, type I (19kDa)|protein phosphatase 2B regulatory subunit 1|protein phosphatase 2B regulatory subunit B alpha|protein phosphatase 3 (formerly 2B), regulatory subunit B (19kD), alpha isoform (calcineurin B, type I)|protein phosphatase 3 (formerly 2B), regulatory subunit B, 19kDa, alpha isoform (calcineurin B, type I)|protein phosphatase 3 (formerly 2B), regulatory subunit B, alpha isoform|protein phosphatase 3, regulatory subunit B, alpha	2p15	2	NC_000002.12	68178857	68252519	minus	6	601302	
9606	Homo sapiens	5533	0	live	PPP3CC	CALNA3, CNA3, PP2Bgamma	protein phosphatase 3, catalytic subunit, gamma isozyme	CAM-PRP catalytic subunit|calcineurin, testis-specific catalytic subunit|calmodulin-dependent calcineurin A subunit gamma isoform|protein phosphatase 2B, catalytic subunit, gamma isoform|protein phosphatase 3 (formerly 2B), catalytic subunit, gamma isoform	8p21.3	8	NC_000008.11	22440970	22541144	plus	17	114107	
9606	Homo sapiens	5532	0	live	PPP3CB	CALNA2, CALNB, CNA2, PP2Bbeta	protein phosphatase 3, catalytic subunit, beta isozyme	CAM-PRP catalytic subunit|calcineurin A beta|calcineurin A2|calmodulin-dependent calcineurin A subunit beta isoform|protein phosphatase 2B, catalytic subunit, beta isoform|protein phosphatase 3 (formerly 2B), catalytic subunit, beta isoform|protein phosphatase from PCR fragment H32	10q22.2	10	NC_000010.11	73436428	73496024	minus	17	114106	
9606	Homo sapiens	5530	0	live	PPP3CA	CALN, CALNA, CALNA1, CCN1, CNA1, PPP2B	protein phosphatase 3, catalytic subunit, alpha isozyme	CAM-PRP catalytic subunit|calcineurin A alpha|calmodulin-dependent calcineurin A subunit alpha isoform|protein phosphatase 2B, catalytic subunit, alpha isoform|protein phosphatase 3 (formerly 2B), catalytic subunit, alpha isoform	4q24	4	NC_000004.12	101023430	101347471	minus	14	114105	
9606	Homo sapiens	5467	0	live	PPARD	FAAR, NR1C2, NUC1, NUCI, NUCII, PPARB	peroxisome proliferator-activated receptor delta	PPAR-beta|PPAR-delta|nuclear hormone receptor 1|nuclear receptor subfamily 1 group C member 2|peroxisome proliferator-activated nuclear receptor beta/delta variant 2|peroxisome proliferator-activated receptor beta	6p21.2	6	NC_000006.12	35342558	35428191	plus	11	600409	
9606	Homo sapiens	5332	0	live	PLCB4	ARCND2, PI-PLC	phospholipase C beta 4	1-phosphatidyl-D-myo-inositol-4,5-bisphosphate|PLC-beta-4|dJ1119D9.2 (Phopholipase C, beta 4 (1-Phosphatidylinositol-4,5-Bisphosphate Phosphodiesterase Beta 4))|inositoltrisphosphohydrolase|monophosphatidylinositol phosphodiesterase|phosphoinositidase C|phosphoinositide phospholipase C-beta-4|phospholipase C, beta 4|triphosphoinositide phosphodiesterase	20p12	20	NC_000020.11	9068710	9480816	plus	43	600810	
9606	Homo sapiens	5331	0	live	PLCB3		phospholipase C beta 3	PLC beta 3|PLC-beta-3|phosphoinositide phospholipase C-beta-3|phospholipase C, beta 3 (phosphatidylinositol-specific)	11q13	11	NC_000011.10	64251523	64269452	plus	31	600230	
9606	Homo sapiens	5330	0	live	PLCB2	PLC-beta-2	phospholipase C beta 2	phosphoinositide phospholipase C-beta-2|phospholipase C, beta 2	15q15	15	NC_000015.10	40284260	40307973	minus	36	604114	
9606	Homo sapiens	5176	0	live	SERPINF1	EPC-1, OI12, OI6, PEDF, PIG35	serpin peptidase inhibitor, clade F (alpha-2 antiplasmin, pigment epithelium derived factor), member 1	cell proliferation-inducing gene 35 protein|serine (or cysteine) proteinase inhibitor, clade F (alpha-2 antiplasmin, pigment epithelium derived factor), member 1|serpin F1	17p13.3	17	NC_000017.11	1761965	1777565	plus	8	172860	
9606	Homo sapiens	4776	0	live	NFATC4	NF-AT3, NF-ATC4, NFAT3	nuclear factor of activated T-cells, cytoplasmic, calcineurin-dependent 4	T-cell transcription factor NFAT3	14q11.2	14	NC_000014.9	24366911	24379604	plus	12	602699	
9606	Homo sapiens	4775	0	live	NFATC3	NFAT4, NFATX	nuclear factor of activated T-cells, cytoplasmic, calcineurin-dependent 3	NF-ATc3|T cell transcription factor NFAT4|nuclear factor of activated T-cells c3 isoform IE-Xa	16q22.2	16	NC_000016.10	68085366	68229259	plus	12	602698	
9606	Homo sapiens	4773	0	live	NFATC2	NFAT1, NFATP	nuclear factor of activated T-cells, cytoplasmic, calcineurin-dependent 2	NF-ATc2|NFAT pre-existing subunit|NFAT transcription complex, preexisting component|T cell transcription factor NFAT1|T-cell transcription factor NFAT1|nuclear factor of activated T-cells, preexisting component|preexisting nuclear factor of activated T-cells 2	20q13.2	20	NC_000020.11	51386957	51562858	minus	13	600490	
9606	Homo sapiens	4772	0	live	NFATC1	NF-ATC, NF-ATc1.2, NFAT2, NFATc	nuclear factor of activated T-cells, cytoplasmic, calcineurin-dependent 1	NFAT transcription complex cytosolic component|nuclear factor of activated T-cells 'c'	18q23	18	NC_000018.10	79395772	79529323	plus	11	600489	
9606	Homo sapiens	4609	0	live	MYC	MRTLC, bHLHe39, c-Myc, MYC	v-myc avian myelocytomatosis viral oncogene homolog	avian myelocytomatosis viral oncogene homolog|class E basic helix-loop-helix protein 39|myc-related translation/localization regulatory factor|proto-oncogene c-Myc|transcription factor p64|v-myc myelocytomatosis viral oncogene homolog	8q24.21	8	NC_000008.11	127736069	127741434	plus	3	190080	
9606	Homo sapiens	4316	0	live	MMP7	MMP-7, MPSL1, PUMP-1	matrix metallopeptidase 7	matrin|matrix metallopeptidase 7 (matrilysin, uterine)|matrix metalloproteinase 7 (matrilysin, uterine)|matrix metalloproteinase-7|pump-1 protease|uterine matrilysin|uterine metalloproteinase	11q22.2	11	NC_000011.10	102520508	102530747	minus	6	178990	
9606	Homo sapiens	4089	0	live	SMAD4	DPC4, JIP, MADH4, MYHRS	SMAD family member 4	MAD homolog 4|SMAD, mothers against DPP homolog 4|deleted in pancreatic carcinoma locus 4|deletion target in pancreatic carcinoma 4|mothers against decapentaplegic, Drosophila, homolog of, 4	18q21.1	18	NC_000018.10	51030213	51085042	plus	12	600993	
9606	Homo sapiens	4088	0	live	SMAD3	HSPC193, HsT17436, JV15-2, LDS1C, LDS3, MADH3	SMAD family member 3	MAD homolog 3|MAD, mothers against decapentaplegic homolog 3|SMA- and MAD-related protein 3|SMAD, mothers against DPP homolog 3|hMAD-3|hSMAD3|mad homolog JV15-2|mad protein homolog|mad3|mothers against DPP homolog 3	15q22.33	15	NC_000015.10	67065627	67195195	plus	13	603109	
9606	Homo sapiens	4041	0	live	LRP5	BMND1, EVR1, EVR4, HBM, LR3, LRP-5, LRP7, OPPG, OPS, OPTA1, VBCH2	LDL receptor related protein 5	low density lipoprotein receptor-related protein 5|low density lipoprotein receptor-related protein 7	11q13.4	11	NC_000011.10	68298866	68449275	plus	27	603506	
9606	Homo sapiens	4040	0	live	LRP6	ADCAD2	LDL receptor related protein 6	LRP-6|low density lipoprotein receptor-related protein 6	12p13.2	12	NC_000012.12	12116025	12267007	minus	23	603507	
9606	Homo sapiens	3725	0	live	JUN	AP-1, AP1, c-Jun	jun proto-oncogene	Jun activation domain binding protein|activator protein 1|enhancer-binding protein AP1|jun oncogene|p39|proto-oncogene c-Jun|v-jun avian sarcoma virus 17 oncogene homolog|v-jun sarcoma virus 17 oncogene homolog	1p32-p31	1	NC_000001.11	58780791	58784113	minus	1	165160	
9606	Homo sapiens	2932	0	live	GSK3B		glycogen synthase kinase 3 beta	GSK-3 beta|GSK3beta isoform|serine/threonine-protein kinase GSK3B	3q13.3	3	NC_000003.12	119821321	120094417	minus	12	605004	
9606	Homo sapiens	2535	0	live	FZD2	Fz2, fz-2, fzE2, hFz2	frizzled class receptor 2	frizzled 2, seven transmembrane spanning receptor|frizzled family receptor 2|frizzled homolog 2	17q21.31	17	NC_000017.11	44557444	44561262	plus	1	600667	
9606	Homo sapiens	2239	0	live	GPC4	K-glypican	glypican 4	dJ900E8.1 (glypican 4)|glypican proteoglycan 4	Xq26.1	X	NC_000023.11	133301036	133415177	minus	9	300168	
9606	Homo sapiens	2033	0	live	EP300	KAT3B, RSTS2, p300	E1A binding protein p300	E1A-associated protein p300|E1A-binding protein, 300kD|p300 HAT	22q13.2	22	NC_000022.11	41092610	41180077	plus	31	602700	
9606	Homo sapiens	1857	0	live	DVL3		dishevelled segment polarity protein 3	DSH homolog 3|dishevelled 3 (homologous to Drosophila dsh)|dishevelled, dsh homolog 3|dishevelled-3	3q27	3	NC_000003.12	184155311	184173526	plus	15	601368	
9606	Homo sapiens	1856	0	live	DVL2		dishevelled segment polarity protein 2	dishevelled 2 (homologous to Drosophila dsh)|dishevelled, dsh homolog 2	17p13.1	17	NC_000017.11	7225342	7234548	minus	16	602151	
9606	Homo sapiens	1855	0	live	DVL1	DRS2, DVLL1, DVL1P1, DVL1	dishevelled segment polarity protein 1	DSH homolog 1|dishevelled 1 (homologous to Drosophila dsh)|dishevelled, dsh homolog 1|dishevelled-1	1p36	1	NC_000001.11	1335278	1349158	minus	16	601365	
9606	Homo sapiens	1499	0	live	CTNNB1	CTNNB, MRD19, armadillo	catenin beta 1	catenin (cadherin-associated protein), beta 1, 88kDa	3p21	3	NC_000003.12	41199451	41240448	plus	17	116806	
9606	Homo sapiens	1488	0	live	CTBP2		C-terminal binding protein 2	ribeye	10q26.13	10	NC_000010.11	124987849	125161055	minus	21	602619	
9606	Homo sapiens	1487	0	live	CTBP1	BARS	C-terminal binding protein 1	brefeldin A-ribosylated substrate	4p16	4	NC_000004.12	1211440	1250248	minus	14	602618	
9606	Homo sapiens	1460	0	live	CSNK2B	CK2B, CK2N, CSK2B, G5A	casein kinase 2, beta polypeptide	CK II beta|CSNK2B-LY6G5B-1072|CSNK2B-LY6G5B-1103|CSNK2B-LY6G5B-532|CSNK2B-LY6G5B-560|CSNK2B-LY6G5B-562|Casein kinase II beta subunit|alternative name: G5a, phosvitin|casein kinase II b subunit splicing isoform 132|casein kinase II b subunit splicing isoform 247|casein kinase II b subunit splicing isoform 318|casein kinase II b subunit splicing isoform 660|casein kinase II b subunit splicing isoform 806|chimera CSNK2B-LY6G5B splicing isoform 1072|chimera CSNK2B-LY6G5B splicing isoform 1103|chimera CSNK2B-LY6G5B splicing isoform 532|chimera CSNK2B-LY6G5B splicing isoform 560|chimera CSNK2B-LY6G5B splicing isoform 562|phosvitin|protein G5a	6p21.3	6	NC_000006.12	31665880	31670070	plus	7	115441	
9606	Homo sapiens	1459	0	live	CSNK2A2	CK2A2, CSNK2A1	casein kinase 2, alpha prime polypeptide	CK II alpha'	16q21	16	NC_000016.10	58157907	58197878	minus	12	115442	
9606	Homo sapiens	1457	0	live	CSNK2A1	CK2A1, CKII, CSNK2A3	casein kinase 2, alpha 1 polypeptide	CK II alpha 3|CK2 catalytic subunit alpha|casein kinase II alpha 1 polypeptide pseudogene|casein kinase II alpha 1 subunit|protein kinase CK2	20p13	20	NC_000020.11	472969	543838	minus	16	115440	
9606	Homo sapiens	1454	0	live	CSNK1E	CKIepsilon, HCKIE	casein kinase 1, epsilon	CKI-epsilon|CKIe	22q13.1	22	NC_000022.11	38290691	38318084	minus	12	600863	
9606	Homo sapiens	1452	0	live	CSNK1A1	CK1, CK1a, CKIa, HEL-S-77p, HLCDGP1, PRO2975	casein kinase 1, alpha 1	CKI-alpha|clock regulator kinase|down-regulated in lung cancer|epididymis secretory sperm binding protein Li 77p	5q32	5	NC_000005.10	149495894	149551552	minus	11	600505	
9606	Homo sapiens	1387	0	live	CREBBP	CBP, KAT3A, RSTS	CREB binding protein		16p13.3	16	NC_000016.10	3725054	3880120	minus	34	600140	
9606	Homo sapiens	896	0	live	CCND3		cyclin D3	D3-type cyclin	6p21	6	NC_000006.12	41934933	42048894	minus	7	123834	
9606	Homo sapiens	894	0	live	CCND2	KIAK0002, MPPH3	cyclin D2		12p13	12	NC_000012.12	4273733	4305356	plus	6	123833	
9606	Homo sapiens	818	0	live	CAMK2G	CAMK, CAMK-II, CAMKG	calcium/calmodulin-dependent protein kinase II gamma	caMK-II subunit gamma|calcium/calmodulin-dependent protein kinase (CaM kinase) II gamma	10q22	10	NC_000010.11	73812501	73874591	minus	27	602123	
9606	Homo sapiens	817	0	live	CAMK2D	CAMKD	calcium/calmodulin-dependent protein kinase II delta	CaM kinase II delta subunit|CaM-kinase II delta chain|CaMK-II delta subunit|caM kinase II subunit delta|caMK-II subunit delta|calcium/calmodulin-dependent protein kinase (CaM kinase) II delta|calcium/calmodulin-dependent protein kinase type II delta chain	4q26	4	NC_000004.12	113451032	113762133	minus	27	607708	
9606	Homo sapiens	816	0	live	CAMK2B	CAM2, CAMK2, CAMKB	calcium/calmodulin-dependent protein kinase II beta	CaM kinase II beta subunit|CaM-kinase II beta chain|caMK-II subunit beta|proline rich calmodulin-dependent protein kinase	7p14.3-p14.1	7	NC_000007.14	44217150	44325994	minus	29	607707	
9606	Homo sapiens	815	0	live	CAMK2A	CAMKA	calcium/calmodulin-dependent protein kinase II alpha	CaM kinase II alpha subunit|CaM-kinase II alpha chain|CaMK-II alpha subunit|CaMKIINalpha|caM kinase II subunit alpha|caMK-II subunit alpha|calcium/calmodulin-dependent protein kinase (CaM kinase) II alpha|calcium/calmodulin-dependent protein kinase II alpha-B subunit|calcium/calmodulin-dependent protein kinase type II alpha chain	5q32	5	NC_000005.10	150219491	150289840	minus	19	114078	
9606	Homo sapiens	595	0	live	CCND1	BCL1, D11S287E, PRAD1, U21B31	cyclin D1	B-cell CLL/lymphoma 1|B-cell lymphoma 1 protein|BCL-1 oncogene|PRAD1 oncogene	11q13	11	NC_000011.10	69641105	69654474	plus	6	168461	
9606	Homo sapiens	387	0	live	RHOA	ARH12, ARHA, RHO12, RHOH12	ras homolog family member A	Aplysia ras-related homolog 12|oncogene RHO H12|small GTP binding protein RhoA	3p21.3	3	NC_000003.12	49359136	49412093	minus	6	165390	
9606	Homo sapiens	324	0	live	APC	BTPS2, DP2, DP2.5, DP3, GS, PPP1R46	adenomatous polyposis coli	adenomatosis polyposis coli tumor suppressor|deleted in polyposis 2.5|protein phosphatase 1, regulatory subunit 46|truncated adenomatosis polyposis coli	5q21-q22	5	NC_000005.10	112707505	112846239	plus	18	611731	