CELL_LINE,0,1,2,3,4,5,6,7,8,9,10,11,12,13,14,15,16,17,18,19,20,21,22,23,24,25,26,27,28,29,30,31,32,33,34,35,36,37,38,39,40,41,42,43,44,45,46,47,48,49
22RV1,-166.624201249,16.9290618912,-12.9891344644,60.2614121169,-53.5824866066,3.55032361371,-4.27539663274,14.2208729801,-20.5802673957,15.4381337567,-1.48333995207,5.95428348451,-14.3309546219,3.36188004201,-20.2088328672,13.3448403377,-10.6852398554,1.55743583613,-18.1429327968,5.50303922397,4.02418149334,-11.5058017178,-5.70519826768,5.59455683044,-14.3319467576,-2.20080737263,2.76718361126,3.96255832332,-12.6420112997,1.96339173494,12.3154135971,6.97977502114,-20.0446051009,-10.053722308,-6.51900771038,12.2071993683,4.80401350632,0.46860272333,7.35850498593,-20.8156647685,-11.9682769998,-24.4784641512,8.79665740613,14.4188871763,17.8322843073,-11.8428430452,-0.146549564329,-5.78697384117,-2.58527495591,-10.2354862914
647-V,-118.132647374,-11.2669350376,-26.5819586179,-45.2948295648,13.4455260926,17.9322832145,14.5134559165,7.79596026914,-13.2761085868,6.68136627526,-0.555940656349,-15.2119751894,28.4531666441,-31.4865111164,-27.7582954778,-26.6497802642,31.4539295737,-15.1245003799,-1.47382838937,27.4285405098,-22.9885990291,-26.4565186733,-7.88448188219,16.0840154523,2.05008901055,5.83010896952,-15.6237138408,45.5856692857,17.6744245655,-4.15123770117,12.9321003383,1.96666139261,21.1986190436,22.0086395185,37.2208081611,11.916385284,13.9432260087,-37.6895246144,-0.694670595319,-4.31307079508,21.1404583986,-8.58086048397,-4.73117050486,-12.363957516,31.0797426144,-4.87071627413,22.4925368902,-25.8814632385,17.0562806688,8.93737713151
A549,-55.9678543213,21.6143289203,15.8545773031,41.2620209504,51.6894497958,42.0335111194,-8.06343962946,25.1525877855,16.5415028294,22.130376084,-22.7354319842,-20.149489584,-2.62561992812,30.7242817591,29.2127562909,14.8942210893,8.94276070681,34.4740037493,12.9075247255,-16.9001109842,-7.10466238748,-21.5278552232,-1.47004952598,25.1063140129,4.81219586733,1.86056919756,-1.35169377014,-20.5578073402,-18.8785425939,-5.85199429809,40.5528339223,16.4297107314,-10.4629178661,14.4141255742,5.88074418809,5.0686108978,-14.4259354223,-20.9282753293,-42.1423413936,22.669654654,-18.7182604635,9.08513702295,-18.5003907177,9.90562802814,5.76608672062,31.773047446,-14.4157526582,48.26223261,14.2821068127,4.33760364456
BFTC-905,-64.0983823895,-47.2832623496,14.2529710694,-20.5684860608,40.0539200833,38.5259762099,-9.97211705377,-9.66773602534,5.32476509758,-31.1719368415,18.0958820785,-1.1325799527,-7.69896920395,-10.6082889497,-12.2209847825,3.03182679902,-5.1083038379,-14.9610334827,-21.9123990344,-23.1924626968,30.5234352303,-3.02009929406,-59.1943420985,-27.0963084611,-0.864000638776,13.786943208,-7.6441638584,20.2747095655,30.0858026423,10.8672114619,-4.83783302269,13.8027935986,-16.0594577494,21.491598571,-10.9094055987,-25.1006055001,-12.7136564617,10.7836385886,17.9117790612,57.1313775105,46.9632402101,36.5621727125,41.6600966804,-4.97121871593,45.8055657292,-24.4756728434,-0.0175701759503,1.25963805254,15.4380519555,-8.22154658429
BT-20,-107.025457503,-3.80620802127,-35.2667652928,-38.1865304077,20.05002823,-3.34973167264,-3.0026100525,0.701417748225,-15.9156386938,-4.03245713352,-16.1393446487,25.4978366761,10.1622985621,7.46815141243,-36.8419917441,-8.15518136693,76.827201966,82.233670249,6.1078532019,45.8659708037,18.9324850971,-20.8341962262,43.882117315,-45.7666631147,-43.5108994728,-30.868536048,-25.1262220564,33.0562770367,-0.537187974493,2.35486387346,12.4871655668,-17.4261721084,3.92963856082,-10.4764657158,24.4943633168,-9.97137993508,4.778595275,-14.0337773187,22.3333161999,12.3014369287,-4.28320699313,-10.137845886,-7.98847664952,4.01887795079,-13.8275539428,18.1902728613,26.0598169407,10.6104864086,-7.72355835428,-12.9184161319
BT-474,-55.4782807097,-10.0976020195,32.9650711992,33.9627689551,49.8149249351,-44.701352491,-2.98254892509,-68.9749731059,-18.7602796702,28.4957048463,-40.184913114,-31.9105819568,51.0703019115,-92.224929451,1.37882002146,21.5452539335,38.6695375474,5.32876133842,-16.2678010294,-3.11969194941,94.1237008037,-14.036441589,-53.6833932827,-49.2720965923,67.0110812683,-34.771855446,17.277257074,5.97754244699,-69.0932780912,-31.4695149741,-38.2644223126,-20.1918448681,-48.9469397979,19.1113245423,12.1759500084,37.7504995007,-4.95370440544,14.8162756129,4.6731350093,-4.13080343008,-17.7369586998,1.43780905239,-15.123018701,-7.99395163947,-28.849135601,17.2300854633,26.0275714502,-14.6314942857,12.2119795468,-0.920947337186
BT-549,-25.2358951827,-46.9048560134,-102.210804088,-87.830564373,-44.1020699232,-26.3680700818,21.0003497054,-18.5458073212,-39.4526094518,0.705702645861,-24.9027336805,32.4401228569,-19.6469343999,10.0416495396,-11.3551527236,26.4490355092,25.7640222925,-68.4037354689,37.5665697089,-15.5910044568,-16.7969165002,29.5329873858,12.9285234201,27.992466645,7.56886538072,-33.8640428291,-5.48853709208,-17.8848099129,-6.4812712679,-1.07711671035,-35.3030771937,18.3064978231,-7.8633376947,-21.5726511447,49.0006516745,-10.5346204436,-7.45725789968,1.1008194628,3.20083648701,-17.1970677636,-19.4679933218,25.1392524797,19.572745964,0.686435719291,11.8771091912,-7.29493597154,-2.12819214997,-19.8169308518,-14.6783787766,11.8944496974
C32,-164.166059057,60.2427470957,-44.0830971568,55.7937018916,-10.3850334364,23.4868121327,-13.8525492658,-14.4791520655,23.2137761561,-18.7744413379,36.595853985,-22.8290070975,-11.1609558832,-25.4795563722,15.340098732,-12.6886032868,7.25109756275,-18.7835654372,-3.33499981275,21.582942186,17.5381883109,7.96052011754,-43.0725562856,2.60620450881,-7.97601839076,41.8246303737,-18.2768808662,28.0021236607,-10.0644391241,-1.18431161542,12.6360997909,-15.2470151613,29.1496256851,7.57547983104,21.2493402956,0.787063945084,5.86808972382,3.38864820038,-22.1130539515,-47.3574821776,-4.41123893944,-10.942945534,16.2425036787,-22.9634164886,5.98447200109,-2.78761612345,-29.9149208992,-31.6151869365,-19.5936641162,21.3243716536
CAL-120,42.2026838143,-89.8643790395,-69.1992822214,-30.6247218672,60.4413231219,-19.6297793493,-43.9911336728,42.9930923907,-14.6097111709,63.7212807315,16.0987078977,-114.39663343,29.4776654118,-48.6171815931,21.1475715843,-0.801968034955,-61.8775895846,-6.04322158078,-23.5333476921,33.0340557077,-4.06628956775,36.1921391169,110.387757701,-38.7417561916,-18.9446893396,32.9397760523,-4.13958752897,-4.95036123142,-9.96890188971,12.7305743368,-19.9147746441,32.3192271251,-11.0514690835,23.2612220431,15.0758886556,15.984004598,20.0883231114,14.5593967304,-16.7945822379,-4.66624648931,46.4777311471,11.1327913574,10.6931750383,53.2266552197,-17.7549886252,-2.56979854519,-2.98068885413,-3.07408947919,15.0558244707,10.6322571556
CAL-148,-178.421259704,74.2170925673,-10.7196121395,-1.80333018905,-22.8833670643,-45.9339724436,5.33584502476,35.2710902491,5.44304877267,22.6175434956,4.47017004275,18.3192630443,-32.370643949,-4.69762282232,5.97696478888,24.752614863,3.19604969628,-14.3350671828,9.29844501863,-31.7929464357,-3.09322573869,-11.6150166599,17.3363832788,-18.6019752206,30.1095812791,2.7560199007,7.17748531191,5.81815818519,25.7754498747,-15.3103348187,-2.83102789462,-9.00443013956,8.84556885367,11.3042425601,16.0763188377,23.6499931883,9.61255828589,14.2358868514,-44.2058053397,1.64105076364,13.2415825171,18.8580084012,-12.1639729132,7.10817032278,-3.88675592503,6.21856806944,4.28195629836,4.03189249929,-32.6673804602,-43.4757838261
CAL-51,-162.217331697,59.1959718305,-11.2221179786,24.361942859,-69.2652504976,-43.6156465217,20.0703102513,15.2892391173,-9.33432462007,-14.9712440457,-0.963958458276,7.93155093957,-6.4310507803,18.970866243,-18.704106289,24.0508255117,1.28170753538,25.5072573094,-36.7159142298,-26.7277998267,-4.3225514802,23.1897280261,2.31506136523,-14.9071283828,21.2486423931,-4.1752820583,10.6600752824,-14.2821941089,13.5468093919,-8.87342152726,0.20198399728,21.6109338993,-15.8913518298,5.92006975957,1.47342578995,5.04367524663,-4.16593766492,-7.62352089369,-2.89528105073,-17.0338323134,-6.70904469716,2.7162522834,11.0295346955,9.93170162177,-12.3853609685,-7.99408173011,5.88140449407,14.1088766463,-2.81965123365,-0.719821440909
CAMA-1,-207.18320009,0.839498366129,3.25031073953,40.689885143,-25.5680191123,0.0351783830586,-3.06443104221,18.4272639919,-34.1714364656,20.8317764563,31.0486687615,35.3425601941,-59.0657215012,14.607699465,22.2198944896,-4.08706010471,17.2508325287,13.844514279,24.3699264176,12.9648646382,9.93902142063,-5.25425186107,2.24464016404,-7.02436375532,8.19326016047,-10.8424148287,27.7961758925,11.6455239578,-1.59773654585,39.4480118711,-21.8853270188,12.6307344771,30.8696579665,22.0585384096,-24.8881753231,-38.8542061965,6.51240512506,-10.9497605424,-15.1680857038,-13.7701199039,12.2233785778,40.7518522369,-25.2184597411,14.6575376026,-21.2522588947,13.059407377,1.37998181456,-0.112891491889,4.34256682305,7.33398278561
COLO-205,47.5335979831,-4.18389252884,5.82770593726,-17.859008989,-42.5919703724,64.2029468622,24.6698395489,-3.19825690456,2.0438086294,71.3967261068,-40.5646429925,51.3547349926,16.0773889265,45.6106749433,-33.5819226797,-44.5628378176,36.0174293716,-5.79531198257,10.5317156102,87.1214772085,-12.6932662569,-27.055835478,-38.5407310076,2.69423389534,33.2308303441,73.5264594154,31.7382873053,-52.1983074507,-16.5553300088,24.8985729695,-53.7254688477,6.88132960131,-33.291530475,21.0317988626,-24.780480179,-17.7804831621,-17.1607531092,11.1764879736,-6.62463021672,6.02892856387,20.3883539955,0.479678417397,-2.70771980085,30.0298466132,-15.8821222167,8.11945917191,-10.19856519,-22.9434181905,-19.4468755043,9.76210050682
Calu-3,-5.45903778632,-19.4503257636,42.0390632737,27.0776523583,4.42505674182,16.0868594685,-56.9063065817,42.7822568319,-21.8055873066,-12.2224040639,-3.41875957537,-49.2141179369,55.2945075688,-15.0900183758,63.6973495412,70.865122047,102.865373683,-34.1916585958,-22.1347938258,21.0390159398,0.966929452328,-11.0998870451,13.9422280143,26.7516522919,-19.1992332377,-5.11130894033,-21.5203442572,-12.9596304303,-29.3281320427,19.0929982049,3.78235724374,0.995375433319,27.6901933071,-6.54977547374,-38.3514589436,5.44627235833,6.11749240954,-3.68190275392,4.7304514914,17.7500353699,-24.0316927436,5.68962805148,23.5999033062,-0.174496650295,4.12108572224,5.16952075643,-27.2390087655,1.72999035199,0.149291589289,-21.0641894829
Calu-6,-90.0633431196,-38.9247868655,-11.8270474117,17.4816633811,10.3585869862,70.3434459501,-25.4846719056,-27.2022370545,5.53590692681,11.6499946981,-29.0360456189,19.3971293986,6.14708759597,25.172292863,8.21732488445,35.5088259399,-6.73514680973,43.6975866478,24.1474282002,6.09309953109,8.912219326,-24.4580686789,-12.0432899345,-9.49009467245,-12.0351165046,-23.8216201754,-38.9022402537,-30.4099438621,-10.3933181684,-25.0789561384,29.5502242607,9.13952350487,-1.11188764903,-31.4609574598,3.40498972516,-5.73056995424,3.90435332396,-8.09190960179,-14.5508510036,9.20088635524,11.1915149604,-15.6243848485,4.61222016657,11.0937462623,-1.24471018941,-10.8114567402,-14.8944594978,-40.1232123643,9.2598406075,25.7722392522
DMS-114,-15.0734934149,-31.6342638517,4.39453647228,-6.84011251673,-16.5873030495,-40.3238400072,-18.1536581584,25.2085840641,28.1685485574,18.3055051265,57.8849911083,25.7391502306,-13.1028086531,-44.7938086362,50.4259830552,15.2198260939,5.50306070447,-29.3511089725,-80.5959574102,-7.09494594052,-20.5040541569,-68.4348242495,3.36725938275,48.99010418,28.4589257059,-5.7062414033,-50.7116099419,-55.8191306315,34.8053514869,-2.84010850342,6.97390438422,-2.66997017865,-27.2833923425,-31.9346628262,25.178613435,-24.8139215424,-7.39849611036,1.90460501614,16.6609083061,-9.19587173127,2.11041351468,31.9539418273,-53.9048147323,12.8702499551,-1.00094053777,22.008814749,-10.6396484801,5.34643534343,24.4199661637,8.05940069623
DU-4475,175.260948526,118.876695794,30.4359305392,-55.3567349963,-39.8382877368,-16.310598619,-6.08732783074,33.9648308272,13.2743444725,12.5425720963,49.2027579892,52.4671643816,-21.2793918281,-2.89642276527,2.48125511168,22.9298844097,20.2478021919,7.87823482169,-5.46102149083,-46.138331778,-19.126657133,3.6160699854,4.87175843485,1.02301773834,2.98302026216,19.0944805704,-0.846478676519,-31.1787770352,-25.1584216394,-2.10336268791,27.3597215382,1.72965587622,-21.6145739066,60.9039653236,27.9283219805,25.2908263533,39.78401618,40.6681688773,19.4340340545,41.5647551672,6.26866429319,-19.9295831582,3.02676779041,-25.0173989753,-6.79185263672,-1.61780098187,-2.90506867832,16.4912173759,3.66726898587,11.402678991
EVSA-T,-29.1005621647,16.7734299671,-14.5013419233,7.538928223,-12.9569304941,-52.7139115199,31.2585537524,-29.6817819463,17.4104300743,-19.4031611799,-2.15885353819,-1.58071389674,-10.8832561337,-23.4825289681,37.8864160048,-14.0543037971,-67.0862194029,-20.5688125092,39.5331572109,20.6674849259,-45.623044402,-18.9688699938,1.2036604419,-71.4562683777,-14.9649340123,1.11042749886,-20.7861871713,16.5318141573,15.6062985466,34.7673870292,12.3263569133,-31.554130755,9.67828067035,-24.1020268288,-37.3645970684,38.2918104117,16.5887644355,48.152907928,-6.53788261954,35.2397027637,6.12301817974,-15.8874539773,-25.3291487355,-19.6915854933,7.62031120413,35.9448133646,-12.2750154359,-30.3026344167,-18.136026292,18.9554860047
HCC1143,76.7633358173,-69.5703653426,21.5587903145,-22.8874860063,-2.2773953868,-14.5711017414,47.8253913316,19.0661951554,-38.9803902739,13.6623069096,40.0519263329,-110.285782394,-110.942657591,31.7387139726,12.2634863793,19.967997673,45.5838148252,56.1744633774,53.4710086263,66.3381547528,2.83555479105,-18.3692632117,9.68471207863,-0.312184431424,45.2102367036,13.2518326792,41.4696415394,-20.6602028572,39.163219434,-57.5887869239,11.3316011252,11.6480809772,9.94702478693,-21.0131442309,23.4408750214,16.9305552013,-47.0417049278,25.2115468694,35.4993432642,9.53949899389,-7.33382289902,-3.05291166859,-10.6230707953,-18.1013804808,26.464770029,-9.9355523286,0.842542862907,-11.7920021437,3.4473091384,-22.5131349956
HCC1187,-81.229201596,41.5326554837,-88.1434078028,-82.6035718104,-9.87220968824,-9.74519908989,5.55850629888,33.6423271539,1.10416172251,8.51706822264,-19.1884919466,2.78558120514,-41.8453909656,-29.1159790462,-0.884683868271,0.252340893216,-8.23984824166,-33.6342544247,14.8973784537,-10.3886453331,4.98374840127,-31.4107400109,-32.7073845897,19.6994763147,-11.956244456,-32.035720674,-22.4170965834,-14.2031941975,-16.1273331308,-22.6788611845,20.0089662435,-9.80194983162,-14.375023715,-1.3638799282,-25.0049207174,31.349455972,-16.7618682875,-50.7206339691,-16.8737889702,20.4703046978,9.89266031976,-34.5775199387,6.55502809427,42.7398685607,-18.9461142845,-4.23417396313,-41.321044994,-22.1454001903,-9.01813614831,-30.4807757148
HCC1395,-63.5590646401,15.9302567664,-11.5960505841,-47.7014403475,63.4262914064,50.0738903595,1.53523581095,-78.2806402393,11.6848338809,-5.47857035871,46.8873446162,30.7520459393,0.633153480278,25.7029424011,18.8587045035,14.89002599,-19.6544615791,-61.8402353854,10.1702151867,-0.356468514695,55.3836648027,42.7842394427,1.37112621067,22.3928327656,-1.98590535764,-3.00318960494,-40.729831006,-9.71596469066,-9.26209162175,-16.9959957566,-6.64477676018,29.3826106941,47.3680876851,10.7347304262,1.84168853195,-15.295161713,-19.7320384394,60.1875159618,-2.88290859158,18.6525516051,-15.7173707253,-34.2605112118,-30.8035160485,42.9427492544,3.8767686772,-10.8961650469,41.2742218047,8.14069874935,-39.1191389149,-22.6320225176
HCC1419,114.085885788,-69.0360590237,52.9641631875,71.7848881567,-44.1034178768,-86.1629332909,57.581405509,-161.779955735,-29.9645733968,76.8655386933,-27.435533198,-13.521012866,2.33612426978,-34.6375850416,-16.3691527225,5.65426288513,9.35899812358,-29.3682602769,-10.4600793704,-11.1776574885,-38.4929522588,34.6385735065,-24.241375719,25.1230622332,-76.8591804114,5.80636365315,25.1925216992,30.7952098296,14.1160974515,12.1117208058,30.4415544153,44.4056090744,-21.276306955,5.09072281957,3.03043264912,19.7657120832,-29.4804428809,-21.3290465794,16.2108166985,26.1928331216,-6.92449169165,4.34090344116,-29.3449979397,16.3609751359,2.03639213906,-7.26923759944,-31.3487920101,24.2966989546,-11.3495552198,5.74493214816
HCC1428,99.2997932236,-7.08893274678,129.624178553,-21.1250014392,93.4137533601,-101.159445795,-26.9672825634,-7.41326082706,78.4498969347,25.5652283601,-35.3519463749,-37.2285700142,-45.3085909294,-28.2672172283,0.465802797627,-50.4393430215,-58.8525128907,38.4877099087,5.85581559648,-41.9908525293,-39.1437944946,-17.803831952,-7.49313860851,0.467808132963,-5.50443376646,-3.39743143476,-26.3882496838,-51.4659514051,-28.3277338203,-23.9265074221,-18.5064310896,-13.7850148997,16.7233319267,31.1243107886,4.88589950936,-52.5723276875,-19.8663427236,-27.8909603854,10.3623828615,-18.6672191152,-12.6504060099,4.01994480063,17.3579302365,1.32515227633,12.1745601424,-21.5760261729,11.2759317603,-26.6008033875,-38.0580266385,0.158667309395
HCC1500,-261.310178884,-3.36398980447,2.94820341263,45.9552206395,3.38557752156,0.206587498943,-23.921345409,32.6299222721,-42.9818666875,-6.54291279056,-34.8964526956,-41.5285322171,-49.4215895611,24.2837081127,8.59852499169,23.6303753294,-30.3049489654,-1.31240913403,-25.1394075447,28.4642251651,42.5100665652,28.4853426606,-24.3020791238,10.323611034,-27.2026144588,-42.6315719746,-3.89145585206,-21.5545473447,-44.64755823,29.5276027834,-0.862073373113,8.81067098307,8.05084759514,17.280116069,-6.83420729732,-22.4250367057,-2.97267978615,-1.48339494984,34.8891149947,-6.39639057174,28.1706898728,-37.9249652687,24.5496153442,-9.43454479826,11.9211814268,-16.4819516181,-4.9432276143,35.8159414494,-9.44683947135,8.82322313636
HCC1569,-11.7036143562,-9.44518224459,-1.63646123131,-50.9611840361,-4.73747048974,-14.6777863918,-52.4287893128,-39.9919389035,8.64957834906,28.2413803439,17.0046165277,18.6423576024,-10.3178780818,-22.2001011106,36.589842969,-61.6708542137,32.053507983,5.07395526038,3.24460658285,0.205589128098,4.05120037638,-8.03677323203,-4.44572374109,43.8209280774,-0.0908640670422,-13.7307793707,52.9869922277,-0.0316663139767,15.564195443,7.65527024833,-6.92772767818,16.7645184871,-11.9499552228,20.9747832776,-19.7536528081,38.62072375,37.8411226391,5.54602475549,-4.30774050414,1.21582865154,0.622624215311,13.0739900743,44.0842218652,9.17141763054,45.5060516533,28.9350621656,25.2990254671,13.4555688655,-31.3002945849,1.47460542278
HCC1806,-145.959275613,-38.4062029113,-28.2479993883,-61.1060286015,22.5297837559,23.4416045308,-7.45045714049,-8.26082935161,-36.3194515916,-5.20145291885,-1.73981169881,8.93227258266,-9.02673430997,-41.4605036696,-49.9688357052,-46.7962039898,-2.00234469573,14.9065040142,-38.9884099207,-20.3104342787,-72.2984024101,15.056703494,-26.8196668071,-17.7641636181,32.521934947,30.4452114915,-8.99960476289,-19.0867674282,10.1676630321,-34.6001844492,0.582146861961,-12.222510304,5.14900008374,-61.626019209,-32.2887237511,24.2393605292,-5.69601154288,-11.5005254913,12.361659448,33.7006281,13.5170445434,-44.3434429878,28.5128777109,5.24218755419,-37.420393867,-13.3538921855,14.0602986875,25.3764910161,10.82407507,14.1049618999
HCC1937,265.888851688,-17.8821130133,-24.26441771,3.63454503398,-39.0585044817,-4.85788382358,-54.4870971576,-25.8656191981,-27.5442925694,-7.84649083784,9.06832702236,-34.9154969779,22.2837098415,36.1939698656,-56.9084838494,-13.106460563,-9.79765216916,13.2847195862,-36.3077153541,-55.5083846938,-5.81202877846,-46.2293772535,-17.3884222587,6.1992436802,19.5424762254,9.64062854288,8.66861024195,-9.44945918517,-19.5613631389,36.132131001,15.387758807,11.6871755524,53.5202036022,-9.39773476633,-36.3905029085,11.5346450057,-0.618752232279,65.6688766678,9.97176753454,-25.1305853978,-46.9306999583,4.98171207722,0.431204279924,31.7984048559,6.06325811779,-27.7303995558,7.03325579094,-22.262960028,33.7000211439,-1.81789801443
HCC1954,280.969408676,71.8323296723,-14.7988305368,18.8959067815,66.5501161373,-143.554563003,4.75182298677,-1.06447649296,-171.838678283,-21.0750304953,19.4342276424,75.2032887215,88.5797968459,73.7054422191,64.3238735477,-51.7829632899,-27.6188206609,23.8868980524,-13.9795292291,41.0930825008,22.3404583506,-17.9303687577,3.2372118862,4.40283405861,-0.731347794308,17.9529224166,-25.6532177875,-9.2676092477,-12.1262474229,-27.8415533796,10.1950857659,8.26530547732,16.0464983184,-14.347892219,8.37343808233,4.00890166912,-19.1508471558,-15.8155986118,-5.72564309429,2.94966573518,5.24740348554,14.8027958507,24.1772975394,-4.02672345632,10.8931272722,-2.59809404243,-4.93233750896,-0.706862947462,-4.31714179837,5.14234629207
HCC38,-230.709248792,24.6263302038,42.5141464326,-18.4619707375,73.2097131953,21.5686921508,-14.9114941555,6.77338084627,9.02860470952,22.1357639747,-15.3735856513,-11.6120379457,-15.2214937361,67.4788392027,-3.76194695451,-50.4043031073,-8.93812468997,-21.6043603621,-47.0097804044,17.3469378624,47.9986718918,25.4510942639,-4.34117198692,14.1341510507,6.80452643023,6.57858821104,-31.275582465,34.6120757716,64.1301009824,-22.1949008219,36.6877515286,-13.343206665,-24.7106161803,37.3751852408,-18.8573352841,29.3270539769,-3.58451577858,-0.148577610985,4.21584063388,-7.66654559436,-18.8681838347,-2.20303648004,-31.3533301657,20.2278147004,0.556520302013,-0.962973414567,12.5091539518,0.913292825191,27.3041524182,37.5683943967
HCC70,196.425926603,114.198957309,-21.222694937,-53.5593052016,10.1956780398,-26.0706481495,-90.5881952536,-103.738170867,7.95540710158,-172.529332982,-66.5271644132,-58.1239978309,-19.6862887836,24.913750146,-37.0917999274,20.4414725699,6.9283825201,-17.7506570589,-3.96302168931,53.1153518543,-48.1771631525,-23.1671384469,17.5262026571,-4.87370594018,21.9112205709,-29.4472018135,4.88037178644,-4.85891059146,4.89492741172,-3.90804975737,-22.2459876766,12.458992242,-23.0007679418,29.4225481098,5.08446011218,-10.023831353,26.1933397072,-17.0933496337,-24.6368999412,0.175567391508,6.72475948559,-5.68285766837,-29.8497720886,7.4488398044,21.0202949448,-4.05081619328,-7.72171180586,13.6565599565,8.30558931473,-0.958234640006
HCT-116,-172.668786025,16.8718893127,-0.522948427799,41.7508159813,4.3242947248,-21.4760889902,25.3397175234,5.85828405722,-0.228721305002,13.9463606464,2.21446919393,-18.7889564375,8.99731092068,15.6441768034,-6.67264078643,-9.87744016631,1.17176775524,2.83353797635,-20.7203719121,-18.428333696,-9.6615551354,-11.645763056,9.30062761086,-5.04903195339,-10.8901315066,13.7417840124,-20.2548753175,10.7704030354,6.40644288656,-5.52851450725,-1.25909189799,-22.6214614915,-19.0037291825,-8.37561562168,-6.23177465282,-8.95400380243,12.2384147174,-5.65292816213,-8.31191780559,-44.7206070379,-18.7242768201,-15.5175745928,-13.6038658273,-8.82362889366,-11.3966482144,-28.7739895271,6.51579626326,4.1132014826,2.23818245876,-8.05493389428
HT-1197,40.9475909512,-31.0992501674,-36.725028058,39.9481331178,-31.1802356482,17.9435956618,9.09611251119,16.330073457,-4.87958448185,-22.4707697694,-26.4519628413,-31.569484765,-7.91967257861,16.454548193,-34.014743573,-44.9709877055,-65.2312697528,8.46693445541,0.982671938854,-10.8642043597,23.4159347206,-40.3388802684,-20.6745399875,7.97532040693,7.74084991632,-5.76029280918,22.2930520523,11.1851254386,22.6002858017,-6.97814762617,19.1369697689,37.970035429,-3.89161645212,28.9021075889,-18.2432765147,-5.31469000781,19.7833043335,-15.3304897789,-19.3282402383,18.7089115588,-47.1108983732,16.2485578096,27.8757413449,-27.4991505319,-12.7005128361,20.0243833015,0.398476412196,-17.927472671,10.7719137842,-12.1906712239
HT-1376,428.397717885,-89.7060834139,-5.98854002457,-98.8468117464,-153.140216022,20.8025461895,-53.5359485683,-11.3188489161,4.24447305924,39.7274521668,-30.6479726164,23.6216989748,-7.25188371298,-17.7770915048,60.3966337609,7.99070380807,-53.8895287974,26.7310994925,-39.7576535373,-0.774854808834,52.6222283033,29.0842456383,14.5075652293,9.60045682977,57.8192965148,0.769405011617,16.4041890986,62.7053781159,-15.366845439,-10.8262297655,38.9023433096,-38.4924056761,11.8714929626,-10.3950880187,-6.70796781786,-43.0321615724,4.25273175403,-32.5294035854,0.21981315424,1.63283856867,8.97262721083,-25.5763766823,-17.3033345866,1.1490901948,14.0637057951,4.09200144764,8.31353556119,9.69824064507,-14.0963542864,-13.3757151651
HT-29,5.74704321993,14.4457490071,8.58922058598,4.28219067721,-14.7524647475,-7.79510502326,0.190618300415,-0.340678685842,60.0878018803,3.0109162286,-13.7656209652,-12.6690166713,7.01557477313,26.6227332685,10.9820469537,-48.3934503876,16.4701809034,22.4800527237,-12.2465595331,4.78525634458,-9.92940878449,-32.1288174728,25.1803643991,3.45601362707,-24.2355613821,4.95371628318,16.23665211,6.32289969493,-5.10572533057,8.5460670757,-43.9188462181,-38.0993593823,17.475807525,-28.445452824,-10.2836562976,11.2468631247,-18.1728873584,-2.97822048687,-0.517058552122,12.8130104814,10.265499483,8.30530723898,-8.17260407218,4.34027007631,-2.61185272508,-6.88085268476,7.79253330009,22.8847448875,0.223609333568,4.15768866718
Hs-578-T,-69.0354050594,-22.5149339908,-52.6217657003,-0.465018715504,-36.9671380979,-13.7191734187,-11.4919686481,-46.8139607626,-17.1767710622,-15.4805299889,25.8535824702,18.4526465883,8.38862094549,-24.8177345565,0.43291982881,-27.3968033845,37.8289164897,16.5586844353,-1.25252476698,11.4659690802,-14.8952037273,17.8725022076,4.88858520339,21.7089025751,-27.5925156001,-59.7737035225,28.0366873942,-33.2277933091,9.53296368824,7.77303380428,6.51533985682,-13.0384310307,39.4632794327,17.5184150349,-31.5108539112,-1.60837127223,5.13092705972,-14.4667357639,32.1867683155,-17.1374749485,10.0520727805,-3.32940224492,-7.56931965483,3.16163669655,-25.4987031461,-5.89006339918,15.6107467213,-29.9571249227,29.4716270279,4.5361117419
J82,103.41530101,-77.3469835729,-4.63711471015,-9.18901845725,-96.2001887275,-11.9651383262,-30.0653423813,-7.95075369369,-5.49939096487,49.4030591418,-35.2426364944,-16.1260352697,2.34946562379,0.574336485067,-9.78562710875,-14.2445466752,32.6307139421,-45.4712363446,-6.77252694867,20.1304218357,-1.62171064758,-35.8046466174,8.69322300311,-41.6766726818,24.4103667399,5.83600764944,-87.3353995551,-24.8239179864,28.2990078008,13.1924263011,-11.1753504388,-11.050900538,32.0146175853,48.3579519063,-23.7900806156,25.4832294279,-7.64965737847,1.49360181232,12.3425941932,-33.5441943551,9.80325799342,-10.6221905942,3.73864869638,-51.7452646942,16.7605664147,0.530837336613,-12.4286721242,34.4230464193,-9.29691738848,3.92737909601
KATOIII,121.366781176,14.508162545,-9.08725201162,34.2424146802,-22.6294246008,35.3278365213,11.4901993999,-8.99786687139,81.053743913,-50.8184037103,-28.4391472238,-18.7652446393,57.4366873939,-20.1268112999,-4.11514070321,-48.8086570605,18.0988268334,-18.7851161344,-2.13069808071,39.9579195657,-9.62778084205,15.4500434954,9.55392842731,51.5670735166,-7.6867437232,-8.02822296115,24.4056267494,-6.07918679859,-0.982384925732,-19.8440302176,30.1280122472,-22.2917157941,20.7459509896,-40.5093118818,26.9111015853,27.1166845027,-6.75443891782,18.3813355756,-15.4055807456,-20.3810704277,22.0755043896,35.3048838084,-1.95954764082,-5.05141737614,-22.3769460972,-36.7184059905,26.0762972312,26.8251303501,-26.4906798242,4.64023338501
KMS-11,18.2533264127,56.8185941677,27.4874585593,6.30336332873,3.36678191475,-5.96275393352,-38.5554028446,-1.55097735057,13.0402080765,27.0685611482,23.2017098754,25.0996514627,-51.2796356681,-7.73463010646,64.151711829,7.18640437902,-3.21533507281,-11.3607594381,-37.0547882412,33.8941275311,-22.4949085249,67.6075351853,9.36065425748,7.06537960829,9.27446721501,-2.57483535194,57.2282805984,3.35522562746,-18.6153944592,-13.5444881599,-31.7249470229,5.63875248636,13.0642468758,-15.3486087322,-12.7341647857,16.6486699369,11.6154257802,-14.0498839978,-37.3328317146,15.3387368798,-28.1521697865,-14.002428564,-17.7557702554,-19.31817718,10.9144743631,-32.2295380101,-21.2859648906,-31.5195605953,35.4991780372,11.558028329
KU-19-19,45.9807420683,-27.3574123892,12.6654766481,34.064448513,-20.3407752429,21.3595397753,-33.1015664337,-48.2392066731,7.49960892654,1.38976704975,63.8717989151,15.7719858187,-24.7842592589,16.9080336705,-16.2832444849,8.94639438717,22.495639623,22.6580998655,-17.6046643395,18.3636115315,11.9158701286,-35.8915601478,34.3582541179,-34.2113389955,-22.9526875206,9.92673911061,-32.3752913939,16.0007479325,-4.24341937493,25.462174919,-8.87365457304,23.2031468555,-66.2856697824,-29.6843407279,31.813678208,-43.1749475784,35.8982283888,-12.2224991922,-6.77638072782,19.3029223573,-28.7527253452,-11.716514554,-2.25914117446,-9.77624186735,-12.7798559485,-37.2831954719,10.0582699946,-14.1998916279,-29.8467525962,15.9949183122
LS-513,-155.835372978,33.8787625306,-22.4134471584,43.1718687638,-44.4414087257,17.2059505244,-13.2404851763,-14.0356560599,-4.40482718106,25.1056523434,-28.4193294268,10.4444046873,8.34796625121,45.6756161087,9.15316673494,24.916288016,-14.5067731934,-10.2995815997,-5.07726327366,0.298411117503,-18.7157769422,11.4946836149,21.0929432905,-18.3535195539,35.0100000316,5.25623225153,-12.4700526656,6.97590905635,-4.81037611826,-0.929669401765,-1.44732226119,1.00004483381,-21.5609862782,-19.680120636,-4.04903305558,7.07866560629,-1.28352796196,5.10013212545,6.70189371384,-6.13171815108,-0.893004526375,20.3029612875,8.23480996437,-9.86173549883,0.735141531175,2.02301288762,9.52759035801,7.14727757052,-17.6740653249,13.3765847237
M14,-15.2473465071,-19.8076025227,-24.9278849148,-9.32447475655,-55.5712338664,29.6612915282,1.9229124251,-5.66998854017,45.2955511279,-9.36736538607,44.7611859099,7.37961796689,26.2225939191,9.52802193749,31.8004990406,-5.97856159835,11.114305691,11.5269912812,-2.98917416265,21.856600429,-22.7116659951,16.0354950129,-3.85024010061,-4.76137017996,-5.9780604256,-4.93346195644,5.97167754947,-21.0199235659,-11.6392364628,-33.4499555889,-2.10979555053,10.0909016793,-6.70583747276,19.1765305198,20.7872248499,1.64413352763,25.9760541834,3.85390652139,6.59485654095,28.7828458602,-26.3285018877,7.20284964215,33.0263279875,1.92316835871,-0.212236849954,9.50025055381,4.47046094395,0.530229679362,17.3137672789,10.3398632103
MCF7,-29.3578054638,-14.1182390452,34.3706443091,30.8558630014,47.0670445633,31.5233138297,-25.0115013738,-39.9792335555,21.266453028,8.86961774524,11.2799981357,42.5524617349,-31.8089108567,1.78740912577,35.0468954632,-25.4811523314,-21.6596130155,-39.1227516727,90.8777888086,12.2250799048,-25.7821986056,-16.6906701831,-12.8768265589,-64.5791435577,71.8516697142,-5.43629498589,4.6289790965,23.7399407458,-28.9452430215,39.5302155139,27.8828668693,8.53359920756,43.3050249574,-1.33514081553,58.4388765346,10.8973384905,1.49547887012,-20.9838376589,26.8559589927,-10.7280649594,-15.1393429207,10.4253389833,18.6330279886,21.427893926,-25.6695124969,-25.4373630943,-21.6656470202,46.3895078614,33.8645568593,4.82818376885
MDA-MB-157,-17.973329958,32.488980498,-7.24569023941,-79.2543015719,32.3223815312,-73.6345215397,39.9452138437,-12.9218856586,0.0345417483841,29.6227408869,9.15276003446,-46.8786732493,-10.6462171194,39.3444727919,-36.5852360714,-2.18819135781,-7.22287276669,46.8354035549,28.245286741,-2.09390043259,10.5122549002,60.7330522904,-31.3884926643,86.4647693144,40.9365855561,-3.12727240567,-43.6041901268,-7.66667482145,-27.4660079746,87.5283622309,5.98518230232,-23.749647579,2.72612263957,-24.8377764132,24.1982097598,5.22593692225,35.1027269514,3.0410380001,-1.9917826492,23.2892519519,23.7560939913,-0.177397579063,-9.66377778622,-25.6145626942,-19.5776064705,9.96441155972,-7.61273644235,-8.55029596439,17.9625995348,-9.87700984366
MDA-MB-175-VII,127.020304698,93.19157969,79.2324276563,-6.99915325988,-53.3838315633,-23.6864530634,-25.7827840171,-23.5139551532,-8.20179334037,11.7119638544,28.538109445,-2.47817108574,-74.5006270299,-10.6919141047,22.4135909473,19.9859221171,19.7955831922,29.596138564,51.2672806895,-20.2172411642,18.5861217973,-32.6734160606,-9.8080648911,27.1016704209,-50.5617586821,6.26983759438,-27.8402070638,39.956278177,10.0606989893,-9.56234683172,-18.9207529858,-1.99891434971,7.72565058463,0.875975093205,-4.53581652837,14.7021434013,-31.9630188414,9.46299004812,-32.1829175593,-24.5399594073,33.5085595364,-15.5825132433,26.7378650659,18.3682546034,-19.7020703827,25.208808243,39.5133626205,2.78159401839,22.0899616406,42.3701088482
MDA-MB-231,-45.0990788274,1.99855518513,-7.92594772238,29.3347794805,-15.2022808621,-11.811514772,-1.52991906999,35.0369069496,-5.528107939,-10.9440397493,-4.68818515344,27.0328905566,18.9018327859,-55.9831520314,-8.43610070742,-16.2500398209,-32.3973917245,5.04612346447,28.8194982132,4.10880964379,13.4277082716,0.508062311083,-4.28683101879,-25.1664817972,-23.6508875133,17.1922535025,-5.58094010813,-23.5609866582,8.713872481,5.12486573043,-3.28165514642,-9.6141631858,14.6874608952,-12.0058356719,12.0064109106,15.4781832397,21.182261327,-26.1145701475,32.4861372609,9.87110955623,-20.3911587048,23.0758526315,-11.9852849545,15.1870773395,22.0633699783,8.73442613887,12.2063950257,6.22961214411,-4.29406095162,-30.6694178601
MDA-MB-361,-56.6652379839,-7.98198897585,53.6678622769,62.1813931029,36.876792277,-4.43867494952,33.714966927,-34.2819675778,-2.02066665299,6.95104419082,-33.0609410778,11.0034173649,-21.5425869409,-22.8844373133,-28.0822885153,16.1716473092,17.4280006044,-9.14692051062,-86.6879764007,17.5322444202,-27.3381887704,-13.7509011508,-30.1280247904,-30.9928626099,21.5931306423,16.2336433569,18.2863221342,-6.07994765657,-10.1293823672,-7.18214951516,25.989737787,2.72337693506,60.679342307,-33.2871043581,26.6008634302,-41.7289614881,28.2529266299,18.1640037459,-33.4389043753,13.3500421547,26.5931839012,1.70439602686,1.06599336966,5.96643489248,12.9662080394,48.6443294496,5.57097803292,-9.30220574363,-2.76100878692,-12.4445597756
MDA-MB-415,-34.7765345435,46.0636974154,33.2627736404,-12.6356846019,-27.9469187642,-19.0317624732,40.1225578518,14.297769889,42.3236741096,-66.9435848877,46.8349991361,-45.9346382488,24.4755592553,9.26813319874,-5.90371204217,6.88820375313,0.446658155675,-37.4551354539,-3.72299144102,32.0482471636,9.09002954125,-6.31265718784,-19.9704445672,16.3878138192,6.46389725165,69.7459425228,-14.7447790009,56.9513549556,-10.4178683814,42.9941714633,-26.325364099,-5.28067228135,-9.27161470456,-16.1689033429,-1.25245436001,-8.66570216183,-34.0919634706,-34.3426930192,14.4690380134,3.9686698781,-20.3510956862,-14.7124188981,21.1466129697,33.3868309588,2.60960593866,28.486939567,7.09337240685,-5.71141346233,5.93793917116,-33.2843239337
MDA-MB-436,-23.7774299035,-4.46905205958,-42.7970742027,-155.840178661,62.0754224742,16.6284696597,57.332405248,-39.3033886911,14.3366019278,10.9768108522,-9.57734364953,-3.90229153305,1.50468191931,53.9460368217,7.68237893644,77.8315767932,-5.23840893633,-21.156739951,-18.8776763002,-62.5539448848,44.5181836383,-66.7078175196,-7.43359601264,-20.5444529973,-52.6254439074,54.9819819095,51.9436575996,-3.03952225916,-16.7935189095,-1.1305477003,-19.6583942649,-31.9926116185,25.7562989979,-2.67134293749,-4.70588989373,17.6876571344,20.1573300648,-33.6686740175,24.4412836791,-13.1893974742,3.67418289492,36.4655917486,-21.5677056274,-13.2044904878,-1.15291275615,-18.0071002495,-7.00171318106,7.99816402032,3.47958751442,20.0724892034
MDA-MB-453,260.0325652,32.450430128,128.280516617,-14.5615063578,-32.8912595864,15.4727570235,32.9078448779,12.9723805692,-41.9744194748,2.74198975035,46.2317874674,-10.374964665,-50.4585294987,-1.07995590028,-94.5412701164,-45.5404048563,28.8320696537,-83.2787035836,11.6348772245,5.08431481972,62.7620366249,55.7640615936,34.2153388603,-48.1244448051,-40.9389807933,1.94728066921,-7.56953806539,-38.1566152567,-23.849030046,-29.4303221914,24.0369209685,-41.9906584495,-11.6334683136,-33.141270712,-15.2999757968,-11.5565190992,32.006238182,-10.7926262602,-26.7937647468,-10.1886438697,1.83823654185,25.7384791844,13.5078274234,1.52683303679,14.4650363581,2.88036461615,-15.5017144027,5.16449059942,21.7728492028,-4.97636151143
MDA-MB-468,-30.4265455287,-2.86450339257,-95.7643681611,-69.8980478206,-2.67493598869,-35.7509776049,34.4064261534,47.4761525071,-46.900759519,-34.6222817523,-5.91552687431,-4.37046454908,-9.13180214095,-66.1106549035,-9.96383216483,-4.91891822946,20.7017262997,21.9011548144,-7.73857199656,-15.8069508861,-16.6889588655,-0.394434419738,-11.9091907338,-29.2495234838,-5.96056480351,-16.3318543183,33.6091902147,16.0573836693,-4.80120475875,35.4872192075,34.2520855868,-42.9761235483,-27.7817328359,12.5590689658,4.48655825429,-59.0526282409,-55.699203544,46.1099161854,-39.1016657838,1.1751374073,-27.7445844986,11.4637775904,15.3192893736,18.155952596,13.1679937371,-5.14319874529,-1.70987099969,25.9779678117,4.99572257576,37.3389028338
MFM-223,-113.236654937,-19.9409546072,80.1679668687,-76.0902752204,33.3379803467,-44.5728445738,-39.1158416455,45.9395932603,27.6045190782,60.6665215462,74.5060183723,39.4564944377,75.8635282169,-14.3544717697,-90.3156382529,114.183076795,-71.6126560015,-11.7249591412,9.43522776239,93.0703657998,-39.89297398,-12.2529512349,-27.3633936696,7.74273268693,-15.928130609,-42.3153862617,30.9477700164,19.4257571726,14.8667007371,-7.61028548605,-0.840977213004,2.60197881855,14.4534872204,1.94412822604,-14.1540955701,-2.35139245652,-12.1344022097,1.06933025761,-14.8767217424,-15.9819990515,-16.8124011044,-3.9910494115,7.45377455128,-27.8615867259,2.85259333744,-1.78900890708,9.95971522824,13.1021316531,-0.621426991372,6.99029095626
NCI-H1299,408.857124535,-198.202571809,-116.816214281,126.842404648,87.7144638098,-91.1276148518,29.9821680404,41.2022946476,77.031774167,-67.261163458,5.09754094509,78.7236048101,-63.5334897944,12.8304070432,-28.6355076432,44.8075549423,12.507749124,-12.7256892182,17.9163650744,22.2809908642,35.8566109929,7.18938801977,-2.00595236976,24.9561535531,7.10268498126,26.1081990164,2.20567559889,3.08348236168,-5.23505284962,-2.77836312748,0.217360311725,-21.8508437185,-13.302641984,17.7303199222,-24.1719241871,19.9927679725,13.7456245302,-0.834239906119,-13.1970823442,-5.71052035563,9.5118192062,-17.9973945153,1.20149761956,-0.103179936837,-4.37118578701,-2.20731209758,1.60655330767,5.85015169059,-0.490690553524,14.0396802908
NCI-H1437,-14.0095995042,-3.00443699068,70.210281093,48.6712394694,-0.0524415384707,26.618616264,-7.39657964575,39.5310636036,-29.5355403055,-32.3366868467,13.1452382196,4.803556814,-17.9303700876,-13.868710967,7.8499674075,-14.3529063738,-20.669882666,31.0422758807,16.0105823757,11.3867592814,-30.9363311191,-13.5797781726,19.7007600693,33.6820595549,-8.5118427898,-20.3090934249,-1.45907973766,33.8861641126,-30.7211702775,9.58243077113,-13.4642916755,-45.4994610791,-16.1513306983,7.1811671327,-43.1558734498,6.02553271275,36.2460177071,11.3319459855,54.5998252107,32.6342922104,-6.2583689934,32.0161059696,-20.2789266581,16.0881071465,0.127385310695,-15.2479482597,9.03150380859,-2.09151252912,-16.2440934098,-1.99904916088
NCI-H1563,134.063737067,-21.4416283844,25.583896234,33.2566323743,9.60414144746,34.3346478336,-13.1894151329,8.84504128209,-87.3288379731,-1.03675090635,-24.4397926414,-40.2054755557,57.0573964919,-14.576108858,22.1370676016,37.4108737349,7.60216697627,10.8669588887,54.9212556976,-23.8176506034,-2.30285059574,32.8482104536,-39.1682635178,-0.154643390106,0.55658341071,48.0494719775,18.805735706,-44.2509991211,79.1577773181,14.5119866785,-14.2739042643,-34.0817878404,12.2242022519,21.5208497102,4.85283417968,-24.334842282,31.088968774,-24.1284677985,-42.8367949055,20.8528921475,-9.83956369418,-27.6201345265,-21.2117048951,-10.3866343279,-26.0094962509,-27.4724458413,29.7264006999,14.2129765383,-7.69281093621,-6.36867699366
NCI-H1703,-133.4764538,0.944780684895,-34.8409125892,10.8336092358,6.85498108957,7.4245238691,4.5607751235,26.4057039882,-30.7883794201,-15.8314587105,-31.0737083009,-37.9318804907,-42.9400895341,19.6744227355,30.0024794266,26.912849637,-28.8155912364,-36.8491532938,-15.597248621,32.658255862,10.3394437195,-13.7442401784,-28.8525571959,-7.61223177109,-36.9574753277,-9.58491238322,17.2319596642,-21.0280895947,13.7226397695,8.37713425967,66.0888197555,-5.21889912795,0.970051859529,4.13786686246,4.61289273481,-8.48545170367,24.0271803764,6.87034882734,18.4937500757,0.905305464488,-11.2455521554,17.9987200979,-0.704523051368,5.86878423038,-33.1949462524,10.7715012475,22.3300744685,-13.7823343129,-24.4455735055,-6.83862801378
NCI-H1793,54.5565066046,-18.0220254602,17.2503677557,27.6404964958,-14.7674902841,14.4618338564,-29.229286624,-30.9444134054,2.50414538346,-5.14019671045,-0.981075966616,6.6744287925,35.5991959522,21.2475709171,-10.2123168852,49.8156868698,1.65815473661,26.5675750512,39.3257736117,-33.2729948879,-23.8616161297,49.1020336161,22.7864350595,-23.9499902425,6.19032941945,9.03531862842,-19.2083101984,-13.0899132187,12.8718368221,27.3889915,-7.59503506893,-10.4246310124,-26.25385974,3.90145859862,-14.6714076047,-13.4644983356,-35.2333766032,0.302115925998,9.35963494421,-8.7588230556,0.820837478314,0.198536631471,-16.2975211703,-1.26120174438,22.2657413552,23.5143861608,1.58145925633,-17.9780136613,25.7237998791,-11.4965892653
NCI-H1975,-19.4826991533,18.8568083589,18.2387894923,-16.7812138684,1.03732420577,53.5330540305,-36.0360976958,-16.8745127589,-21.2896531705,-55.0392053948,48.7394697521,2.70484333725,25.2933259097,-79.2968056698,-14.5940338764,15.2536710069,-35.4597501847,68.2420027914,47.2520519829,-1.13260057318,39.3899428902,9.78657293979,-28.5779012592,24.2923848652,22.7847898072,40.5551173539,4.44476695021,-27.7017805509,10.0372280899,4.54059918309,34.8927649757,28.8624463026,-34.6549834804,-32.0298774217,-9.64400243479,25.9962794505,15.4697300639,0.841943178929,17.2696889014,-57.5163548758,15.5445646289,15.7463044997,-12.3484726885,11.3128088733,22.3611790727,0.882276247795,-25.7571687924,3.74352646836,-26.4872580602,15.591212473
NCI-H2085,-79.9098229475,16.2383154336,-39.7285478849,-0.800459806513,40.8484036094,20.2788832689,-38.1412044517,-36.5755962896,2.13855534628,14.0215654367,-7.813619438,-3.67236481481,22.7308492435,-2.14185218288,31.0151851443,-2.0092496944,5.18977252469,-37.9630953333,45.1633624872,-21.9020393135,-13.6283825069,34.0121068148,33.2391545944,-6.82303950002,4.15457180795,-6.04289752625,-7.20646151041,4.99000043938,11.5877660519,-1.88818848744,26.2444753021,-45.1551119481,-21.8041077038,3.62315762932,-5.9017903523,-2.20616587574,-38.5683669921,-0.845404415149,0.119318534094,7.82051144169,-5.39172135851,35.9502202892,18.1792420228,-29.7446193646,-2.73674564028,7.96020775255,3.9273917095,-41.5200538552,-2.77335604367,-11.6608924425
NCI-H2170,541.613654726,228.245091569,-135.523906721,60.15359384,94.7791710202,70.2841652175,10.7330171368,7.02622040132,17.8173318016,120.976475616,-13.2986139074,-16.22689914,-24.937522059,-37.5379608683,-18.5417373799,14.1294876942,-5.52246633746,2.49010196621,-7.93876186511,15.9089411596,1.05103947919,1.94565513476,-3.54635236615,-0.0584046152993,10.2333404734,-24.1299085879,-4.98481967883,21.8163634646,27.979459923,-0.655562547171,-19.2742733748,14.912074667,-0.153255475169,-21.8124540769,-32.7377580563,-26.5326366942,0.198545904989,-7.91746206313,31.6514107759,-9.76047238678,-5.20454826945,9.55603254244,5.83666818365,-12.394221449,0.611917653435,2.4196206454,-3.22482555024,14.9481091633,-1.88672239079,-7.47539621926
NCI-H2228,159.665928511,13.9341781735,47.1576226304,17.9812600701,-0.647431320866,4.42684824971,-40.2432622958,81.5207375107,-25.3255071777,-40.4758049261,-67.6229898592,31.3918131025,-20.8732059595,-37.4424168797,-55.1990037605,20.789212743,-0.3622713397,4.48946583557,-23.2098770346,-42.0334002248,50.8691349374,0.00951455770094,25.5582510842,-3.39588542168,-5.30237907717,-14.7616456697,0.288927998611,17.2711808066,36.2562502327,29.5390093419,-41.7859791129,56.5828170993,40.8026355705,-33.0574242655,38.1854526314,38.2012458158,-20.0489117558,0.0902431548028,8.4350633445,35.1847321561,6.39139097572,2.64239341443,-9.94633111903,-11.1952236549,-5.20151840432,0.461524075155,-4.83886357423,-21.4515174733,-11.0739041696,20.7998473781
NCI-H226,-204.597595741,-7.57546062183,-11.4783575002,68.6948234075,-6.62364063312,-0.913771679765,8.3053082239,6.29221586651,4.64565072996,12.7289479623,2.22637986619,36.7091695103,5.42390407057,16.1671177502,7.02609723107,13.6521433177,-3.80708136884,13.4079111738,-9.87875902961,-25.8978736201,-13.2179308064,11.1097703055,15.5158039717,-3.36092855639,19.5824367827,7.42652422033,5.70358791988,21.4862388287,-10.3518109699,-14.107707744,-5.01554721489,-12.2980445064,6.31044796335,3.84209979736,2.69058749317,11.3248596607,-2.18975254531,-14.2848673108,-6.1829594386,-1.84457676389,23.4923790361,-1.71092327964,-11.4361109402,8.55520681534,43.4290733565,-32.4154764152,26.9666540993,-20.7231492039,28.3768476717,-20.1240144216
NCI-H2291,-27.115774596,-24.0939962762,3.44730284708,17.3848515945,20.8642196825,8.57113560989,-56.704400187,-70.1390873468,39.9531441478,-38.838019582,14.1552289306,3.91824561356,11.7390754917,29.7055267082,1.87064312442,43.2559076818,2.78546042909,33.4431843521,-9.23828452705,-42.3879490678,5.79467366661,38.7747967364,30.4459327843,-1.26998757357,-3.43452832859,18.3775476902,16.723328492,-8.54700573848,30.1230240741,-36.0673660785,-9.52640462868,-14.5392732697,25.3289478432,-10.2622914739,-5.65901499646,-17.3568447172,0.129832863029,-6.78498143676,26.9830580298,-11.1295666738,1.84726923324,-6.63738216823,41.8757698968,7.05927288696,-27.5563497451,60.8548661424,-27.3754698032,5.07972439739,-2.07912108693,7.25203344782
NCI-H23,-19.5029926283,-27.2792666973,34.2284564936,-47.7456550873,41.9807890069,10.003134585,-3.04106472408,-46.4619291095,35.0613215819,1.84254288418,33.0352942832,31.6540492157,-8.03684701534,-23.0663606904,25.9812119061,-18.3020137196,29.7356813189,30.864134643,-21.7013816386,-6.4849901487,21.578963167,-40.6416310149,47.4087858932,-2.26494574091,-9.12754399678,9.57111174798,9.01923134439,0.43320325615,2.06021781024,45.1380906703,37.0450791679,48.1488468086,-7.3817982488,5.37698013968,-27.3534778449,6.9261464806,-20.3237323208,1.30996248968,-39.952134836,-6.55498525999,15.574945638,-4.46244784653,22.0716993115,-44.9500913261,-40.3606026998,-30.501166823,-0.452025610055,-8.32481862652,-2.52924122208,-47.5116662223
NCI-H3122,156.844619272,-37.861259116,75.6109136323,-16.8699343201,38.0706102795,136.491473172,176.028911919,-37.1583917617,-79.2598486836,-51.7733833142,-19.6096806321,35.666033294,-32.647531024,-28.8495586506,19.20832576,40.4109726623,-48.9188074146,21.0952514396,-51.5105142008,12.0885760979,-49.0654222598,0.220109855265,46.9241340619,30.9012952369,18.5859901048,-25.6201855607,-28.9794174475,3.56477974007,-3.82762493437,8.81679455321,-24.7718512112,-16.667520201,-4.73387814954,36.3842385012,3.27563786888,29.2903994406,-3.58227179059,-1.09019310972,-9.74244462433,-32.2635735567,-12.8947188834,4.46148313996,25.9848268995,0.950622647934,-4.99756165525,10.1985107111,1.07497393719,-1.43265934713,-0.498724706747,-8.3652999757
NCI-H358,-70.9518909892,-1.33661615052,8.14947868932,-4.60448408241,10.5871990681,36.4985750187,15.8570031027,-9.4111516595,-2.89051912495,-1.49851601818,12.4209458684,26.3037350329,23.5244750639,12.4563713065,-17.7079193281,-52.8620252615,-4.69728525067,-3.04337797146,-5.84362846107,-22.6210377259,14.8135006159,-0.117392575121,15.7031845055,-17.8505859065,18.7486345528,-30.8896846453,25.357761422,-2.45163887508,28.4736213016,26.4701882976,9.31282012064,13.8025136742,1.12093500791,17.9757454721,12.5939788836,-13.9043728304,-3.3821204968,-17.7214090212,9.35374814364,-3.24671616703,21.3908614888,-12.7866766791,-17.0130223956,2.4354330021,11.6657340331,2.99695641975,-20.0815138574,-21.8048925495,-9.62865514993,11.5529362002
NCI-H520,329.359021708,-68.642635819,17.6028745252,-48.0639221565,48.598574146,28.5566747056,-40.6733517629,70.1053312297,8.19478332051,-13.1011884043,29.8934689981,-3.80520698034,-3.21869009397,74.5519690573,43.7816221538,-17.9122412276,37.5657472092,13.7458151337,-41.84293539,-24.8983927348,-67.9940823452,58.0682649372,-107.946430639,-67.0575123017,-32.5627515967,-37.6973091338,-6.18876216317,31.135990525,1.10402433935,1.90793194573,-11.3953150021,17.8181150404,-31.3989586135,-7.9213058965,15.1315066819,25.3639215537,4.93695072989,4.40614212598,2.50299458938,-42.5980505983,19.4588800275,12.3581573311,-13.8915001784,6.408841078,-11.5385598927,10.2542313979,1.21073539957,-5.2473405936,-16.8310334096,-25.1748700526
NCI-H522,-86.9161626036,-16.3652637558,-25.336262044,-16.1067192053,27.0846123807,-4.88399015488,3.57249013406,55.4348721977,14.2859915357,-25.1476301123,11.5245994582,10.3938945614,-11.2949456647,-67.4691783962,19.2753971621,-48.9910413562,21.3752180711,-7.97593811097,-10.3319681104,-3.39502811422,-2.21726549739,40.9551992374,-7.86597049995,21.5804687876,-11.4417828048,36.9416291046,-12.8544357255,-3.47711716125,3.74970504461,3.98232561406,-26.0009581477,25.203536105,19.1684521118,17.5011612083,16.8805140868,-14.1400323413,5.11907663296,-25.6581842963,9.4286572521,-2.8191169772,-55.0765223935,-7.42491275922,-9.38966027206,-15.069397856,2.30646166216,17.9053161363,12.7013047747,4.81042508939,8.5150203348,17.1810794706
NCI-H747,-9.46900168916,-1.5634132125,22.8592252231,-14.8612759161,-16.90103802,19.4934964573,-33.921048744,44.5210375693,-9.22647428733,4.61532891031,-92.034980435,9.72158925826,-23.5549617211,-12.0159120504,22.6403916527,-1.84307402307,3.50719103628,12.9068693728,7.54419230912,-8.73004879404,-25.0396236277,20.6789429549,-0.504147465507,6.65360981843,-50.7315677559,49.7056112809,-6.10159474169,17.7109940424,-20.0656103291,3.46612511584,-2.81812185348,1.76672433644,-5.91040878101,-9.31789510134,16.2076322649,10.2839868395,-20.0974037724,29.5497985516,0.363502611105,-14.9594789303,-37.2563856018,0.248098569253,-4.50895314522,-14.9262255039,-5.0235077647,-9.62025918475,-6.37859868177,-4.65639614732,-3.32256972702,-8.62784280618
NCI-H838,-166.694554977,-53.5648039642,-30.6571173149,-21.6523932112,53.6118326975,11.5051805315,-5.03029920468,-17.4253276268,-17.6281490588,15.5092532599,40.7702495931,4.00058689844,6.7818497988,4.42723478214,-37.2981128819,-24.0189282303,27.0040668896,29.2720105592,25.3984017662,-25.8908901388,-8.25489472244,-2.43096415431,15.4882276348,6.60628954854,17.4877237528,-8.26813958018,-30.4435722311,45.1763139151,2.8342083979,-49.2727072615,-33.0468343183,-7.06463713002,16.8970569763,-0.367559776878,-27.880280868,-12.0492773676,17.3661526104,16.6435469102,-18.4081683803,21.873976478,-40.5152514409,3.38736405372,-12.3852764756,4.32051972984,8.19669015941,-6.09564798011,-50.4942732358,21.045960801,-25.2913329796,-1.47890452712
NCI-SNU-16,132.099073032,56.788217643,5.22535702459,7.46579940874,-31.7427691199,6.75591532205,70.2227650993,17.0814103175,52.9734875448,-83.8121520307,52.0272166979,-7.50344554726,42.9876756299,-28.7177475369,41.3982127907,-19.3066391925,-12.3154435646,-5.86939448947,-6.6471240457,13.3764372827,31.2406757402,12.1928853709,-10.3187391087,-30.4697802875,-9.42998581257,-19.6349483838,3.21320911949,-16.3039294663,11.4551407389,-13.8668038298,-4.13215864816,14.0253201298,6.04740169038,17.3429915108,-19.4219010328,-22.8924092716,-47.4143417472,4.2638531671,16.4848481159,21.1882119771,20.0285935983,-0.482939075999,-22.424854751,-18.7692861132,-24.0630427266,-19.0079968656,-19.435829906,1.70881179392,8.96273621093,0.946470414133
RKO,-174.653841005,8.39379970141,-20.0256437537,35.8456055131,-49.6541998823,-51.4261054208,31.6871761942,-15.7747951386,27.1954078233,6.80845719633,14.2559065738,-24.8006739599,-8.8496354282,41.1028209842,-3.67851638991,4.75827153555,-20.4957392099,20.8086763388,-5.23426261671,-20.0001924236,11.5155669306,19.048188383,5.42995218661,-17.549105877,16.1541642713,-26.6764972444,18.8928184088,-15.5182416543,21.5490280691,7.50338002443,-25.038773949,0.326798868786,6.68004236309,-7.16682440439,-12.845274275,6.81475298729,5.04159206745,-19.4887923105,-9.03240875623,-5.58959920431,-2.48574900221,21.1361734602,13.9385607617,5.93873805756,-13.0150529151,1.44729356835,10.0064683376,8.34350246519,-14.8646566811,2.03985061978
RT4,149.269014935,4.43036085797,0.555980657506,80.7165291848,-4.1417680285,62.3407613441,6.56853221092,41.4413622232,-14.5635021896,12.5707892565,54.8897328518,-30.073186079,35.9651380105,1.30314820734,1.95060273618,16.6303950884,25.1726348038,-17.5985686171,25.1127131638,-49.1069967707,-29.9745361236,-38.0106040035,1.96779955933,-0.145837656727,-4.32109310622,-27.8718737015,19.6002742062,-15.218148861,-32.167049042,6.68352238623,3.54457906488,-22.5753350687,16.7649971025,12.5002889326,13.8315251979,12.3075694052,-20.0229280781,-29.523086493,-15.2336889115,16.0969825257,22.528936931,-29.2698363376,-9.4040831948,18.1574408346,31.0417082632,-1.49865170274,9.61228275085,-9.65180232214,-28.6318969998,32.2934030882
SW48,-148.815144981,62.8125663977,-19.247188517,25.3103461166,-52.7194332696,-56.8635303805,16.5233753427,20.1596057818,2.32479150522,-24.8757096545,24.7051001063,18.2490685476,-3.24281617062,-6.61283734994,-16.158705173,25.57227498,-5.17218631263,-6.60740293153,-15.1448286994,-21.0041448035,-9.69754135283,14.7246913749,10.4939167498,-30.935832056,23.1193974129,8.09807986198,-4.08707415467,-14.4495799803,13.7917176656,-0.700567062805,-11.757626056,5.73073139536,-11.0916891656,6.46035062609,-10.8244666592,14.5675602189,-8.01761546799,-10.4592312197,10.317437706,-9.26870601675,1.72807093624,-11.7819258667,8.88479754503,17.9285447907,0.90718504577,-18.4161037905,7.88668575532,13.4911472308,-2.46818333777,-24.3474374628
SW620,-141.260823307,8.75289492573,-39.8006435131,9.72407726282,-26.6045656289,1.06111047946,14.328640987,11.3022266407,-0.811084111367,-11.2369938425,-31.9362011339,1.80513687786,20.3480465698,-5.60299313057,-3.84604888011,-4.74045216027,-20.1677038046,50.3865124421,20.7987213952,-7.47486669,-6.30181652904,-7.65007695713,-8.15416769134,8.59847143542,-32.2697066865,26.5791238856,-3.49685521941,23.4075596461,-41.7583472344,-43.3556174491,-10.6657109709,20.4613704546,7.75588875922,8.77158536105,-0.521246876215,-11.9925358123,12.5706626789,22.3203942006,-23.9885221022,-9.50699686184,38.531450049,13.2581145528,-20.6195538375,-11.3793505787,19.5609252424,-7.54265167075,-27.9999010178,15.8290076764,22.2284186147,-25.8234239261
SW780,127.962017929,24.1522784641,19.9998062717,25.9448615857,20.1078359037,-13.3535288072,31.7166212459,38.8557877106,51.4285647655,19.3940257376,-1.8309926061,-36.2524045059,51.058533673,54.2334991923,-45.8653304136,2.38952023712,17.6738007858,-8.08977755338,-23.7357575699,-27.7161659823,-11.7348811384,1.90465269053,45.5416820894,17.253312122,40.3404498845,5.68250241123,23.1646624389,10.4592027355,-16.1240079986,9.62802575618,51.659295361,-1.93434485926,-14.9882804838,9.39628271928,20.0276831407,15.2955633042,-17.0472383073,-6.35941374232,7.40131708543,12.2402140553,-10.7334426421,-12.3950780941,13.9985626498,1.11800432436,6.60964625154,2.17340445132,0.227901488018,-13.2906401589,-17.2446601978,11.0915398245
SW837,-231.107642424,-11.601123194,29.1947948381,-25.8252781718,37.1362767356,29.4940178434,-32.0666318915,19.787885224,11.1750990662,-20.1889130447,-34.7517804752,19.7307067222,-4.16032023254,32.025724847,31.1416636805,-27.8983953791,-37.9777156887,-14.6542393466,-18.4661449501,12.4844479731,35.6309821126,5.28331225469,23.3581134273,-6.71825626322,-1.09069854926,-12.9808566373,37.6852570415,-33.2175468446,-8.51385823265,29.4769744056,-21.8344639607,-10.9711722937,-23.0824280651,-44.9482119653,-8.59861083242,17.3995262737,-34.593026369,0.584973795372,-6.89469425864,3.78845122191,-10.7673237701,-22.8889200532,-7.86764402683,-31.5901453514,25.6541669202,14.9963779546,-6.46643080906,23.8032038019,-5.83877484924,13.7048441008
SW900,-77.8986870853,14.0483695921,-41.2061598109,16.2205324434,56.578825164,11.5882747383,-28.2497227377,-3.80749158732,-32.2067226408,-0.751966858837,3.40290141046,39.9328247961,-7.11603131246,-6.46354185297,-43.1205209578,-34.2302529292,6.21542878188,-31.3522846592,14.5675634792,-20.3994798155,-29.4388491648,-1.58741600082,37.0183679069,14.5907842248,-28.1107056485,29.8071224343,46.0921867906,-9.71508286822,-28.8124104505,-7.72905601906,17.2110478922,5.73657278923,-14.6553392258,16.7822024534,7.81457701056,-23.7137651529,-9.08490844931,14.4027841397,37.3519132271,-29.8305204502,20.9662914595,-42.8851903669,-27.1003023794,-32.0577390501,3.80678498536,34.4429791068,12.8191931305,3.97547707169,13.4776194481,-30.3321516468
SW948,-20.1954309078,27.6850441434,-2.63282391863,-16.9778170983,-15.634652463,2.20702799052,42.0619241539,0.653479440293,97.1260513114,27.5774851798,-87.6287557349,55.2581437677,23.8549592994,-5.94178260912,-6.93136508632,25.2623448092,18.4537765656,51.8595757152,13.4669420665,32.9429560901,13.3037770747,43.532470607,-11.5884836568,-8.18998771293,-26.2330706975,-2.54662119498,-42.3657262741,-32.2799251968,10.9023495529,-0.128801743046,20.4188241088,3.70038917544,8.47113061509,7.62983978563,-4.34605355688,0.748314739259,0.143350352689,9.25636816584,-3.10667352582,10.9387849807,-5.20743473946,22.987350405,14.8631166978,20.5374423742,27.3790860344,-12.4223171339,11.6894593731,-3.36601512033,22.1474303697,-2.09843445103
T-24,99.266895643,-23.1100477872,17.5812517352,-41.7219520352,-66.6024580047,8.19142543001,62.618774662,48.6460746552,27.7032196123,2.79053836206,3.30891170328,-19.2486639971,49.2706534164,29.044320614,-26.5628024434,-38.0131432029,-16.2395753527,25.8632199033,27.0690754548,2.65553630415,21.1565935584,8.78601296541,6.40854781591,-18.6551725621,-14.5977492091,-31.8268723585,4.02780263779,-2.25401315894,-21.0818442656,-16.231490622,-7.03394496562,29.6263636085,23.9599962238,21.8552695527,10.1181234281,1.47933502626,3.05555092441,0.780921041882,-3.91542229416,-9.73616321548,-16.5570720487,-12.2120827421,-28.461316359,6.31457695941,-18.8892562449,27.0535560774,-21.9300537943,-5.95847779323,-5.19001580386,4.7661192566
T47D,-38.1188728342,-38.2988353529,83.0478652109,11.3030354816,14.6207117387,5.02960747884,-81.3618894051,50.764051669,-26.4264284125,-6.40494869608,-39.8140649413,35.3931910761,5.21616109622,-2.0590112652,-43.2696064496,-11.2513358231,6.63517495488,-46.7116977751,28.4472952751,-12.2236695066,-0.381613198441,-7.9845232714,3.81580553,54.5447801772,23.7050673418,-22.5710482668,4.64768504934,29.5442422134,19.9157558583,-16.9401906011,-0.929325016437,-14.3532521655,-14.4228515352,10.6828777294,-3.67275053699,-14.8420209993,-16.0943155488,14.0745216427,-4.44295132218,0.206680106004,25.3504828869,23.3004339843,-0.757963833931,12.2287466081,-38.175392262,-5.51026110525,-23.1316391341,-4.80197361827,1.09490103384,-13.77369964
TCCSUP,14.6320182866,14.2768453546,-7.97594279403,12.1361520544,-69.2405831644,11.6714072289,-20.7136656353,8.60510793333,-10.4663051836,-6.9014699574,-16.806316043,-1.21488370431,1.81334257703,18.3727151556,5.38183697376,25.0217489918,-47.1304853433,-36.6102078382,9.20391597829,5.83980952375,-20.7925149533,-15.1728419344,-2.74130999108,15.6821580882,-6.71819066914,38.8211456016,-6.40635461478,20.6522286519,-26.4713292808,-56.5548406705,-4.03377302188,15.3400868093,-10.7653442859,11.0132875054,14.9671490641,-17.4292044888,-5.33618165447,6.90812716188,29.7614816287,26.4225933201,13.5608328586,13.8784910757,6.8272888943,-19.9022845338,-37.577884104,0.779347317566,17.2401953799,-9.79647148292,7.28108948065,16.5601003499
UACC-812,-35.5782904918,11.45202155,81.5014781464,-38.2680617216,29.3911984306,-63.1907793874,100.571357335,45.5166606809,24.1495653378,-5.04576566226,-71.138633942,-4.05455910927,45.0034796127,-5.45962024541,70.2918258555,10.7397092013,47.3856706713,-42.5711881728,52.758840392,-23.5993107232,-4.26484691031,-18.6128101424,18.5601177762,-1.79633404871,28.3753299351,-13.2067455021,21.5199084381,29.6095011956,32.1149917719,-11.9953987402,6.40943179698,41.2756758837,-18.6856837565,-34.2696938941,-35.5941817005,-43.4712137424,59.1209683572,25.0233730422,24.3472156781,-27.7570448055,11.9447270298,-41.3252470072,15.7696110106,12.7331347192,7.09049542108,-10.2687923737,-5.16590776252,-5.11615264218,9.32978665539,17.4638649527
UM-UC-3,82.9719669587,-70.3472570602,-28.8091615096,8.54194170399,-11.6244830876,32.0488853179,18.6541409393,-0.856828542515,5.78684278734,4.78696535355,16.1318246132,-27.1435034668,8.98087600873,14.4594029337,8.49107859651,-26.2749342057,-39.5285641054,-41.5856277562,51.0068113269,-35.3720401477,-5.19722451048,-28.9231531144,-13.7853076877,13.6050120035,-13.2128980901,-34.0153508963,-24.3217142934,-13.4426385177,-24.8577832286,-4.17720876792,-16.1125653507,43.92131927,-26.3691669925,-46.0204655642,-20.7698953688,-5.33598821635,3.74559399566,-8.81570885029,-33.3152948215,3.07023684942,-3.4748953367,3.30118495251,-4.16706403611,-21.7467454762,12.4119997889,20.6844620983,52.442776711,19.7509229943,29.987940404,-11.9374394263
VCaP,51.0420155729,-11.6917915069,-7.30986935469,50.0067566942,-17.2848107678,12.5114043003,-1.65272422836,-24.7941449976,17.1577542959,32.7444686109,9.4566738998,-4.17820628596,26.2255966075,10.7748147523,19.6646182099,-27.3141293522,-41.5363559574,2.57011308385,-9.24670744692,-0.671844781426,31.3779234452,-42.7441220152,-17.3042720516,28.9913577935,-45.5695856562,-34.404809907,20.6491971138,-6.08483548989,55.1006115645,6.27562010797,-47.6272250937,-59.5906583482,-21.2336407117,-2.50915684353,75.6530862975,-2.73649657915,16.8719636706,43.1232218515,2.21490105898,-1.50904803972,-1.81041084474,-36.3390826706,30.4231352007,9.12151383871,2.95144304864,-4.76087173175,-37.1480796488,5.06444316837,25.7988478859,-31.4309272622
VM-CUB-1,-189.223000497,-21.1185353232,-33.2429017738,36.643589273,-12.4578037773,6.55530099158,41.1095832193,-12.2414784935,-9.17206332974,-0.468935780277,28.1702458462,-52.7994098314,13.1339541574,5.63606026228,-8.27554893433,-9.77181580348,14.0143749462,0.186149502664,-25.7055753892,-23.2451468339,-1.92656051091,31.3773698492,-15.4325938353,31.8592299412,20.9038068655,-11.0895621181,-20.2285141841,19.2847780984,-16.8932323702,-10.3356467646,-22.0078207646,5.44956176964,7.47088823213,-2.55959472422,-4.69089644891,-19.0107382518,3.96042619664,9.39452047968,-0.0908294315251,5.36229596671,31.3556789039,17.3857926087,-1.79947870433,-37.90505141,-3.9437533344,-2.04081060588,-8.49778817981,7.53975961993,-17.1557732774,20.8537510337
