CELL_LINE,0,1,2,3,4,5,6,7,8,9,10,11,12,13,14,15,16,17,18,19,20,21,22,23,24,25,26,27,28,29,30,31,32,33,34,35,36,37,38,39,40,41,42,43,44,45,46,47,48,49
22RV1,-1.47313485289,2.4365473258,-0.602005446911,-8.13146638798,-0.234263366022,1.7130476989,-5.48143383976,1.81812502543,-0.217518619736,0.037089176299,0.0387051612331,-0.188312292811,0.0351172783097,-0.0710396008089,0.0314771235929,-0.267003206202,0.160704292386,-0.258994550826,0.0940898617923,-0.0998399663369,0.612910862468,0.0107492182683,-0.0605706852165,0.159467908162,0.0982064120298,-0.211841912833,-0.18363357003,0.648698278694,0.183187400794,-0.00257640598116,-0.0610912663334,-0.012190735505,-0.327080689644,0.0603150153432,0.1727151524,0.163302261423,0.72811372994,-0.670344905885,-0.0452968781935,0.0549839855255,0.125752089472,0.302444614866,0.178237276845,0.296738322979,-0.369827606234,-0.521204427864,-0.31530667603,0.0712256045807,0.492828175451,0.232963595801
647-V,-2.09153178305,4.58002711368,4.9410803169,1.64120564641,0.180356734469,-0.354983820017,-0.177026750886,0.363312275312,0.0364409866033,0.216195131258,0.495292214355,0.0725326863422,-0.370035481118,0.229187932073,-0.20889333605,-0.223712585912,-0.160168506158,0.859107379565,-0.219120643163,0.146355374287,-0.000386952628586,-0.0434922616108,-0.558503268412,-0.423387198674,-0.722465640987,0.226932831012,0.180735594217,0.183305642206,0.183186900513,-0.171493927144,-0.512368018304,0.190374980625,-0.120107410082,0.561159342948,0.35069369312,1.31766248741,0.522361319842,0.778962983042,0.0106164825592,-0.220862064073,0.136836460623,0.514167859279,1.02290149893,-0.218857579588,0.422211197662,-0.0904504147571,-0.170856713425,0.00171634348292,0.418624140831,0.616736759911
A549,-4.76595666743,-3.99475058482,0.00155700569542,0.357588498219,-0.793602974372,0.0987361956358,0.281471260936,-0.551618779358,0.0826075102969,0.567697071314,-0.412267157249,0.0336522304613,0.248310357316,-0.0915512784175,0.284629999845,0.683901581432,0.0987806127113,0.427228873808,0.026736527285,-0.0123355982445,0.758959901043,-0.355424347431,0.458228765926,0.187630352977,0.0952951633006,0.0328712895965,0.678346488337,0.342995379217,0.253633636183,0.354558704078,-0.194127886909,0.517140580493,-0.115734958753,-0.0142968580088,-0.226311578487,-0.620057295744,0.189442438945,-0.280748446411,-0.711004310623,0.873808176942,0.954276637327,-0.541751350842,0.112590533451,-0.0925652585586,-0.0755708593824,0.1998304538,0.307182892085,-0.0190704653134,-0.380575351028,0.198562762408
BFTC-905,-1.95390463171,4.71691573071,4.76732240256,1.52134952894,0.134017197933,0.00243230583164,-0.118942614423,-0.151544791771,0.546831312803,-0.662797133375,0.212087543864,-0.121301810333,-0.258075153054,-0.0129457219419,-0.0813119592574,-1.27301892421,-0.0201973351541,0.359075343857,-0.551672885435,0.112239063761,0.952631134318,-0.13069854606,-0.458753179035,-0.0223685924454,-0.728153990053,0.0935037283635,0.00950547502549,0.783663386643,-0.262333920926,0.284651086136,0.388635595738,-0.00829432896942,0.588187231126,-0.54081133565,-0.60169973241,0.256716280945,-0.437648332258,0.190557194422,0.557316004381,-0.240987101336,0.164496679244,0.142452669666,0.00168455594532,0.2792745203,-0.666177869589,0.0858643584026,0.375570983172,0.234320518009,-0.516206732372,-0.346650783689
BT-20,4.13194175827,-0.87635219477,-0.807341802444,0.398537482504,1.64002284866,-0.658792911341,-0.245542556418,1.56624811788,-1.40372735721,2.0022734203,2.89579213915,0.579304494381,-0.128702729315,0.738627829624,1.38821638446,-0.229915849243,-0.118154065818,-0.0853375001098,0.491704178814,0.151294902507,0.762092343535,0.225614856871,0.736562500725,-0.565827764226,-0.254299462127,0.281258526342,-0.423538398808,-0.842337209229,0.628309354757,-0.445220156477,0.558144723474,0.425647554055,0.263409100827,0.620137608796,0.275231885217,-0.0394484080755,0.470826245328,-0.276795967115,0.722246094374,0.757070754515,0.236524261384,0.472161198062,-0.0714736289077,-0.826571589284,-0.324704339196,0.272903248816,0.0324150314781,-0.152583610715,-0.379743550533,-0.184909595546
BT-474,4.48879192821,-1.35264110285,0.115443797415,0.0679001042681,1.73283588573,1.73182498975,0.331927292676,-0.344095005524,0.558342990948,0.477069286835,-0.055059763991,-0.741167125433,0.708902878827,0.16348946823,0.289136747171,0.403408688185,-1.56848205051,1.15199174289,-0.308251723761,-0.105407534822,-0.439746074304,-0.411571830363,-0.134543560372,-0.128712216287,-0.242629223352,0.101242129519,-0.859853180535,0.21908965004,-0.119579611653,-0.427604918807,-0.590304179937,0.572187962289,0.301352711557,-0.0120710185618,-0.51226054515,-0.124921329489,0.179045836083,-0.111318094679,-0.341167526366,-0.25234817056,0.245300413176,0.510310133601,-0.475390868062,0.00296538623784,-0.115356310448,-0.577246469307,0.683123245602,-0.0938370962698,-0.150930024368,0.0602342063706
BT-549,4.4859155968,-1.13489252299,0.205980848274,0.204306186004,-2.65305027495,-0.961473938687,-0.399141127769,-0.0592653363837,-0.620951384972,-0.155026554091,-0.925712890878,-0.250028158566,-0.0118217477806,-0.186248686489,0.269365199406,-0.302968860802,-0.652550956393,-0.149637200512,0.34851470162,0.35144439053,-0.385997995997,1.12396376323,0.50651828594,0.104332912261,-0.509993826962,0.434707355027,0.684157408133,-0.251788621859,-0.119306706365,-0.430714175721,0.868649021493,-0.552611954531,-0.247609515083,-0.205320892825,0.00426630414871,0.418308837949,-0.140686988023,0.358915374839,0.298000615024,0.369783424573,1.11829643193,-0.159765399936,-0.797540544874,-0.319235784329,0.581891187815,-0.265795867296,0.0963251608381,0.047570253243,0.0315632719481,-0.604404227433
C32,-1.01457918983,2.45350198319,-0.559743847892,-7.64021130897,-1.43939250632,1.43827031887,4.89829742542,2.76036608766,0.615410670121,-0.0784702834889,0.149558333683,-0.0596191853105,0.221255552465,3.81948971496e-05,-0.0410733503056,0.150276975744,0.156528765923,0.191488587543,0.214766543019,-0.0762512596273,0.251244316157,0.140004015043,-0.0315269574887,-0.133590519296,0.0567996080548,-0.44603819357,0.172155999493,0.106402220007,0.250878581171,0.0904643694616,0.194480083726,-0.282508036191,0.104738295152,0.1747806794,0.145690607238,-0.100939794239,-0.0361033608325,0.530970697527,0.0399632968218,-0.447025047234,0.226480347403,0.458163625467,-0.302068648131,0.166060073032,-0.61417971653,-0.140904696128,0.344117899447,-0.178674924823,-0.115095570804,0.159779196014
CAL-120,4.36328226706,-0.917566707586,-0.0260266763919,0.636594233726,-1.19286029152,-1.68970814105,-0.274224463895,0.872285638304,-0.299522834164,0.304289598537,-0.259619453588,-0.266024464356,-0.19785564213,0.0129984369577,2.00894323408,-0.288204992342,-0.075054203341,0.559272614682,-0.142032121792,0.863116678746,0.213444890707,0.171077846642,0.944544732822,0.136161264844,-0.0382859585058,0.758469313279,0.79563150782,0.246346838904,-0.654206005035,-0.492782498172,-0.341062368388,-0.237740615662,0.46715748397,-0.286579918152,0.59606177511,0.386919624112,-0.34813278328,0.720621663959,0.599074089418,0.597861584093,-0.282590249692,-0.576285686658,-0.0289272443078,0.157248576326,-0.272370646077,-0.293990385877,-0.536521086501,-0.419702610665,0.539723147714,0.313619287042
CAL-148,4.73076499877,-1.30392793058,0.261991330439,0.171505333935,0.949301779861,1.69827283597,0.178751622372,-0.839830499355,0.749085100867,-0.268851780664,0.130550451324,-0.0978102969864,0.712400225511,0.454503365791,-0.43091025742,-0.0992102913293,-0.679648623281,0.511622126947,1.05876075851,-0.00807565550352,-0.0223735989985,0.179746287679,0.39250839752,-0.211972027183,-0.653690458638,0.406652408992,0.0225030850652,-0.132347141097,-0.408229289528,0.0671592948232,0.939966169423,-0.00440097799471,0.864150240733,-0.720011745437,0.192699285953,-0.503515529193,-0.712211369076,0.112443950536,0.337647377394,0.00102025979295,-0.0191555164569,0.0484241151894,0.662856319564,-0.505458270124,0.0846557023858,-0.0952156302851,-0.292513455082,0.430026854676,0.124699546061,1.03986280475
CAL-51,4.59946844409,-1.27774923327,0.312626054135,0.189183558128,-2.09762269717,-0.801396568737,-0.42538271761,-0.477425295454,0.839683544787,-1.85107918961,-0.412259146086,1.6323001847,1.9161208081,0.184457929419,0.805724402315,0.630976724949,0.183826037424,-1.54205296203,1.45070974337,-0.734457601695,0.875113147631,0.109790998062,-0.712487562265,0.933821972113,-1.33526825874,0.0369509830562,-0.474088790113,0.320310715593,0.45380165727,0.482331889713,-0.38513297482,0.558557390726,0.220468800345,0.182859141562,0.394038000663,0.361158285719,0.491783171657,-0.293397206599,0.137496734797,-0.242441998841,-0.519002864212,-0.0983643889348,-0.409681454524,-0.561275553668,0.669071909504,-0.343301582987,-0.481220977518,-0.284155894032,-0.406268953409,-0.23550116819
CAMA-1,4.47723193496,-1.00509493899,-0.336806820456,0.122343420463,2.7390924031,1.35412431119,0.332072683028,-0.312500409739,-0.278476973449,0.0714785149054,-0.25333700589,0.000285930545373,1.06017056525,-0.203187958279,-0.289756241551,-0.92560752995,0.407820783605,0.239533381084,0.548031305382,0.366041576781,0.444833544654,0.680005085455,0.0823726045293,-0.16967272653,-0.634856079621,0.161750982091,0.969672279041,0.0802227505691,-0.239910714334,-0.80942493989,0.450791701382,0.859529883051,-0.706519775346,-0.495335816055,-1.09610905735,-0.561184187573,0.76574968687,-0.703153914631,-0.000511479847846,-0.32782871005,-0.0497057404192,-0.277737584944,0.430004435503,0.680622923071,-0.514112022541,0.561022274187,0.175346567264,0.626202145174,0.578987341149,0.0378948063399
COLO-205,-1.45812500787,4.35323684645,-5.94771657423,2.00498441214,0.410462909769,-0.1559116984,0.118720625677,0.0904085266023,0.39856583234,-0.0446114446973,0.60211488318,-0.707446875519,-0.150171135587,-0.881645510696,-0.0163429118019,0.637248577199,-0.683375925711,-0.370208967751,-0.0195667555665,0.431580717777,-0.624481128334,-0.177067732568,0.0841451163784,-0.512333482773,-0.444018588899,0.00616167940316,0.359966748054,0.249912366342,0.501462042918,-0.000897958644427,-0.168317351171,0.481880216774,-0.184224747011,-0.713194251501,0.75345412538,-0.627989753794,0.0590629117439,-0.379710571886,0.814909372948,0.0163367996089,0.0631903223602,0.970744238411,-0.00012039179968,0.293588445043,0.352970835557,0.351744980282,-0.0777355219131,0.428666951234,-0.237831208555,-0.0851805223301
Calu-3,-4.59513468591,-3.21231745305,-0.0665034964879,0.723691143938,0.835417681324,-0.888058869333,0.232184218909,0.313525770169,0.718028108515,-0.407626461373,-0.0904297003448,-1.44902648069,-0.652748913252,0.167697683376,0.054147236536,0.197671789911,0.194163272092,-0.599303560367,0.307414279906,-0.0546581468716,1.16314671741,-0.919325158003,1.14102746366,0.252178082484,-0.520734503537,0.275494959347,1.44273397324,-1.41769341621,0.196040850697,0.433015100322,0.376672187053,0.371074175172,-0.553243537265,0.983513172339,-0.414715155077,-0.0186624264061,0.0570101505431,0.537953577878,-0.120259658224,-1.23720169029,-0.601727312669,0.0259589912152,0.154008998359,0.0768167679751,0.257226319013,0.248171889911,0.121063246487,-0.294692936703,-0.250503543984,-0.248098380559
Calu-6,-4.60218710917,-2.89182259192,-0.538646370076,0.598967568535,0.470238194539,-0.0799668603676,0.0854836899733,0.546905594626,-0.897429261362,-1.63680550773,0.147993309866,-1.3364277966,-0.404587942058,-0.243759654719,0.0572389798789,1.1227480146,-0.97756276066,-0.255083659087,0.355858765726,0.230143125098,1.85354834782,1.47324147254,0.168883150523,0.419504309277,1.15477478715,-0.101477713682,0.157586839284,1.14169532043,0.4103382714,-0.785323680869,-0.260173829158,-0.317016330675,1.07401232947,0.0440909925787,-0.557638482887,0.547839855155,-1.18177991173,-0.247538790378,-0.0739778380044,-0.532691161592,0.0970300036924,0.0415454075761,-0.462933486564,-0.204217661296,-0.334120762569,0.172160462265,-0.159539129146,0.308104068794,0.318671426032,0.0207661137433
DMS-114,-4.28550745592,-3.09838113229,0.251647077742,0.107871389231,-1.45375941108,2.05578905707,-0.0157587235856,-1.76041115561,-0.848336844153,-1.2299814006,0.620164352373,-0.665255715554,-0.810890636609,0.556057519075,0.178013257917,-0.422554995567,-0.293719860151,-0.372823909644,0.00601625748071,0.0790616938864,-0.991518599079,0.218701344839,-0.780400751725,0.126741583454,-0.457065336274,0.850775539518,-0.781957255755,-0.1274130124,-0.126305633354,-0.597229098354,0.402603418791,-0.456771158844,-0.494454792059,0.013291580593,-0.0571208287623,-0.452819839319,0.119817092886,-0.336008371132,0.0771194669978,0.0609780504544,-0.319546987097,-0.416870334119,0.368911405269,0.122297021731,-0.520899389631,0.19484592694,-0.695626818423,0.16442419931,-0.834948682314,0.484398300438
DU-4475,3.14728950238,0.16998918464,-1.34782778583,0.781121011026,1.3527371265,-1.15206949492,-0.144601796523,1.1209427276,-2.18224529211,-4.30508887484,1.0173368412,0.579008971887,-0.302552307204,-1.55285126682,0.278406355704,1.65283222312,0.646944030019,0.777968577274,-0.522184645573,0.828115876171,-0.258892530925,-1.45873153991,0.468741965063,-0.603267256147,-0.0928831603526,-0.300924454812,-0.479737495687,0.0214801304142,-0.548273118973,0.740183574561,0.123789590851,0.0946642119794,-0.253579616009,0.188547037971,-0.4080988727,-0.124817566643,0.51482997397,0.143181808357,0.341965179673,0.0731394025276,0.44405530414,-0.136087249946,0.088680358177,-0.383028434013,-0.490150994322,-0.365734536782,0.156589336279,0.182915441865,-0.0442006969608,0.0427030781321
EVSA-T,4.42063171897,-1.21261713858,0.116833354493,-0.469482661403,1.40979380843,1.33280423484,0.195941116627,-0.732593318379,0.133772655251,0.718883222294,-1.84541432529,0.681178613208,-1.69925903307,-0.555399476044,-0.49096464027,0.945324907865,-0.0810534366721,-0.165875369416,0.829231235921,-0.612008136785,0.720308621994,-0.944434428939,-1.04239639375,1.00163188635,-0.800191896969,-1.11239438842,0.719089581512,-0.620708616776,-1.38243341151,-0.422160699656,-0.138972231464,0.372254088713,0.540769900801,-0.345890979388,0.477782604471,0.000413796573762,-0.0294351382155,-0.19919269113,1.06515131906,0.396207347518,0.60829191969,0.0723244930096,-0.361855622404,0.325391088625,-0.207570139981,-0.0906697478617,0.0868206840245,-0.00550716376527,-0.0719172317128,0.414736747245
HCC1143,4.06854199185,-0.94272823311,0.105509220427,0.925172805991,-1.04917346175,-0.963046318116,-0.164993725665,0.348306443407,0.594714498647,-0.488951289485,1.10112358126,-1.33892673709,-0.307131208939,0.25849182122,-0.122598404881,-0.805484871612,0.963550397249,0.796944380981,0.632251454111,0.236436569035,0.0775462981132,0.0875846569624,0.317400262113,0.475039568885,0.543403439204,0.0349638346277,-0.0286285563743,-0.0603109295614,0.0633015092958,-0.402716378772,-1.64947500907,0.219514571083,0.0134950525529,-1.02383348952,-0.288229093491,-0.802955355416,0.40258187535,-0.219672762448,0.207950150148,-0.79366335637,-0.105051227507,-0.554476937082,-0.575755629554,0.247365870499,1.0571988787,-0.459696005243,0.0176108205889,0.554003908892,0.248071648404,0.130886484264
HCC1187,4.37391794379,-1.33657506873,0.324792356164,-0.367566072759,-1.69667544383,-0.183231215035,-0.096535068862,-0.971914035657,1.3929451652,-0.533453328915,0.735116416612,0.633732860284,-0.484953486486,-0.510416892086,-2.28278745364,-0.318696362922,-1.43844468084,-0.0587434802609,1.15621347798,0.132188545366,-0.0256685461394,0.333036477569,0.875547793354,-0.878417062597,-0.125711854056,0.00539703676755,0.0949209164491,0.464582764565,-0.217835848961,0.572156442966,0.77964776139,0.217529635567,-0.217294371272,1.44604782235,-0.136330423936,0.218927323006,0.178761084723,0.354965848952,-0.766431292262,0.980617070606,-0.182431956789,-0.299599175731,-0.71715364111,0.770045519728,-0.0247317929741,-0.220122892974,0.222636527091,0.408341564072,0.551489379529,0.200442562131
HCC1395,4.55306809181,-1.04113769183,0.1603024134,0.417464812754,-1.99474363995,-0.186532418628,-0.226664140445,0.11538622069,-0.924835502269,0.789532250614,0.855281525792,0.307263176335,0.714176313032,-1.20147024784,-1.5851632799,-0.097773566505,-0.830114163708,0.348921522238,-1.74413335893,0.225353565775,0.957419863971,-0.100770601663,0.04562915616,1.29870886112,-0.294299342366,0.182016460126,-0.124804087783,-0.253095078782,-0.0670457417619,-0.0940734824608,-0.243017995357,-0.0813827632941,-0.101068021985,0.0391039906106,0.0258432726674,-1.02779008172,-0.14450483158,0.0569627455881,-0.316844912025,0.00853298944774,-0.859672622738,1.29105362891,-0.482213653865,-0.239380288785,0.140608884394,-0.413294836703,-0.199035267844,-0.791656305264,0.0359655577316,0.19983622867
HCC1419,4.31264421617,-1.24722751841,0.148113590369,-0.151148830594,1.36676931796,1.49304806808,-0.134160711917,-0.430384663743,0.382362725375,0.255226618484,-0.76098994168,-0.567294387604,-0.2251176403,0.485884708697,0.686891873966,0.566597711619,-0.68210650438,0.36265696816,-0.288050163854,-1.18160650813,-0.669842256684,-0.950043195584,0.872585436144,-0.0213494515907,0.37625019223,0.513201842642,0.121130472545,1.71462709664,-0.66523013234,-0.467509754329,0.430484075127,0.349142002957,0.392683763462,0.700337256447,0.133240210803,-0.384911383477,0.346405568457,0.176423967654,0.138736163205,-0.193423566054,-0.464644551814,0.0874997955598,0.524504027652,-0.299809990755,-0.00220077023042,-0.0331964405398,-0.460760314766,-0.726983946694,0.60945158218,-0.751281078084
HCC1428,4.52610441025,-1.39213705547,0.428848816084,-0.125422410871,0.64054898196,1.40647660437,0.31840293897,-0.978888513459,0.51712909189,0.159629865147,-0.509245096646,-0.235134044737,0.641671884017,0.679777119318,-0.949165738429,0.160664018344,0.530360077221,-0.21728859817,-1.02529916354,0.827426707085,0.439667044382,-0.369025662862,-0.378715483652,-1.42661384924,-0.20705937331,0.424404374994,0.125927304624,-0.34851216002,-0.617981876379,0.188156130705,-0.964472594525,-0.199762658225,-0.0546786028662,-0.409544687124,0.637006175692,0.389882909609,0.113099444657,0.293523594201,-0.341607613103,-0.135990428209,0.226334769423,-0.497583458556,-0.197442034067,0.111573995954,-0.37227150806,-0.513538737906,0.0742710682704,-0.957523893355,-0.223378164582,-0.223369030388
HCC1500,4.25772438378,-1.15659444946,0.110054235575,-0.328550378271,2.08469956568,0.907408080034,0.343051953659,-0.210597915385,0.083028421236,0.271783924292,-1.47291168712,-0.336574337813,-0.353567400809,-0.839742559292,-0.129442535108,-0.996552154246,-0.0444645595719,-1.57355578817,-0.361256629135,0.0249791265144,0.464722264227,0.787460157042,1.16110043564,-1.12621495416,0.0409397131979,1.4368255867,-0.941602871198,-0.0714064405458,-0.118368745988,1.37512668214,-1.31385136515,-0.836248695166,0.49028999208,-0.0725542225053,-0.0351889928898,0.0997466243318,0.532266347458,-0.742053620895,0.336636697449,0.317213620793,0.191675930415,0.0870605568987,0.0885663049339,-0.297613531132,-0.0478203444377,0.290126939313,0.293354615948,0.060303903498,-0.0179965018976,-0.173833485815
HCC1569,4.38125791032,-0.796458902276,0.0584178678898,0.68227233608,-0.989771376296,-0.657731649383,-0.112544432654,0.340763932102,-1.29726924167,0.0984628656632,0.777635472709,-0.915645735263,0.106306924494,-0.0290708599052,-0.835809614014,-0.544851359286,0.869004725641,-0.0164787737785,0.681585829336,-0.98123786042,-1.42256843901,-0.774456407153,-0.913062676136,0.0871230928911,0.885553585558,0.687336769162,1.10900314916,-0.401375472558,0.692241254433,0.273644797411,0.409740512642,-0.343340865102,1.92605699828,-0.101189575285,-1.038508096,0.664013959416,0.683984852791,-0.205460553702,0.18254347796,0.0487057922461,-0.428898284791,0.120248772509,-0.203164272978,-0.0931718690379,-0.54479068333,-0.21804384219,-0.00199346627074,-0.415745826162,-0.296647449939,0.260006501469
HCC1806,4.435571524,-1.35613645676,0.745385373233,0.235727310959,-2.02008662221,-1.45137774629,-0.254788854571,-0.111074727246,1.27043698482,-0.33922464907,-0.134835329111,-0.0827501941872,-0.271100198674,0.350857112782,0.703767927788,-0.153617274857,0.548396257431,-0.666406913423,-0.629624524155,-0.367819672641,-0.105700174732,-0.489935905151,0.0378723802895,-0.247956637318,0.264018966848,-0.624836011132,-0.0473525790491,0.03548796751,0.402517619954,0.111099462546,-0.208438647089,-0.148032174619,0.273830952742,-0.428188530081,0.484424416264,-0.0552868003744,-0.317454342653,0.534722524332,0.0178973869096,0.481297351385,-0.367360498643,0.0247281893861,0.59223562724,0.749174020646,-0.319327552748,0.645457344473,0.615058352994,0.204716275633,0.0224276805843,0.537782770821
HCC1937,4.32945958916,-1.23261762356,0.0955605950328,0.597927655329,-0.892878076848,-1.06996303196,-0.311836315649,0.265693562167,0.851213517725,0.443861030108,1.4764382241,0.546714584888,0.88336114522,-0.0171482977223,0.730475875731,0.0734020954794,-0.32063072099,0.0426361562213,1.16127874861,-0.370392585241,0.53513274837,-0.194240579906,0.287446654256,-0.274160450426,-0.0235746145198,-0.0174200668329,-0.73208907684,0.189074137491,0.136081331418,0.248841554435,-0.378288696353,-0.133518689724,-0.0502844588443,-0.132207340411,0.288083696259,-0.702909157922,-0.406726286115,0.671791885252,-0.131707850226,-0.858221792444,-0.130469391313,0.0335727022951,0.781170260625,1.18949991769,-0.46556440559,0.180615807235,0.26136619014,0.265487382739,-0.203046640725,0.116788991897
HCC1954,4.73709978257,-1.12887040011,0.00182546399195,0.555617628491,0.938745237105,-0.386487965201,0.0257080302914,0.895111652426,-0.115459233791,1.43694311933,1.16077187501,-0.0444397964143,-1.34599417903,0.592670232895,-0.368381324801,0.0095938025072,0.133146834961,-0.367063938688,0.0452651315924,-0.0464229387352,0.0769402815224,-0.303989915805,-0.670135649183,0.0403030119281,0.14022120004,-0.329541164898,-0.833339312219,-0.348126667001,-0.219721966917,0.020809980877,0.470133776866,-0.0448462991258,-0.385029788571,0.212319492959,0.0858074367156,0.369079828603,-0.54238925622,-0.336337642524,0.53992620832,-0.496052891357,0.356007741578,-0.0439388044419,-0.799375998244,0.205852259201,0.368469956392,-0.198553743476,0.658501434323,0.326226032889,0.198122882677,-0.262631410901
HCC38,4.28337843383,-1.13711118842,0.42318889492,0.616761153307,-2.45931916522,-1.28907890227,-0.171518205623,0.327404563434,0.202916155126,-0.0826617108038,0.0759466876518,-0.588584329444,0.255730645569,-0.335630670179,-0.143780785888,-0.28713273577,0.447823144545,0.445588312793,-0.771809491457,-7.04953310676e-07,-0.173239507462,-0.217120595317,0.0555791884266,0.478219166928,-0.0847826068696,0.637622811501,-0.23955209889,-0.131091736811,-0.0892104492996,-0.568007503692,0.015508299927,-0.252710084286,0.0994276538938,-0.0905637225868,0.284427774121,-0.742511707598,-0.370810981357,0.510925700151,-0.411579486591,0.387362854554,0.374513665178,-0.105952674577,-0.172830416332,-0.0981641066234,-0.363738775885,0.0219682720972,0.340665848361,0.0662818719377,0.197028795424,0.083097201254
HCC70,4.48716336314,-1.29988720858,0.417120553501,0.104793372787,-0.951024774934,-0.931357146067,-0.453868111256,-0.0713113787272,1.76937524653,-0.641774840852,0.341892747661,0.317320770525,-1.684741031,0.627624399294,-0.421798756357,-0.0656463441878,0.0926406613697,0.350451835517,0.323656093346,-0.32368601214,-0.41217548125,0.117039025474,0.363606141711,-0.25566054543,0.498836295715,-0.686452143242,-0.364390843805,-0.7969431538,0.100168404352,-0.486573980157,-0.369846897653,0.329977883587,0.0105507680118,-0.539929118839,-0.322454865992,0.638442348017,0.399809743839,-0.677535593608,-0.668203250008,-0.0886522228543,0.426095445104,1.23214157969,0.162845042513,0.0515261972043,0.0698013793205,-0.286546551195,-0.636544223399,-0.17267312842,0.0820935045675,-0.517192160389
HCT-116,-1.48295630233,4.38365216589,-5.64641213156,1.9029195133,-0.698288228995,0.414503855466,0.0504915775116,-0.256594569074,-0.72229264258,0.0179030079365,-0.651414216056,1.1766403467,-0.0621590841677,2.24131084202,0.224003353961,-0.928670970549,0.797277574081,0.281349566599,-0.333315385122,-0.21206275303,1.01426080852,-0.599503979871,0.647051035813,1.00723378671,0.141596512684,-0.484791818803,-0.586782286931,0.479585254734,-0.706980206124,0.563525345381,0.46447749748,-1.27975257438,0.172161624051,0.590829647972,-0.59217766552,-0.772814219942,0.259054962172,0.239317859703,0.334341448528,0.296970349712,0.176140144458,0.440658958782,0.0784489731113,0.278729622561,0.192553744635,0.337280816604,0.01235630046,-0.052003317154,0.057578859796,0.0736074451757
HT-1197,-2.1252707577,4.39758323835,4.62572207854,0.53840748089,0.133311305724,0.732405628744,-0.480076273636,-0.537536872495,0.350977887664,1.02495895622,0.437644274818,2.31644890684,-0.983470433425,0.370233028234,0.395993136031,1.12121160072,-0.185291590725,-0.371111222404,-0.171548047602,0.646368876483,-0.828343490214,0.201516068844,0.0878024499026,0.796163794408,-0.137864946831,1.35567630589,0.30201390502,0.448934052384,-0.287266414442,0.241029213479,-0.587571761118,0.306191736811,0.702671978747,0.123890053395,-0.861814836127,-0.253962452219,-0.41700651491,-0.106801418247,-0.509349438756,-0.78978745283,0.219374391274,0.073028448739,-0.0462101111358,-0.542611931569,0.219945816469,0.133426501866,0.483988566048,0.454714622516,-0.466966715468,-0.00622079575214
HT-1376,-2.08807254511,4.29360866492,4.5494866077,0.351744646805,0.331231631206,0.51727810775,0.0513238325784,-0.382926086012,1.17314453608,-0.232056266029,0.272664556349,1.99477017408,-1.25765601892,0.668393357631,0.196788198639,0.641024896868,-0.28116324993,0.417181083005,-0.0938566233988,0.864667483056,-0.256256521334,0.2031733962,0.718322257036,0.713306990686,0.0563685316514,0.39868278396,0.0900916625374,-0.310974089261,0.868416776458,0.549983981852,0.183779154325,0.270379448985,0.0588034144778,-0.957371899619,0.205756630585,0.122101409637,0.131638849929,0.121899083212,-0.34616616736,0.258082479023,0.0516873205481,-0.313820163067,-0.343165278579,0.201638116321,-0.724226238879,0.157510090048,-0.240184482912,-0.264488929909,0.360319528835,-0.111359376127
HT-29,-1.5714340582,4.63973340569,-6.15168632895,1.84075271164,0.156701489973,0.090349900361,-0.0471638023004,0.148828488142,0.529383257107,0.328034876769,-0.0671197085059,-0.308712036396,0.0828666386708,-0.326216789507,0.0574439319201,-0.0539058495704,-0.174091456665,-0.1368752497,0.386307927959,0.47070520142,-0.130167253185,0.208251416905,-0.245630555619,-0.428949931171,-0.15535961167,0.077267872856,0.316654001889,0.448010964667,0.291552194322,0.185564231715,-0.323867963456,-0.10733762511,0.00435361365485,0.314749372197,0.703832493578,0.00793916860783,0.176663724604,-0.185896225897,-0.234590664385,0.038569517827,-0.147377087999,0.207795104794,-0.805830025688,0.302425765865,-0.509381688843,0.422317554498,-0.206992522685,0.186747588861,-1.17578928928,0.0111404339387
Hs-578-T,4.35943294691,-1.08181927638,0.0645602190096,-0.41712416714,-2.40914437219,-1.20486106029,-0.0565016078513,0.26879605075,-1.03438061086,0.575007786389,-1.54251837269,1.15967483215,-0.311043928347,-1.19276745365,-0.853191595114,-0.442673677901,-0.901281245669,-0.312173064917,-1.28054569293,0.215367518582,-0.035462201247,0.582116026229,0.203013892806,-0.0514427679254,0.8980630601,-0.321317163203,-0.562573201876,-0.0660560758861,0.438062445925,-0.344891958421,0.694665362942,0.716682945281,0.289636875003,0.545591796812,-0.118898905192,0.231617994852,0.746926737104,0.140851032144,1.18244034114,-1.36441398586,0.406435593152,-0.670433774197,0.720846549457,0.363435243612,-0.00205823659109,0.456654102788,-0.291609673706,0.143456865429,-0.807290561897,0.155455805228
J82,-2.100543877,4.58085087977,4.96407965198,1.58484487875,0.0191666220791,0.161679576708,-0.0505855468672,0.161602723884,-0.0444095744302,0.101638060805,-0.552788284989,-0.611733809705,0.997805740838,-0.261426732896,-0.206231521804,0.518261739975,-0.286311723107,0.847174811316,0.819257491764,0.235990141747,-0.0137427125544,-0.0440676272097,-0.562216538941,-0.17026192922,0.135271111548,0.0840088141694,0.36457999473,-0.710980628069,-0.483580569282,-0.660740260444,-0.285670912708,-0.635018765454,-0.232638725526,0.984993625115,0.238770734996,-0.391551249021,0.0978441877248,-0.275892363627,0.162100074389,0.665021614393,-0.63804373877,-0.0231414707628,0.266913241994,-0.692514673853,-0.10066451639,-0.0183126556544,0.599677775607,0.820579446866,-0.45539304356,-0.0550575340253
KATOIII,-1.65002881283,3.20982337304,-0.928656575138,-6.34018850952,2.57050351742,-5.05592198922,0.78428100962,-3.9831285365,-1.51815483398,0.19995549731,0.166587186987,0.0285437513863,0.368981037175,0.206218647219,-0.105338495951,0.199678217087,0.156632312156,-0.156949913277,-0.0309046871188,0.112925284096,-0.131768952294,-0.057296684446,-0.490707304849,-0.131355323329,-0.35166321818,0.542837097145,0.778165354217,0.607208420889,0.416029133516,-0.778282225577,-0.169227361423,-0.539850464344,-0.0727518141361,0.428560555456,0.655073384277,-0.149717663395,0.0569457356438,-0.255152463672,-0.0745710831258,-0.448877961675,0.776640645939,0.512284571327,-0.248900824519,0.398752562144,-0.0972170896417,0.13059676491,-0.108683470192,-0.445721194116,0.286030137284,0.217555896943
KMS-11,-0.0230163129475,0.0269365617806,-0.00356548562703,-0.0178466931302,-0.00204702937431,-2.22552938239e-05,0.00117509749335,-0.0015360477866,0.00373213136406,0.00675539417155,0.00104076581532,-0.0039160773086,0.00641527358916,0.00302658846594,-0.000814499329603,-0.00058991929612,0.00152443043504,-0.000437233669671,-0.00071124486262,-0.00576237350295,0.00138953241051,0.0020675108573,-0.00242572126947,-0.000962876241648,-0.00208506478355,-0.00228600730916,-0.000618638356684,0.00065538736963,0.00086125498404,0.00146483758598,0.00231007859739,-0.00115643941044,-0.00111323716267,-0.000251397794617,0.00185740361407,-0.00193385645252,-0.00316265042676,0.00218684196881,-0.00106726063256,-0.00197154479289,0.00229386271467,-0.000631945967572,-0.00425166382395,-0.000628988555002,0.000410526742945,-0.00259953076248,-0.00227427445523,-0.000207827264061,0.00234063352633,-0.0013312054494
KU-19-19,-1.71364299043,3.75543251848,4.3875307278,1.877632999,-0.327454213723,-0.241894184258,0.135165202082,0.220444587831,0.139928587283,0.206034051803,0.103053203265,-1.18377770996,-0.378287894608,0.261665521485,-0.287072948317,-1.0244593582,0.211092054073,-0.157766908513,-1.11229151462,-0.428318861955,-0.0323334905128,0.595018207623,-0.415108523101,-0.317930626892,-0.901498709284,-1.30376343651,0.107160333906,0.661264345981,0.572139202931,0.649638444938,0.249767526865,0.536356878522,0.262885919862,0.408719979278,0.601914782766,-1.17885510911,-0.327921659373,-0.492970915041,-0.0686492199939,-0.335548399256,0.187682811424,-0.605339341128,0.0249085161738,-0.921802215507,-0.730207345356,-1.06286654868,-0.58731354194,0.157184925251,0.138731301834,-0.155358620022
LS-513,-1.46244648294,4.83442973226,-5.96801487648,1.76597176182,-0.185525465063,0.372417235856,-0.123707893831,-0.30405521471,0.472478861973,0.14232955756,0.0541376553935,0.156959848694,-0.23181320859,-1.20990858489,0.161526748647,0.403748388388,-0.682740841603,-0.194514556173,0.283311054536,-0.130355765798,-0.537748091302,0.11980010183,-0.077462886826,-0.144768682738,-0.339389473587,0.128974999597,0.544023279873,-0.101652087036,0.630395535667,0.340901110149,0.513420662813,0.137422002481,0.0177050006765,-0.807231548209,0.265795953436,-0.415621733297,-0.417976645202,-0.158912208072,0.214238218497,0.0776091347988,-0.469992297759,-0.383422229605,0.268584970138,0.14326333344,0.0365261405528,-0.0562617804196,-0.28318986539,-0.424849266023,0.571462832935,-0.803343137864
M14,-1.18648359657,2.64418399382,-0.455044252369,-7.44475254614,-1.51140750375,1.64307072082,4.88173343166,2.28179420223,0.699636828454,-0.168533640342,0.241527567826,0.108860152893,-0.0616904745048,-0.263411401636,0.348472797261,-0.143797342784,0.209881438403,-0.104978652721,-0.128869156643,0.110435851893,-0.315438643937,-0.168202576164,-0.0191135328146,0.128846572551,-0.169933770417,0.506876759157,-0.0491357683411,-0.038945286292,-0.295674491097,-0.119113409609,-0.144541385294,0.102696018346,-0.0565310297748,0.0130477866837,-0.236703456451,0.113570679332,0.0571802949605,-0.49631590373,0.0904085006139,0.337916612875,-0.204107955126,-0.302358382242,0.226024348306,-0.204116066539,0.603269449482,0.0736012111589,-0.416512045968,0.229320246012,0.162122390084,-0.216334438173
MCF7,4.69100008786,-1.25246504508,0.00470158024081,-0.0287830568118,1.47004473863,1.355482752,0.258621087824,-0.487880011201,-0.477281435692,-0.258519041723,0.593385426853,0.225989687121,1.08563095156,0.568792601013,-0.336787866358,0.0229579752971,1.30508372156,-0.287149373639,-0.706642883708,1.18610900476,0.636001225524,0.657796651532,-0.666325184578,0.807503778505,0.57905402265,0.196206083016,-0.161857118678,0.0156499714271,0.346548212876,-0.690898616864,0.415388524606,1.11773798924,-0.60541592944,-0.0667142983389,0.0962167998221,0.426164633826,-0.221708837807,0.161060945887,0.224658764572,0.714493600894,-0.141960246191,-0.641053442754,0.129206214941,0.255846636254,-0.0929638527913,-0.298524294389,0.40660166016,-0.296055941079,-0.328724756293,-0.723313919653
MDA-MB-157,4.27280881894,-1.39231611041,0.530464159091,0.0131486095663,-2.16745990949,-0.0675173352202,-0.179881142417,-0.557739420781,0.365889257119,-0.244628003985,0.656808338467,-0.124790960319,0.498111969922,0.552905004304,-1.3462283258,0.400616318758,1.259138803,-0.601408786365,0.210786433863,0.075096098529,-0.818920558478,0.114959074553,-0.453822274098,0.703642862365,0.267371395792,0.00397000702248,0.661650290508,0.784627879796,-0.0905751797792,0.319978248337,-0.321501258089,-0.0528659469917,-0.0510500082658,0.336714079074,0.380675125846,-0.112922838912,0.0502977140361,-0.0894398400889,0.242016902955,0.190753934589,0.544972872662,0.214730787396,0.774068697044,-0.652259435336,-0.225495823545,1.04295102017,0.329583197814,0.475615327308,0.764893869217,-0.943151868568
MDA-MB-175-VII,0.100254214594,-0.0200034381213,0.00150457385456,-0.00137534304368,0.00445636256105,-0.00924238174343,-0.00298292189706,0.00724891573703,-0.0130045033575,-0.00970979654013,0.000513808575335,0.00571534429444,-0.00119942259068,-0.00983705744109,0.00410176145295,0.00376081490668,-0.000248408091641,0.00352302090742,0.00375981865775,0.00504400990355,-0.00457432238719,-0.00779347282859,0.00356774389791,-0.00362345554469,0.00140190366858,0.00759140434144,0.00426378020152,0.00864720661065,-0.0050912166053,0.00329467524948,-0.0057018413953,-0.00213427175239,-0.000727235484971,0.00254364061602,-0.00474661448732,-0.00249988350897,0.0108182050714,0.00546420441192,-0.00749035719944,0.00117297980995,0.00620123565471,0.00366526631362,0.000267660173213,-0.00239177637863,-0.0072054656632,-0.00227906255138,0.0136751170359,0.0036606953527,0.00358096180742,-0.00714370177237
MDA-MB-231,3.97436245186,-0.616581382006,0.0199733747479,0.925985549422,-0.405672689636,-2.5529986119,-0.0441918506828,2.36632536841,-0.907095632127,0.250428862868,-1.53351606219,0.542968228373,-0.0280778337993,-0.410846405382,1.32915918254,0.3312083666,0.0281554187359,-0.536237797728,-0.52987610901,0.0654771938485,-0.398562514385,-0.251933318676,-1.19277070585,-0.554069154816,-0.436029984385,0.440634956292,-0.669783371817,-0.37545144795,-0.476430551701,-0.528808762296,0.57837400621,0.127032953308,0.375785072102,0.398083033328,-0.135671584167,-0.23882841215,-0.754101008104,-1.1787802698,-1.54400427111,-0.0152889594366,-0.41848710357,-0.0440045113585,0.253781962398,0.631485146188,0.213979603011,0.105780361618,0.155876043038,0.304254160997,0.4469684523,0.125390762944
MDA-MB-361,4.52649509082,-1.35047593058,0.128902068849,0.173967480594,1.54161728128,1.40865466898,0.391284508886,-0.672151350618,0.122484822725,-0.284146849524,-0.365606848279,-1.08171431257,0.370284786203,0.979298054755,0.410192298518,0.711947555636,-0.241994816313,0.873879978035,-0.842691995365,-0.720188303987,-0.688749584342,-0.441698643971,0.220353388737,0.452368965009,0.537170787941,-0.247860273776,-0.563661460939,1.02959931484,0.901706547677,0.218522516685,0.245702210083,0.468666728639,-0.171647615656,0.343953689611,0.575607065659,0.469916093908,0.16786013335,-0.0577504680008,-0.124825918498,0.0844417578803,-0.102170524325,-0.264453304835,-0.928170437662,0.280099725235,0.766774398194,0.955653201961,0.205263513673,0.287039860063,-0.474689116291,0.213796324898
MDA-MB-415,4.3117177492,-0.983880377793,0.333105091947,-0.674251110604,0.276715962402,-0.374962533376,-0.0160987765169,-0.614221420041,1.56972194445,-0.58811272384,-1.73740676159,0.58278181221,-1.09491079049,-0.542597902045,1.09954628079,-0.534895482618,0.160251207647,-0.115978582514,0.0248795604251,0.0215423799162,-0.0829622251641,0.341091713468,0.310560789516,-0.339496637885,0.337826623552,-0.982160740707,0.636190590543,0.406650425579,1.1786286828,-1.11364729548,0.0839116896952,-0.462007383673,-0.830639839524,-0.341366831342,-0.690490831015,-0.590532571613,0.5664326002,0.473064120053,-0.53113304416,0.317582843769,-0.145011352914,0.609695125768,0.36622366301,-1.00286569681,0.102264358541,-0.272249823778,0.750270567714,-0.252797749042,-0.739650004153,0.0796149865652
MDA-MB-436,4.03878991606,-1.28527386324,0.502896558339,0.995536129276,-2.54289175908,-1.23973310388,0.0782046848565,0.609925060927,-1.40266891194,0.729535453208,-0.201566371282,-0.844534585878,0.309090303782,0.931950898934,0.734397642326,0.681257824796,-0.889855842863,0.961447750999,-0.31279191947,-0.4568237325,-0.502247821492,0.800995491133,-0.116129049867,0.0374829079408,-0.231916140174,-0.299498530441,1.01815538612,0.0626238870423,-0.734699850645,1.4843637779,-0.516752283122,-0.185507555608,-1.73871094815,-0.208123279404,-0.649862807431,0.63073847644,-0.322353350815,-0.98783095604,0.329225625888,-0.0236784329862,0.0102096655317,0.146898957081,0.0300587377956,0.072626447758,-0.465287300025,0.18302653747,0.0456121998192,-0.134774313033,-0.271843960296,0.0535892638855
MDA-MB-453,4.14965439694,-0.571252445375,-0.830954219068,0.157682588224,3.39530066959,1.01509959743,0.424221744274,0.67168969302,-2.02392316387,-0.427665580621,-0.260770400786,-0.0314765358921,-1.02024785885,-1.5020040037,0.191791429401,-1.75881704582,0.478352045996,0.817219936033,1.1784811155,-0.543060480351,-0.524196271697,0.707538697495,0.0490919184898,1.86764516835,0.356698535233,0.192726915214,-0.182487063385,-0.328331449902,0.0717151683547,0.897288860748,0.00183587991109,-0.252058655208,-0.33467664074,0.327759349164,1.13336334096,-0.0914066787404,-0.376795370454,0.266728671863,-1.12813582345,-0.263161834964,0.369879852103,-0.210383789119,0.332921974332,-0.0506850744175,0.0937517709723,-0.0113310834375,-0.0381172849152,-0.250549256823,-0.155363770413,0.00114413005623
MDA-MB-468,4.66354702878,-1.17271794329,-0.0904845796166,0.0671935951225,0.443093160608,-0.330355343964,0.140227326775,0.426543983473,0.242464120482,0.983548477416,1.48526760122,0.0649158680804,-1.6192466276,-0.0529019477817,-0.686165084197,0.763641027749,0.0873405404597,-0.52187272448,0.367847167802,-0.522812651254,1.03545458537,-0.460161616447,-0.487700111912,-1.05577694854,0.480068663662,-0.58556204551,0.176170867003,0.733079028379,-0.584391017357,-0.360312537353,-0.187299088139,-0.671762679706,-0.468722676642,-0.157374035779,0.291186634378,-0.0670747182328,-0.395692472117,-0.165672937822,-0.587825452645,-0.125114560235,-0.415341943055,-1.21344793303,0.434082990575,-0.826609256591,0.216611965248,0.508886140627,-0.576051962499,-0.416448285164,-0.489378813392,-0.0508395382968
MFM-223,4.49512501286,-1.04528810348,-0.204366698523,0.0485176391523,1.86937133803,1.86169734432,0.202182593126,-0.297997071368,-1.20734244904,0.523836567654,0.514733805584,0.404229133716,0.345971684384,-0.284433631633,0.346216050769,0.320573008154,-1.55710651802,-0.564446478923,-0.452970035304,0.52058877189,-0.0717745775748,-0.0799114117218,-1.43929851794,0.360816888676,-0.431020617002,-1.03377985815,0.173727891172,-0.333486375241,1.19873488137,0.388098393232,-0.714045999,-1.68113157892,-0.212325314222,-0.126218408755,-1.13988931883,0.195491625653,0.225055529903,1.0958522079,-0.0528737819863,0.24260531709,-0.307465406105,-0.267041045653,0.203035441856,0.211573811372,0.234011322593,0.286298001603,-0.482328970753,0.308005532042,0.708836316044,-0.253456765711
NCI-H1299,-4.81531916644,-3.36481809134,-0.389863146279,0.232423847208,-1.00868079143,0.709766477326,0.135251147302,-0.61085110763,-1.87587619527,-0.0892146108457,-0.298323538045,0.247352807293,-0.432930998299,0.512555289605,0.491392283685,-0.750817492003,-0.096323398936,-0.480555868797,0.452527789223,0.22430153584,-0.0168987968644,0.394633130895,0.194521331214,-0.245345786737,0.00170852384807,-0.721157425562,0.140802220006,0.509163938501,-0.663489277886,0.522130295472,-0.139046703732,0.412533886851,-0.0476801024255,-0.109853888081,-0.11848886096,0.269927021332,0.0894004364805,-0.241273760203,0.277663995304,-0.154066070725,-0.926045073457,0.408786247282,-0.290031527969,-0.479204168033,-0.0815622419461,-0.139755220943,0.827578434511,-0.301346196226,0.29053762551,0.497223553564
NCI-H1437,-1.24287170231,1.43257274877,-0.0166524644715,-1.85533685239,-0.0980931804594,-0.349814650355,0.0237751399549,-0.0713790094132,0.716095462876,-0.268502098271,-0.141338436288,-0.596586064771,-0.40318529197,0.635381763674,0.0154653442348,-0.0852132108159,-0.0355079785129,0.217309215278,-0.254799988494,0.255094232723,-0.0263568723689,-0.0922778218881,-0.00834534388216,0.27080240641,-0.0614198891484,-0.229899226201,-0.127420564717,-0.41574540574,-0.00329317239346,0.192198848471,-0.253075563707,0.334583192773,0.0561890689513,-0.00941059599486,-0.066597024932,0.0118867342531,-0.0968346508541,-0.418172631341,0.273454411737,0.233070530617,-0.119526142814,-0.0818212593066,0.236898169158,0.188278100294,0.200607592133,0.14818831709,-0.355359879309,0.0714993646391,-0.118025698549,0.266801670513
NCI-H1563,-4.66211286198,-3.5607500055,-0.140337985417,0.483366395827,-0.197067916124,0.123750615842,0.369654549961,0.306415630026,-1.39213942453,2.1513200406,-0.26894146107,-0.0342312453155,0.914895013801,-0.694001998909,-0.20146766569,1.49214558739,0.831653925919,-0.153096130484,-0.0484841624366,-0.803171104221,0.455312176929,0.212494428745,0.487029813904,-0.00932631328586,0.425796738239,-0.0444841233509,0.101099517766,0.397735081994,-0.020704260803,0.319872937135,0.760338992423,-0.0929528691591,0.32612125603,-1.02788311882,0.284182431339,0.478902601719,0.685024727194,0.390727615898,-0.676052885467,0.284223031999,-0.122044015087,0.20089514198,0.404543420055,0.177562251341,0.223029732026,-1.02782256571,0.134360204586,0.766517972514,-0.451945796128,-0.120630531498
NCI-H1703,-4.56762831627,-3.45953979442,-0.126251771001,0.469959618167,-1.45435300038,1.70543046659,0.353393989407,-1.18112306304,-2.35397522116,0.665803594112,0.24246389173,-0.344268620006,-0.231778661319,0.115962633255,0.51328263987,0.165416502452,0.496686690493,-0.00825517335352,-0.0186964280783,0.888043546447,-0.838771595532,0.332940080551,0.869718575857,-0.428006420414,-0.897114927983,-1.62094810675,0.0284556906227,-0.244978745528,-0.218538382775,0.145488923558,-0.287535328794,0.571531738053,1.07561766364,-0.036576066894,0.203201770159,-0.14132357797,0.328519311361,0.114355791227,-0.725211639226,-0.112869232161,-0.0393923252748,0.212112677125,0.0692604294533,0.567957968628,0.237734605966,0.316790246993,-0.415572987201,0.0473538653102,0.15955486706,-0.682831285392
NCI-H1793,-4.7334847416,-4.0314372079,0.411212557557,0.330651316178,-0.447515241852,0.0213234099956,-0.131585226299,-0.388114549185,0.636429626317,0.508525467373,-0.630607101165,-0.430372911971,-0.654594094641,0.176206569127,0.195761423096,0.412847131515,-0.1995417747,-0.11769126368,-0.373834595688,-0.267664504509,0.462436818679,-0.764952960176,-0.126520711429,0.780074322972,0.555735413622,1.22336999032,-0.20821343446,-0.724377792244,0.399426064604,0.0150535280574,-0.119430182412,0.174194246009,-0.911885411025,0.567502575177,-0.0337441127627,-0.167774652844,0.172775060496,-0.0482889055275,0.0637065603824,0.145014010333,0.0245230287208,0.264974594441,-0.0301892544506,0.0358670633411,-0.781943948089,-0.366720044653,-1.04168627126,0.985464768783,0.245244955832,-0.467559623783
NCI-H1975,-4.95122476807,-3.07673333433,-0.763103305888,0.667130771841,1.56889258706,-1.5845339121,-0.0506990025513,2.09452115088,-0.205318953049,-0.441644274961,-0.317348922391,0.543089271686,-0.259841840694,0.850387268241,-0.712579292057,-0.508521547095,-0.204376205263,-0.624056706056,0.81299056171,0.482817132164,-0.787862756392,0.141827527019,-0.665543584906,-0.257170828789,0.692611895463,0.111981264725,-0.431684314204,0.88255825336,-0.104098886433,-0.16767333779,0.458113121156,0.212092908762,-0.655450457601,-0.736696723089,-0.383274158342,-0.295457846583,-0.346321964274,0.203847172604,0.360495645542,0.744479356936,-0.541854300508,0.580213043038,-0.094789062929,0.141097086958,-0.197616900173,-0.286433646949,-0.250936938195,-0.434039534924,-0.211942791299,-0.00730763576707
NCI-H2085,-4.54145755125,-4.10059033408,0.0879003464354,-0.411694071893,-0.260421406241,0.65324981585,-0.518553981224,-0.914447609911,0.972805316065,0.446593564855,0.546060147076,1.56065019776,0.199542678546,-1.04229771366,1.34248776997,-0.775812453119,0.338321355428,0.579270679267,-0.102640418716,-0.579312216441,-0.5981463809,0.156390237906,-1.01184258206,-0.78291484723,0.91457161816,0.311758179447,0.410888336016,0.261957364161,-0.920631519697,0.251011912719,0.109151995759,-0.156578447527,-0.567895583694,0.0168312564364,0.503104683561,-0.244037801282,0.547829015978,0.855603502011,0.5347133245,-0.856599872751,-0.452243834305,-0.111155514063,-1.24891342367,-0.247851375473,-0.126086775407,-0.19227659192,-0.0552701532012,0.524611416499,0.317819362033,-0.195548255088
NCI-H2170,-4.73595825802,-3.71797083928,-0.139728060785,-0.286368271673,1.04351862887,0.34050065072,-0.0943742742695,-0.500030348323,1.41279943215,-0.585074057593,0.874764361594,0.962398407081,0.252799393043,-0.801743154988,0.384278324563,-0.899243834659,-0.649371239758,0.613215393928,-1.05514946755,-0.281483775016,0.117333491349,0.0888207061149,-0.220078831025,0.18362470698,0.743147123994,-0.14417960596,0.956041458359,-0.307928780386,-0.157202763204,0.148574606816,-0.38830905331,0.50301216087,0.623995935237,0.496960143844,-0.0148714456384,0.385572770663,-0.597306271352,-0.586594179077,0.491547284148,0.854266666477,-0.480371915708,-0.14626642093,0.647798683495,0.714366389949,0.622676759446,-0.168972443475,-0.026408868767,-0.487835076465,-0.382217227332,-0.237359626492
NCI-H2228,-4.77398822274,-3.60682661639,-0.328251047781,0.576198909052,0.876689080172,-1.21680216952,0.163075975346,1.06172333791,0.933150640218,0.204705370788,-0.858124237552,-0.404222471827,-0.0480917090174,-0.0290307481685,-0.485033778081,0.0858421630991,0.0520749652108,0.128544676932,0.319074252054,-0.488046502275,-0.32638770254,-0.614113627558,0.206929027709,0.686082188323,-0.92088774083,0.351467117552,-0.704276775167,0.110460381526,0.566653066216,0.028028242818,-0.242644476268,-0.215201319519,-0.220639741124,-0.29271028179,-0.110335089282,0.50477995772,-0.104962471584,-0.232682142126,0.322975514487,-0.164264674342,-0.406736265336,-0.36361735819,-0.214610578467,0.36813189065,-0.891669670338,0.175391130351,0.530269559018,-0.704618354425,0.347182646852,-0.330715844502
NCI-H226,-4.5761047023,-3.94157484535,0.0736124735762,-0.118398652064,-0.992653508444,0.209070612742,-0.327240362975,-0.577072033478,-0.313612520733,1.678150351,-0.767516627293,1.22727172345,0.188040924509,-1.2816330299,-0.873531613946,0.34111022063,1.74119033403,1.79517017056,1.16240083874,0.75763007032,-0.183319261295,-0.298211327167,0.332236269382,-0.557223089581,-0.318563466458,-0.0615007532566,-0.636662370544,0.705239954773,0.987834972461,-0.010699268901,-0.712418526427,-0.223349810404,-0.318713085956,0.596577542709,-0.568116257358,0.0467521674059,-1.05567911815,-0.408138563559,0.623520761777,-0.000491098536734,-0.0852291092671,0.0257512434493,0.215343617178,-0.0231288493334,0.186759098913,0.0243410282905,-0.301787437793,-0.475077819415,-0.0466081424035,0.331629332414
NCI-H2291,-4.83357040282,-3.42569101699,-0.761721847493,0.880147752739,1.86567585834,-1.76480285291,-0.127545218455,2.10860762919,0.676985924297,0.343818495034,-0.237460305966,0.428784326777,0.953917190986,0.324629258484,-0.949758005371,-0.115824360869,-0.0714856211855,-0.250659600091,-0.315371212367,0.606012185878,-0.78985219629,0.327252154376,0.316971975214,0.0793323840893,-0.542944203032,-0.396508175907,-0.298245409287,-0.296447695689,-0.828054848471,-0.467466149203,0.279699257718,0.23331622419,0.0936180900508,-0.191615943181,-0.381411058755,-0.233318973514,0.332093688666,0.390023417053,-0.271009399563,-0.575747670162,-0.150244765843,-0.310913078029,-0.493446786543,-0.846429392429,0.145211768071,0.959457173811,-0.192378858556,-0.542770496664,0.449395579624,0.0377858171336
NCI-H23,-4.48507516323,-3.63981708955,0.229318311734,0.039168873035,-1.21961173042,1.0208054254,0.138735559492,-1.39065097334,-0.0514951303755,-0.849856547478,0.228908193091,-0.207525602532,-0.477095186002,0.221734862976,0.461808521006,-0.390987738155,0.176342297199,0.167008466988,0.063148039604,0.375630082524,-0.0890155658254,0.199298076247,-0.560875350377,-0.313714961067,-0.232617959561,-0.198455816512,-0.425722868724,-0.459701280125,-0.0295537639359,-0.310118625049,0.0520931705315,-0.178873749372,0.349709137155,0.523841278345,-0.0301942175483,-0.308802645219,-0.203319529102,-0.0515046134621,-0.136962217368,0.362359026763,0.458097656023,-0.0694379876993,-0.622937631294,0.217522663379,0.323122891812,0.324872417893,-0.27176843732,-0.421096080323,-0.425854321591,-0.00464121225445
NCI-H3122,-4.76166508222,-4.04435550385,-0.337698019185,0.253383209289,0.948286110065,-0.53033543443,-0.308216648534,0.202434515662,1.53608581546,-0.633078672804,0.739252980038,1.33119456744,1.53466194733,0.0631996339264,0.563305012235,-0.972851684983,-0.462572546121,0.468962642673,-0.417493150394,-0.514492722644,0.191455945236,-0.355547033317,0.00736803697255,-0.239493675018,0.282861543251,-0.844063117566,0.522283725426,-0.412562994847,-0.0142372430733,-0.1259668842,-0.0330309415648,-0.819767790508,0.529741348562,0.30328750541,0.122744186711,0.1754934851,0.155590006153,-1.19591887232,-0.357945058626,-0.138933720261,0.817686666132,-0.213202947184,0.0250746432072,-0.127500476506,-0.0923115498782,0.0102008771415,0.154373349814,0.191217661927,0.303182452926,-0.208993859172
NCI-H358,-4.99740100561,-3.23910748146,-0.64072656095,0.785395869183,2.193858888,-1.7981384909,-0.075135186359,2.30961727697,0.359434346567,-0.373087962256,0.103404246726,0.0524892761469,-0.252267587905,0.754277653344,-0.853303012763,0.0526091817715,-0.372537807041,-0.868891746468,-0.439483130685,0.59872717741,-0.922468941236,0.676833615742,0.0978107494423,0.730482751199,-0.107837855717,-0.228059115155,0.445480059626,0.458982454281,-0.565223861217,0.0152206606819,-0.84309873721,-0.040918665612,0.0678432086967,0.472184193143,0.880233659812,0.154273126908,0.209287389948,0.494936330501,0.171612144987,0.272230204865,-0.0553284294007,0.208176097398,0.613769750123,0.264595115235,0.570476853238,-0.596963262162,0.278242377484,0.63722780067,-0.348081742337,0.364857700945
NCI-H520,-4.22074873071,-3.56201334517,0.024406309582,-0.221421695526,-0.691027440314,1.15321623151,-0.025077997891,-1.19745849002,0.343250567116,-0.685882382318,1.12004746853,-0.0481955329379,0.114026435214,-0.935063264808,-0.531776311132,0.0259456153827,0.116247595281,0.119661304543,-1.03720182208,-0.916557463779,0.19370886155,0.090040274209,0.488086204636,0.291598252017,-0.52884215154,0.397633429422,-0.398709991334,-0.240375834191,-0.292678777793,-0.376756084973,0.775074068814,-0.704998835749,-0.581480004739,-1.16457532004,0.615622413384,0.846842339848,-0.197325613864,-0.453894949515,0.0203251620684,-0.114362825229,0.0248986129225,0.551675182079,0.323045084945,-0.648813865682,0.412926775193,0.811080108073,0.237511386973,0.0548120758396,0.179209414323,0.570042590275
NCI-H522,-4.52237496896,-3.38161643775,0.288849046895,-0.167741244333,-1.43048777466,1.52700530197,0.367321800988,-1.94082249621,-0.613123480707,-0.283358290065,0.516309636924,-0.724586295007,-0.811410365628,0.223426600605,0.445245161399,0.192651128635,-0.0130339657831,-0.925944800435,0.343456440359,0.285651122641,-0.0496968779898,0.0505054182146,-0.156985761725,-0.0437719665548,-0.515716368812,0.359611659043,-0.642245471651,-0.0817833188878,-0.15283205257,-0.906173589093,-0.0353569985622,-0.297382305213,-0.0645573410923,0.314326146468,0.167421101453,0.171521136584,0.478141694011,0.2484431175,-0.0592063204022,-0.29382435671,-0.17280264267,0.020914653741,0.519039836568,0.38497504043,-0.2404617827,-0.659955649759,0.893724885045,-0.175032839748,0.321774882478,-0.220453523639
NCI-H747,-1.44361040526,4.50366204926,-5.68736706844,1.85277398767,-0.577848813095,0.0812433150435,-0.262371231067,-0.414249362293,1.42325098312,0.617209095958,-0.310706154035,-0.425908984918,0.402982939688,-0.486639139488,0.556471689133,-0.100291324048,0.269791687025,0.545383377991,0.20708299862,0.622182189451,0.166183510165,0.13565795235,-0.416691392533,0.155967381102,0.430963006647,-0.485323718504,-0.951816195585,-0.0289942658206,-0.69956195007,-0.0238909801017,0.284320174924,0.174245129389,-0.0882233860998,0.0694185025626,-0.134297904723,1.25897038768,-0.194941574594,0.400121380606,-0.270051525716,-0.274494728615,0.618411825135,0.0552064171806,0.301292838754,-0.372823664703,-0.305495865484,-0.142230185093,-0.189421663767,0.192802545486,0.438209765081,-0.185795953492
NCI-H838,-4.85113660532,-3.68452498636,0.0598337615616,0.527094479454,-0.554970450716,-0.101531755716,0.219856362593,0.499616150283,-0.689233403398,-0.230780046905,-0.783926728115,-0.371188975758,-0.174815728062,0.663516310665,0.00118528871479,-0.0689624279433,-0.586940516103,0.136214515136,0.28771753562,-0.0936417538854,0.930270647467,-0.310249074434,-1.69161072841,-1.01821208914,0.830987146893,0.866666870242,-0.082936826151,-0.315466683973,0.654191680155,1.2109234351,0.214929296711,1.06559157285,0.093180806271,-0.404601297041,0.0475845863865,-0.937574746639,0.0377308818329,0.668553398731,0.0308592615057,0.196528314433,1.12031902005,0.360115145259,0.336980074866,-0.309432189783,0.860222403237,0.263138179004,0.175334162247,-0.352933064908,0.736502787059,0.255548695684
NCI-SNU-16,-1.29944748649,2.68995101834,-0.538062729468,-6.50338700187,1.20908156604,-4.24944581781,0.576320591555,-3.73580209956,-0.186949291562,0.425031799817,0.119490850834,-0.482215519356,0.066129279214,0.118620234121,-0.0334024647481,-0.186193219847,-0.527413728345,0.296254496591,0.0407510943003,-0.320375130516,0.0325187841928,0.104871034401,0.283488631448,0.274416415362,0.287659393948,-0.532997768074,-1.1057114896,-0.532823337269,-0.570628468554,0.840365734878,0.143499478539,0.620695928903,0.13124190229,-0.593380900123,-0.729270191674,0.0575497120636,-0.135392840354,0.343363310592,-0.0392981783468,0.490396825529,-0.779087367474,-0.592527128868,0.225654907984,-0.556887650855,0.104435957325,-0.240008329727,0.0346562525664,0.480641522054,-0.176240019866,-0.220771185779
RKO,-1.48564178962,4.68704394272,-5.79193451971,1.58449261522,-0.496191268087,0.670967770141,0.284369933134,0.300452943871,-1.96655401304,-0.959744314362,-0.726977900385,1.41266419073,0.365520976085,1.1981337428,-0.871671140068,-0.0757404580567,-0.291317181828,0.617398747706,0.0101568221359,-2.08361742395,0.132080544475,0.821163296322,0.192076722062,-0.659670933626,0.104713067814,0.199908333544,0.0146017116991,-0.984711425581,0.177571474239,-0.972724846094,-1.33543582198,0.874842902714,-0.111361941116,0.00391518952684,0.229998941224,0.351091701687,-0.268454006905,0.69661604464,-0.407326699127,0.0482409118029,-0.174960906393,-0.194949390234,0.014232299493,-0.303994380236,-0.758089884621,0.232306166836,-0.106787121964,0.128234810418,0.0417535564076,0.115005808122
RT4,-1.86743951194,4.09404270822,4.36741696126,1.54278157519,1.05601537496,0.301016230687,-0.139833770348,-0.0571088158922,0.593781058359,0.0171930453628,0.428400695973,-0.795414364981,0.869481850649,-1.13565502804,0.261710046493,0.605383260895,0.843241140285,-1.28148843933,0.0968424797634,-1.59208471379,-0.673549170462,0.827656635707,0.469371725351,-0.159544637672,0.338758447371,-0.281736667171,-0.525925769507,-0.326178332279,-0.944372243234,-0.371611314252,-0.432969849549,-0.0109918609049,-0.272719365356,0.433059684691,-1.11210675157,-0.57053854747,-0.662058447951,0.719152759578,0.543238544838,0.491699015724,0.856913776653,0.523690586925,-0.0404650195043,0.588173260589,0.216757746999,-4.87658630483e-05,-0.589830267709,-0.451805216218,-0.177641723504,-0.308815489062
SW48,-1.42785074699,4.82152581526,-5.79335505827,1.83822820475,0.136939869614,0.588064402254,0.125145465695,-0.163379247799,-0.70218742325,-0.261676765391,0.199064872756,1.00312888955,-0.515903572107,0.922331370717,-0.621246036329,0.259699641769,0.497147624134,-0.0206682769332,-0.770223932709,-0.729846071177,-0.00898243811939,-0.0933569442323,0.474508346802,-0.49884867906,-0.240256146079,0.588966982587,0.473746732404,0.0355199999368,0.317321037162,-0.31453109249,0.448830767482,-0.737755380886,-0.26202615052,-0.0544025392928,-0.457098474168,-0.190556971188,-0.236212878776,-0.450120478097,0.176577503042,-0.275466720342,0.0456635058029,-0.737009366325,0.0158206238834,0.42202343846,1.09961086923,-1.178413239,0.307646034689,0.145724728447,0.198022770893,0.0325223674531
SW620,-0.034231114133,0.0800482143614,-0.0946690994547,0.0245428879468,-0.0193064411409,0.019762764003,-0.00240554886964,-0.0169318040139,0.0286973107918,0.0238496593704,-0.0139885371804,0.00442084864035,0.010135072871,0.0117878335768,-0.00391275932784,-0.00284815634519,0.00359395625765,-0.00499966114815,-0.0063951022575,-0.0160692616868,0.00344866267627,0.00104751533701,-0.00546321842389,-0.00785890310278,0.00746418322525,0.00198853663072,0.00323266011686,-0.00306325221031,0.00776318537425,0.00140613669204,0.000647956264143,-0.00425393728215,-0.00980272096136,0.00399596849238,0.00958141569166,0.00473165792239,-0.00799265115178,0.00605777107225,-0.00236093133471,-0.000265312273261,0.00472627602332,0.00498496837104,-0.0034026980942,-0.000696854011081,0.00188585866155,-0.0022100161229,0.000304766982711,0.00375159760413,0.00438739708658,0.000345104467437
SW780,-1.82808482878,4.11688929228,4.61869605939,1.34765357076,0.682368525995,0.378948102646,0.0828429054978,-0.0364104620241,0.282601098014,0.151330857397,0.796104181537,0.0612837800179,-0.0729776449003,-0.464769980594,0.53170270819,0.827137598826,0.893650725121,-1.02254380998,-0.546474698448,-0.885848096547,-0.161872183329,0.980889023036,0.123251094609,0.0807448159438,0.279217217675,-0.326959512838,0.14594133186,-0.159128579291,0.315102002239,0.383583856758,0.397737364781,0.343814481626,-0.438717381513,0.0686207087287,-0.0739276497813,-0.0134960334218,0.336192939603,-0.162493105503,-0.197611147432,0.119952537707,0.0211489405945,-0.351603813522,-0.566238870722,0.454400743438,-0.21679944657,0.132379877371,0.288837467567,-0.623473636177,0.585752500678,1.32648745026
SW837,-1.54558848346,4.49341277133,-5.58276687945,2.04282401198,-0.578568990881,-0.0425111777414,-0.1950441421,-0.234319837131,1.2017480888,0.718384231034,0.282893277451,-0.88949105925,0.102321303804,-0.596905832846,0.0563324409208,-0.183975497061,0.329894114451,-0.418706093742,-0.0458395705481,0.967084365044,0.508102016996,-0.338214831471,-0.513216170258,0.551690225539,0.400259821285,0.327218750879,0.221175458386,0.312288287453,-0.89028461539,0.0302949740421,-0.0363461238348,0.160307712735,0.178565415555,-0.00392069606557,-0.625450744604,0.234823242398,1.06176592235,0.0876319285584,-0.884579373141,0.220821562894,0.0905050036822,-0.144096464802,-0.178715988904,-0.0841873859539,-0.0419052612284,0.3589239591,-0.588500857568,-0.20158685933,-0.310302997301,0.812942355146
SW900,-4.80600326915,-3.75294788735,-0.211238990924,0.858932863971,0.872347294884,-1.08392566594,-0.239113726301,1.28616547129,0.847420227262,0.510146019077,-0.344909707185,-0.328288559799,0.509887191773,0.221383822462,-0.460455026618,0.0903845004765,-0.181350272916,-0.0209844295737,-0.165137281852,-0.423452361481,-0.413221355346,-0.584834437781,0.387955757386,0.189235463188,-0.704115693428,-0.250740884693,-0.296607903353,-0.172167273547,0.66480307459,-0.11290018862,0.0974468319593,-0.755063945368,0.389413647289,-0.441458336389,0.0512815452464,0.0174436900652,0.204702241697,0.310633065979,0.103013666185,0.214870386293,0.61022572238,-0.701229850844,-0.316168940177,-0.136946559433,-0.462954007352,-0.266531195959,-0.135413432427,0.443567962102,-0.390101883789,-0.050401219444
SW948,-1.24218064496,4.50997437198,-5.47705120959,1.82869962915,-0.632389380353,0.553788059708,-0.334658376098,-0.706304878331,1.24461093406,0.35666209106,-0.0880888731205,-1.03670709138,0.148280566151,-0.544068409531,0.346877346285,-0.0311544742979,0.00268726857732,-0.441318115621,0.116885071079,0.38545804359,-0.463882358461,-0.103425548498,-0.221619310603,0.361517270506,0.324795471512,-0.259609781448,-0.30713752017,-0.490177748972,0.52499759425,0.190560042925,0.120001006831,0.236062235929,0.110556547797,0.676876399336,-0.00655534411869,0.270314065778,-0.520659495801,-0.184573199337,0.235496142428,-0.122128046452,-0.164697652473,-0.131089303479,0.318588159967,-0.680005130186,-0.0458595130755,-0.320457938269,1.16633718165,-0.352434739246,0.443225974386,0.0495331313421
T-24,-2.01366638292,4.55612107537,4.73447949298,1.83226892367,-0.324828152399,-0.606481097891,0.0378635771186,0.865101108426,-0.343656416263,0.0815396696659,-0.576148573689,-0.935060771146,0.0560768483904,-0.123202151384,0.169969308639,-0.186904745891,-0.197760468902,0.67042622739,0.504750323925,-0.111474471004,0.204993416315,-0.175931473422,0.127771614297,-0.0389123549604,-0.540951333354,-0.0245350306958,-0.638054668227,0.155910514625,0.56991014531,-0.485328520616,0.0480611759416,-0.0729491489933,-0.19373003499,0.156438790704,-0.0245438447481,0.356818341702,0.886517065568,-0.0435660888439,0.422246190523,0.387048372912,-0.0905263827381,-0.575528802879,-0.112207611253,0.0970437341659,0.941485073663,0.115309781531,-0.308672471048,-0.237434325212,0.375846737301,0.321698251451
T47D,4.50153797255,-1.18772535672,0.452229647286,-0.120455190201,1.50165086625,0.521163814983,0.0146594580059,-0.712304243671,0.377682387924,-0.202809990351,-1.27796759487,0.0311310312472,-0.0516860629894,0.244999460415,0.0110180029223,0.199262313203,1.70078217133,-0.232831024883,-0.781665760079,0.468904346066,0.170038507916,0.0253545292032,0.26689964127,-0.677859543674,0.153487400432,-0.19925361805,0.212586628937,-0.571848147196,0.578331509709,0.0991410410133,0.241987248778,-0.0108013777651,0.315341658353,0.408590877336,0.194010182079,0.204284141789,-0.75802566862,0.145314612259,0.233595478453,0.106480699217,-0.999541010876,0.721094125946,-0.699508167775,-0.274601917729,-0.017696247321,0.167000336896,-0.654618428355,1.105821564,0.578204121006,0.383145535244
TCCSUP,-1.84016116502,4.31911554923,4.50973268523,1.00380053529,0.0247028924003,0.0138894617455,-0.019899240511,-0.142691078225,0.114422971077,-0.40518089458,-0.866191295308,-0.0390888211646,0.558852978805,0.582306977611,-0.480198762188,1.33132813331,-0.337838859914,0.776007571653,0.691758875315,0.737439620697,0.183714048423,0.831040440968,0.0259574358512,-0.0273213732357,1.66288060335,-0.328669369386,-0.37512089166,-1.05576571347,-0.327097390357,0.08232448685,0.492097382621,-1.14734055969,0.301992255747,-0.236167205369,1.00442885716,-0.748152104057,0.800164675017,-0.659531404792,0.253256551519,-0.359054893583,-0.591038110905,-0.00491030847579,0.138649810648,0.352676015949,-0.00602588953571,0.141931859472,0.142149603851,-0.579271918134,0.103346475007,-0.427761298718
UACC-812,4.63449004891,-1.51794065344,0.471439877662,0.0677520119555,1.09874202062,0.867601316738,0.0310462594679,-0.434958875433,0.892248815122,-0.300633251456,-0.294101217774,-0.301598356729,1.23954708909,1.12484960453,0.158841157195,0.118506964859,0.18241018761,-0.105672376341,0.320581100569,0.706903370161,-0.529990313792,0.144763499614,0.161067363594,-0.261211864034,0.119069868934,0.032902699573,0.275859301354,-0.21783596335,0.036957992838,0.635825908564,0.855070654993,-0.297362873468,-0.407935640696,0.0636700273481,-0.0955420553827,0.456046412129,-0.758208585069,0.0816298976996,-0.294550643173,-0.846127121827,0.439614401049,0.452805115457,0.410879721812,0.0989439346799,0.161078318512,-0.717004380611,-0.74749433848,-0.375149305759,-0.641500893726,0.403009381394
UM-UC-3,-2.02970514905,4.47732652195,4.77170169603,0.86542451928,-0.903530499747,1.05717807741,0.332642238692,-0.397876480382,-2.03530199866,0.24273453957,-0.22161028688,0.366738050972,1.192672196,-0.158751386012,-0.135931432906,-1.33403865275,-1.0218015912,-1.78339257953,0.596746765186,0.566606191416,-0.353455281345,-2.58028685119,1.09326558007,0.0793605244329,1.32530993272,-0.495818166767,0.226187911294,-0.0290594149786,0.0882342668434,-0.555165425855,-0.346020809688,0.311088978076,-0.65224092418,-0.518765334194,0.351230036623,0.355675717885,-0.795564907901,-0.307898238562,-0.183181370911,-0.0845285078483,0.31881218377,-0.107107670649,-0.309228865132,-0.185860090968,0.012962463503,-0.0430689205964,-0.115471188747,0.166163199556,0.0985238683284,0.187614451592
VCaP,-1.43543606808,2.44205733448,-0.455017840597,-7.81228642953,-0.454573705643,1.53043171015,-5.04261661581,1.45996821629,-0.195789445579,-0.13566835941,-0.222537159902,-0.573823869631,0.07330643008,0.193348651187,-0.113842071585,0.291027449773,0.0144782001789,0.196573833619,-0.127231984877,0.0158271009809,-0.415373657665,-0.0842133649064,0.0919394809775,-0.309703123389,-0.307268557219,0.133512962864,0.349923877305,-0.661981994674,-0.11326275503,0.0871038708254,0.0859188764593,0.0243900635343,0.241105195295,-0.118155226345,-0.114435549139,-0.228061757729,-0.736142348299,0.687000911968,-0.138848426392,-0.0797014362961,-0.0829237481029,-0.3812281068,-0.201804659753,-0.0946037158504,0.399259100726,0.552066528526,0.451375001151,-0.0858465004099,-0.531170176821,-0.232304196268
VM-CUB-1,-2.09533911088,4.71345393937,4.58024408569,1.79297033117,0.334911630341,-0.58604760219,0.107644613735,0.520900648664,-0.644694539034,-0.437410666326,-0.266727573983,-0.233189047668,-0.226073084422,-0.36297540888,-0.225081579858,-0.986689410263,0.456373525171,0.568846542976,0.0525536562659,-0.379685365356,0.956578310873,-0.389305803598,-0.429689224903,-0.55455033775,-0.581926924581,0.335864690116,0.103738710848,0.537884060956,-0.222628014777,0.117048781604,0.531941948359,-0.0464420160606,-0.0058973378907,-0.485687858977,0.0890399028638,0.593882744342,-0.0474000909833,0.251975723013,-0.559453742451,0.0663385596678,-0.443414577949,0.630484120304,-0.238327694132,0.469270685436,0.462223815362,0.448731734431,0.120665833499,0.1559303988,-0.464277354954,-1.17673316024
